{"componentChunkName":"component---src-templates-paginated-blog-index-tsx","path":"/blog/page/46/","result":{"pageContext":{"page":46,"total":753,"pages":76,"prev":45,"next":47,"limit":10,"items":[{"node":{"id":"378798f3-cce4-56c3-9781-ca7f2eeac803","fields":{"slug":"/blog/2007-02-18-spring-festival-evening/","type":"blog","timeToRead":{"words":268,"minutes":2}},"frontmatter":{"title":"春晚","publish_date":"2007-02-18T12:31:59.000+08:00"}}},{"node":{"id":"38f4c7cf-79d8-59c2-b416-64348711692f","fields":{"slug":"/blog/2007-02-16-listless/","type":"blog","timeToRead":{"words":196,"minutes":1}},"frontmatter":{"title":"无聊","publish_date":"2007-02-16T14:34:38.000+08:00"}}},{"node":{"id":"00cdea7b-2e0b-5ef5-aedd-855d4d53051f","fields":{"slug":"/blog/2007-02-15-indivicible-youth/","type":"blog","timeToRead":{"words":205,"minutes":1}},"frontmatter":{"title":"青春无敌","publish_date":"2007-02-15T19:15:42.000+08:00"}}},{"node":{"id":"55231929-5d75-5d8c-8b05-d95785696c9c","fields":{"slug":"/blog/2007-02-14-happy-valentine/","type":"blog","timeToRead":{"words":272,"minutes":2}},"frontmatter":{"title":"瓦泠丁节快乐","publish_date":"2007-02-14T16:59:46.000+08:00"}}},{"node":{"id":"976dfd54-07ea-5b18-8a6e-6043e82dafd3","fields":{"slug":"/blog/2007-02-13-regret/","type":"blog","timeToRead":{"words":440,"minutes":3}},"frontmatter":{"title":"追悔","publish_date":"2007-02-13T18:27:35.000+08:00"}}},{"node":{"id":"a5322dc1-ac2f-5b3c-8c16-01ca57aaf530","fields":{"slug":"/blog/2007-02-07-expectation/","type":"blog","timeToRead":{"words":323,"minutes":2}},"frontmatter":{"title":"期望","publish_date":"2007-02-07T17:33:54.000+08:00"}}},{"node":{"id":"36b53109-5aee-5b6e-979b-dc62170c49b9","fields":{"slug":"/blog/2007-02-06-sleepy/","type":"blog","timeToRead":{"words":158,"minutes":1}},"frontmatter":{"title":"困","publish_date":"2007-02-06T17:30:36.000+08:00"}}},{"node":{"id":"6c037819-296e-5ef3-a6b0-2a5168da110d","fields":{"slug":"/blog/2007-02-02-poem/","type":"blog","timeToRead":{"words":205,"minutes":1}},"frontmatter":{"title":"诗","publish_date":"2007-02-02T17:37:03.000+08:00"}}},{"node":{"id":"fb396cde-4577-5c66-abe5-bd961b0673e0","fields":{"slug":"/blog/2007-02-02-decrement/","type":"blog","timeToRead":{"words":154,"minutes":1}},"frontmatter":{"title":"递减","publish_date":"2007-02-02T17:26:03.000+08:00"}}},{"node":{"id":"9b4ad140-f202-55b0-8ac6-7c6d2876b8e9","fields":{"slug":"/blog/2007-02-01-monthly-exam-jan/","type":"blog","timeToRead":{"words":287,"minutes":2}},"frontmatter":{"title":"月考","publish_date":"2007-02-01T18:58:55.000+08:00"}}}]}},"staticQueryHashes":["2356112386"],"slicesMap":{}}