{"componentChunkName":"component---src-templates-paginated-blog-index-tsx","path":"/blog/page/70/","result":{"pageContext":{"page":70,"total":753,"pages":76,"prev":69,"next":71,"limit":10,"items":[{"node":{"id":"cfc296f2-fd70-51e3-8d7c-686447e8903b","fields":{"slug":"/blog/2005-05-21-soso/","type":"blog","timeToRead":{"words":23,"minutes":0}},"frontmatter":{"title":"还不错","publish_date":"2005-05-21T19:23:45.000+08:00"}}},{"node":{"id":"4df033a4-acbb-5477-971a-44fea1ae1d6f","fields":{"slug":"/blog/2005-05-21-untitled/","type":"blog","timeToRead":{"words":143,"minutes":1}},"frontmatter":{"title":"……","publish_date":"2005-05-21T18:06:00.000+08:00"}}},{"node":{"id":"f27d2161-bd3d-51cb-98d1-dc8385d0969d","fields":{"slug":"/blog/2005-05-19-direction/","type":"blog","timeToRead":{"words":76,"minutes":0}},"frontmatter":{"title":"方向","publish_date":"2005-05-19T15:00:00.000+08:00"}}},{"node":{"id":"21886868-017a-5ded-827a-f3d6ed6da0e8","fields":{"slug":"/blog/2005-05-13-tired/","type":"blog","timeToRead":{"words":99,"minutes":1}},"frontmatter":{"title":"好累啊","publish_date":"2005-05-13T20:39:00.000+08:00"}}},{"node":{"id":"6132e088-fd76-508c-8198-148b71b9f362","fields":{"slug":"/blog/2005-05-03-loses-more-than-wins/","type":"blog","timeToRead":{"words":39,"minutes":0}},"frontmatter":{"title":"输多赢少……","publish_date":"2005-05-03T22:35:00.000+08:00"}}},{"node":{"id":"aded1d0f-25e6-5d55-a2f9-c17fd09f02ab","fields":{"slug":"/blog/2005-05-02-mengya/","type":"blog","timeToRead":{"words":193,"minutes":1}},"frontmatter":{"title":"萌芽","publish_date":"2005-05-02T20:40:00.000+08:00"}}},{"node":{"id":"10c3c56c-9f52-5621-98b0-b78506ef9d88","fields":{"slug":"/blog/2005-05-02-decadent/","type":"blog","timeToRead":{"words":144,"minutes":1}},"frontmatter":{"title":"颓废","publish_date":"2005-05-02T20:35:00.000+08:00"}}},{"node":{"id":"06a5bb1e-baa1-562e-97cd-af3985bcdb1a","fields":{"slug":"/blog/2005-04-30-7-points/","type":"blog","timeToRead":{"words":27,"minutes":0}},"frontmatter":{"title":"7 分纪念","publish_date":"2005-04-30T19:44:00.000+08:00"}}},{"node":{"id":"a4ca5b4e-cde6-524c-81d9-416f9b42de28","fields":{"slug":"/blog/2005-04-30-do-not-know/","type":"blog","timeToRead":{"words":138,"minutes":1}},"frontmatter":{"title":"不知道","publish_date":"2005-04-30T19:40:00.000+08:00"}}},{"node":{"id":"67496a4d-3768-5753-a1b5-fb38393beac3","fields":{"slug":"/blog/2005-04-29-exams/","type":"blog","timeToRead":{"words":194,"minutes":1}},"frontmatter":{"title":"稀里糊涂","publish_date":"2005-04-29T17:53:00.000+08:00"}}}]}},"staticQueryHashes":["2356112386"],"slicesMap":{}}