{"componentChunkName":"component---src-templates-paginated-blog-index-tsx","path":"/blog/page/75/","result":{"pageContext":{"page":75,"total":753,"pages":76,"prev":74,"next":76,"limit":10,"items":[{"node":{"id":"29af00fd-d239-5f36-9c31-891f470d74c1","fields":{"slug":"/blog/2004-11-20-design/","type":"blog","timeToRead":{"words":177,"minutes":1}},"frontmatter":{"title":"设计","publish_date":"2004-11-20T20:57:00.000+08:00"}}},{"node":{"id":"48c9ec93-4d80-54ce-a912-cfaed27d140e","fields":{"slug":"/blog/2004-11-18-winter/","type":"blog","timeToRead":{"words":144,"minutes":1}},"frontmatter":{"title":"冬天","publish_date":"2004-11-18T15:02:00.000+08:00"}}},{"node":{"id":"0104da3a-f6e3-597a-86b5-89da88d0d4a8","fields":{"slug":"/blog/2004-11-18-long-time-no-see/","type":"blog","timeToRead":{"words":90,"minutes":1}},"frontmatter":{"title":"好久不来了","publish_date":"2004-11-18T14:52:00.000+08:00"}}},{"node":{"id":"6ae37154-28a8-5043-b3d5-c63822b9b66d","fields":{"slug":"/blog/2004-10-24-lazy/","type":"blog","timeToRead":{"words":96,"minutes":1}},"frontmatter":{"title":"懒洋洋……","publish_date":"2004-10-24T12:11:00.000+08:00"}}},{"node":{"id":"0ae8e4fa-e6c9-5f37-a014-a43e1f6f68e5","fields":{"slug":"/blog/2004-10-24-taiko-4/","type":"blog","timeToRead":{"words":292,"minutes":2}},"frontmatter":{"title":"太阁 4","publish_date":"2004-10-24T11:59:00.000+08:00"}}},{"node":{"id":"9c80a1f6-28c3-5b0c-ac4b-10426d61cab8","fields":{"slug":"/blog/2004-10-23-my-computer/","type":"blog","timeToRead":{"words":144,"minutes":1}},"frontmatter":{"title":"我的电脑","publish_date":"2004-10-23T22:49:00.000+08:00"}}},{"node":{"id":"3a9acf68-49cd-5a8e-b9be-348ff9d3ba9b","fields":{"slug":"/blog/2004-10-23-untitled/","type":"blog","timeToRead":{"words":278,"minutes":2}},"frontmatter":{"title":"……","publish_date":"2004-10-23T22:32:00.000+08:00"}}},{"node":{"id":"1404c08f-05dc-5451-b6db-ec5c519996b3","fields":{"slug":"/blog/2004-10-23-my-first-program/","type":"blog","timeToRead":{"words":157,"minutes":1}},"frontmatter":{"title":"我的第一个程序","publish_date":"2004-10-23T18:02:00.000+08:00"}}},{"node":{"id":"f75d3a9f-7519-5d99-a975-7b39d7679c0f","fields":{"slug":"/blog/2004-10-23-ex-classmate/","type":"blog","timeToRead":{"words":102,"minutes":1}},"frontmatter":{"title":"同学……","publish_date":"2004-10-23T17:58:00.000+08:00"}}},{"node":{"id":"61218f98-e6d1-5817-93a5-8c9ccf697ad9","fields":{"slug":"/blog/2004-10-23-fortunately-understand/","type":"blog","timeToRead":{"words":41,"minutes":0}},"frontmatter":{"title":"还好明白了","publish_date":"2004-10-23T17:48:00.000+08:00"}}}]}},"staticQueryHashes":["2356112386"],"slicesMap":{}}