{"componentChunkName":"component---src-templates-paginated-blog-index-tsx","path":"/blog/page/44/","result":{"pageContext":{"page":44,"total":753,"pages":76,"prev":43,"next":45,"limit":10,"items":[{"node":{"id":"6da80835-ae60-57c4-ac33-8760bf061f92","fields":{"slug":"/blog/2007-03-22-irritable/","type":"blog","timeToRead":{"words":145,"minutes":1}},"frontmatter":{"title":"暴躁","publish_date":"2007-03-22T08:31:10.000+08:00"}}},{"node":{"id":"d0e7c5ae-d54a-53a4-b4df-3e14c4433d2c","fields":{"slug":"/blog/2007-03-11-songs-not-sung-to-you/","type":"blog","timeToRead":{"words":291,"minutes":2}},"frontmatter":{"title":"没能唱给你的歌","publish_date":"2007-03-11T17:52:34.000+08:00"}}},{"node":{"id":"d3bf45b0-8dca-5b35-b3ca-e316de6b95ae","fields":{"slug":"/blog/2007-03-10-plum-season-rain/","type":"blog","timeToRead":{"words":164,"minutes":1}},"frontmatter":{"title":"梅子时节雨","publish_date":"2007-03-10T20:50:35.000+08:00"}}},{"node":{"id":"5adcd73a-3da1-5d37-a60b-517bbecf252d","fields":{"slug":"/blog/2007-03-10-poverty/","type":"blog","timeToRead":{"words":258,"minutes":2}},"frontmatter":{"title":"贫穷","publish_date":"2007-03-10T20:49:20.000+08:00"}}},{"node":{"id":"f2db09ca-9169-5c66-aaa1-06c66a33e13a","fields":{"slug":"/blog/2007-03-05-two-hearts/","type":"blog","timeToRead":{"words":203,"minutes":1}},"frontmatter":{"title":"两心花","publish_date":"2007-03-05T18:04:07.000+08:00"}}},{"node":{"id":"09c8e356-cb8c-53be-94fb-13c3751c53f7","fields":{"slug":"/blog/2007-03-05-physical-exam/","type":"blog","timeToRead":{"words":239,"minutes":1}},"frontmatter":{"title":"体检","publish_date":"2007-03-05T17:27:52.000+08:00"}}},{"node":{"id":"78dd9601-2eff-551b-afff-775acace894b","fields":{"slug":"/blog/2007-03-03-belif/","type":"blog","timeToRead":{"words":109,"minutes":1}},"frontmatter":{"title":"相信","publish_date":"2007-03-03T20:53:07.000+08:00"}}},{"node":{"id":"cf90f4a0-5492-583f-8854-5105905dbbc1","fields":{"slug":"/blog/2007-03-03-tortoise/","type":"blog","timeToRead":{"words":236,"minutes":1}},"frontmatter":{"title":"乌龟","publish_date":"2007-03-03T20:32:17.000+08:00"}}},{"node":{"id":"59c06d7e-514b-5987-8e03-992ecdfebf63","fields":{"slug":"/blog/2007-03-03-chinese/","type":"blog","timeToRead":{"words":234,"minutes":1}},"frontmatter":{"title":"可怜的语文","publish_date":"2007-03-03T20:31:35.000+08:00"}}},{"node":{"id":"ec90625f-0a55-58d1-9b42-860a5c1b1841","fields":{"slug":"/blog/2007-02-28-new-term/","type":"blog","timeToRead":{"words":48,"minutes":0}},"frontmatter":{"title":"新学期","publish_date":"2007-02-28T17:16:00.000+08:00"}}}]}},"staticQueryHashes":["2356112386"],"slicesMap":{}}