{"componentChunkName":"component---src-templates-paginated-blog-index-tsx","path":"/blog/page/36/","result":{"pageContext":{"page":36,"total":753,"pages":76,"prev":35,"next":37,"limit":10,"items":[{"node":{"id":"8f4fc3f0-ff2c-5a60-ba99-0112abb5f865","fields":{"slug":"/blog/2007-09-29-some-photos/","type":"blog","timeToRead":{"words":345,"minutes":2}},"frontmatter":{"title":"发发图片……","publish_date":"2007-09-29T21:43:45.000+08:00"}}},{"node":{"id":"32e1e379-bb20-5c39-8f9b-c0346dfed70e","fields":{"slug":"/blog/2007-09-22-trivias/","type":"blog","timeToRead":{"words":482,"minutes":3}},"frontmatter":{"title":"北航琐事","publish_date":"2007-09-22T17:18:14.000+08:00"}}},{"node":{"id":"dd084c79-1312-5f0f-86e5-5df6afad227c","fields":{"slug":"/blog/2007-09-20-french/","type":"blog","timeToRead":{"words":266,"minutes":2}},"frontmatter":{"title":"法语","publish_date":"2007-09-20T11:38:52.000+08:00"}}},{"node":{"id":"cf9065ca-6fe4-502b-b2fd-c282b3f318fd","fields":{"slug":"/blog/2007-09-17-university-life/","type":"blog","timeToRead":{"words":481,"minutes":3}},"frontmatter":{"title":"大学生活","publish_date":"2007-09-17T17:05:18.000+08:00"}}},{"node":{"id":"c857f0b8-d723-51b2-82ec-2a167fc9493b","fields":{"slug":"/blog/2007-09-09-departure/","type":"blog","timeToRead":{"words":139,"minutes":1}},"frontmatter":{"title":"我要出发了","publish_date":"2007-09-09T12:01:02.000+08:00"}}},{"node":{"id":"616d965e-ce73-50ee-9351-d1b5ddaed276","fields":{"slug":"/blog/2007-09-09-leaving/","type":"blog","timeToRead":{"words":139,"minutes":1}},"frontmatter":{"title":"我要出发了","publish_date":"2007-09-09T11:59:45.000+08:00"}}},{"node":{"id":"2a8c9dd7-b852-5b07-9667-b16e43539908","fields":{"slug":"/blog/2007-09-07-wasting-time/","type":"blog","timeToRead":{"words":196,"minutes":1}},"frontmatter":{"title":"荒废光阴","publish_date":"2007-09-07T10:26:06.000+08:00"}}},{"node":{"id":"398252b5-cf42-5662-a653-b443f8455d21","fields":{"slug":"/blog/2007-09-06-classroom/","type":"blog","timeToRead":{"words":294,"minutes":2}},"frontmatter":{"title":"我们的教室","publish_date":"2007-09-06T18:19:50.000+08:00"}}},{"node":{"id":"65217426-b2b5-5f1e-8d5c-110824fc8ca7","fields":{"slug":"/blog/2007-09-05-expressing-skill/","type":"blog","timeToRead":{"words":162,"minutes":1}},"frontmatter":{"title":"语言能力","publish_date":"2007-09-05T11:43:02.000+08:00"}}},{"node":{"id":"9ee1b23d-941a-584f-9a8b-b0fa5325355e","fields":{"slug":"/blog/2007-09-05-teachers/","type":"blog","timeToRead":{"words":298,"minutes":2}},"frontmatter":{"title":"老师们","publish_date":"2007-09-05T11:39:33.000+08:00"}}}]}},"staticQueryHashes":["2356112386"],"slicesMap":{}}