{"componentChunkName":"component---src-templates-paginated-blog-index-tsx","path":"/blog/page/66/","result":{"pageContext":{"page":66,"total":753,"pages":76,"prev":65,"next":67,"limit":10,"items":[{"node":{"id":"a06f893c-5e6a-5ec7-bab5-9b91bed9d60b","fields":{"slug":"/blog/2005-08-28-new-term-begins/","type":"blog","timeToRead":{"words":89,"minutes":1}},"frontmatter":{"title":"开学的时候","publish_date":"2005-08-28T17:31:34.000+08:00"}}},{"node":{"id":"af0d38f1-59df-5e02-aca8-fc40de0ec4b7","fields":{"slug":"/blog/2005-08-12-missed/","type":"blog","timeToRead":{"words":207,"minutes":1}},"frontmatter":{"title":"错过……","publish_date":"2005-08-12T18:19:20.000+08:00"}}},{"node":{"id":"463f1d41-d2bb-5526-bf51-66246ecb7e70","fields":{"slug":"/blog/2005-08-10-what-i-sing-for/","type":"blog","timeToRead":{"words":187,"minutes":1}},"frontmatter":{"title":"我为什么而唱？","publish_date":"2005-08-10T19:26:30.000+08:00"}}},{"node":{"id":"6b1205e1-0a6b-5009-b539-9e0c5e4920af","fields":{"slug":"/blog/2005-08-10-anxiety/","type":"blog","timeToRead":{"words":293,"minutes":2}},"frontmatter":{"title":"心慌慌","publish_date":"2005-08-10T19:19:51.000+08:00"}}},{"node":{"id":"c5f7179f-7e12-5eee-9da2-d73541a4e49d","fields":{"slug":"/blog/2005-08-09-no-topic/","type":"blog","timeToRead":{"words":315,"minutes":2}},"frontmatter":{"title":"乱写","publish_date":"2005-08-09T19:31:38.000+08:00"}}},{"node":{"id":"e575ce59-c5c2-5e14-863d-55a5abd32d2b","fields":{"slug":"/blog/2005-08-07-reflection/","type":"blog","timeToRead":{"words":236,"minutes":1}},"frontmatter":{"title":"反思","publish_date":"2005-08-07T09:02:24.000+08:00"}}},{"node":{"id":"43bc4c26-a2d4-55df-914c-87b459d8f04e","fields":{"slug":"/blog/2005-08-05-clouds-far-away/","type":"blog","timeToRead":{"words":319,"minutes":2}},"frontmatter":{"title":"彼岸浮云","publish_date":"2005-08-05T18:36:18.000+08:00"}}},{"node":{"id":"a7b55d8c-a659-583d-a3ef-b7145140eaf1","fields":{"slug":"/blog/2005-08-04-lucky/","type":"blog","timeToRead":{"words":159,"minutes":1}},"frontmatter":{"title":"幸运","publish_date":"2005-08-04T17:33:43.000+08:00"}}},{"node":{"id":"101adb19-aa1b-51f1-9ce7-e5b1f9b18ebd","fields":{"slug":"/blog/2005-08-03-somehow/","type":"blog","timeToRead":{"words":128,"minutes":1}},"frontmatter":{"title":"莫名……","publish_date":"2005-08-03T18:58:52.000+08:00"}}},{"node":{"id":"fa58a0a1-f3f5-5c6a-bcd5-8713cfaf711f","fields":{"slug":"/blog/2005-08-01-lessons-beigin/","type":"blog","timeToRead":{"words":241,"minutes":2}},"frontmatter":{"title":"补课了","publish_date":"2005-08-01T18:47:37.000+08:00"}}}]}},"staticQueryHashes":["2356112386"],"slicesMap":{}}