{"componentChunkName":"component---src-templates-paginated-blog-index-tsx","path":"/blog/page/69/","result":{"pageContext":{"page":69,"total":753,"pages":76,"prev":68,"next":70,"limit":10,"items":[{"node":{"id":"aa555db6-1291-5da6-b793-58c4a1caa14e","fields":{"slug":"/blog/2005-06-08-works-suite/","type":"blog","timeToRead":{"words":39,"minutes":0}},"frontmatter":{"title":"继续……以前的设计","publish_date":"2005-06-08T11:22:04.000+08:00"}}},{"node":{"id":"2eccde46-184d-5e20-8878-33de4c034832","fields":{"slug":"/blog/2005-06-07-works-suite/","type":"blog","timeToRead":{"words":111,"minutes":1}},"frontmatter":{"title":"还是以前的设计","publish_date":"2005-06-07T22:06:22.000+08:00"}}},{"node":{"id":"7923f343-7cdb-53de-9862-cb5a9ce86670","fields":{"slug":"/blog/2005-06-05-works/","type":"blog","timeToRead":{"words":55,"minutes":0}},"frontmatter":{"title":"以前的设计","publish_date":"2005-06-05T18:14:41.000+08:00"}}},{"node":{"id":"8fc863ae-4a2b-5f32-8e3c-564405a8b31d","fields":{"slug":"/blog/2005-06-04-love-poetry/","type":"blog","timeToRead":{"words":180,"minutes":1}},"frontmatter":{"title":"心悦君兮君不知？","publish_date":"2005-06-04T18:25:06.000+08:00"}}},{"node":{"id":"0e617196-db22-57b7-afc1-3f484905abc2","fields":{"slug":"/blog/2005-06-03-electricity-failure/","type":"blog","timeToRead":{"words":498,"minutes":3}},"frontmatter":{"title":"停电呵","publish_date":"2005-06-03T22:23:31.000+08:00"}}},{"node":{"id":"1a9d6eb9-2881-5848-a42e-efe1ced419c6","fields":{"slug":"/blog/2005-05-29-maggie-is-back/","type":"blog","timeToRead":{"words":145,"minutes":1}},"frontmatter":{"title":"小美回来了！","publish_date":"2005-05-29T12:52:13.000+08:00"}}},{"node":{"id":"58ce6bc3-1537-504b-91b3-ab5c92608faf","fields":{"slug":"/blog/2005-05-27-good/","type":"blog","timeToRead":{"words":299,"minutes":2}},"frontmatter":{"title":"还好还好","publish_date":"2005-05-27T22:58:42.000+08:00"}}},{"node":{"id":"894b153f-1bcb-5022-b35e-1a5ad99cf217","fields":{"slug":"/blog/2005-05-23-eating-the-red-one-makes-recalling-her/","type":"blog","timeToRead":{"words":425,"minutes":3}},"frontmatter":{"title":"绯色这一粒吃下会回想她旧时……","publish_date":"2005-05-23T23:12:52.000+08:00"}}},{"node":{"id":"67bd56a3-bd90-5e72-9299-b0cf521d8816","fields":{"slug":"/blog/2005-05-22-cloud-and-flower/","type":"blog","timeToRead":{"words":800,"minutes":5}},"frontmatter":{"title":"彼若浮云，我如繁花","publish_date":"2005-05-22T11:47:02.000+08:00"}}},{"node":{"id":"fbaee1bd-3126-5b29-aed6-399022e9bf67","fields":{"slug":"/blog/2005-05-22-moving-in/","type":"blog","timeToRead":{"words":108,"minutes":1}},"frontmatter":{"title":"真的要搬来了","publish_date":"2005-05-22T11:37:09.000+08:00"}}}]}},"staticQueryHashes":["2356112386"],"slicesMap":{}}