{"componentChunkName":"component---src-templates-paginated-blog-index-tsx","path":"/blog/page/16/","result":{"pageContext":{"page":16,"total":753,"pages":76,"prev":15,"next":17,"limit":10,"items":[{"node":{"id":"15b931c9-d72f-575e-914b-58a80ed89adc","fields":{"slug":"/blog/2010-12-31-persian-silk-tree/","type":"blog","timeToRead":{"words":1794,"minutes":11}},"frontmatter":{"title":"史铁生-合欢树","publish_date":"2010-12-31T21:16:53.000+08:00"}}},{"node":{"id":"1b1ff7e0-1af9-5f7f-8e95-6aae8180fae9","fields":{"slug":"/blog/2010-12-23-bricolage/","type":"blog","timeToRead":{"words":525,"minutes":3}},"frontmatter":{"title":"生生不息，纠结不止","publish_date":"2010-12-23T22:15:26.000+08:00"}}},{"node":{"id":"a217b5e1-7eb7-501a-839b-a5678375770f","fields":{"slug":"/blog/2010-12-21-erotic-and-violent/","type":"blog","timeToRead":{"words":965,"minutes":6}},"frontmatter":{"title":"很黄很暴力？","publish_date":"2010-12-21T17:07:35.000+08:00"}}},{"node":{"id":"5ae7e940-b054-564f-8d01-8213854d57ae","fields":{"slug":"/blog/2010-12-20-disappearance-of-suzumiya-haruhi/","type":"blog","timeToRead":{"words":684,"minutes":4}},"frontmatter":{"title":"《凉宫春日的消失》初评","publish_date":"2010-12-20T00:05:13.000+08:00"}}},{"node":{"id":"1fe9fde7-7307-5afa-a7ba-b747ca673988","fields":{"slug":"/blog/2010-12-16-on-blog-title/","type":"blog","timeToRead":{"words":320,"minutes":2}},"frontmatter":{"title":"於是應景一下","publish_date":"2010-12-16T13:04:56.000+08:00"}}},{"node":{"id":"7662f9d8-a91d-53d2-9696-b89186a37b6e","fields":{"slug":"/blog/2010-12-10-stop_blog_updates/","type":"blog","timeToRead":{"words":192,"minutes":1}},"frontmatter":{"title":"博客更新停止","publish_date":"2010-12-10T14:49:00.000+08:00"}}},{"node":{"id":"1c9a4c3f-2fa7-5584-aac8-bcb98f73e4e5","fields":{"slug":"/blog/2010-12-09-return/","type":"blog","timeToRead":{"words":213,"minutes":1}},"frontmatter":{"title":"重返","publish_date":"2010-12-09T19:32:15.000+08:00"}}},{"node":{"id":"b230d0fa-dea8-5389-9c05-284d1bf0eb19","fields":{"slug":"/blog/2010-11-28-20101128/","type":"blog","timeToRead":{"words":246,"minutes":2}},"frontmatter":{"title":"2010 年 11 月 28 日","publish_date":"2010-11-28T04:29:00.000+08:00"}}},{"node":{"id":"7b4f4f14-4689-5461-85df-cf281234a3b1","fields":{"slug":"/blog/2010-11-26-thanksgiving/","type":"blog","timeToRead":{"words":310,"minutes":2}},"frontmatter":{"title":"Thanksgiving","publish_date":"2010-11-26T12:27:00.000+08:00"}}},{"node":{"id":"99ed911a-f6b0-58a8-a578-1c7d90540f12","fields":{"slug":"/blog/2010-11-23-classical/","type":"blog","timeToRead":{"words":253,"minutes":2}},"frontmatter":{"title":"古典","publish_date":"2010-11-23T01:31:00.000+08:00"}}}]}},"staticQueryHashes":["2356112386"],"slicesMap":{}}