{"componentChunkName":"component---src-templates-paginated-blog-index-tsx","path":"/blog/page/72/","result":{"pageContext":{"page":72,"total":753,"pages":76,"prev":71,"next":73,"limit":10,"items":[{"node":{"id":"8ca3d2af-fe98-5818-a723-0cd3c6a3afd5","fields":{"slug":"/blog/2005-04-12-cloud-and-flowers/","type":"blog","timeToRead":{"words":747,"minutes":5}},"frontmatter":{"title":"彼如浮云，我若繁花","publish_date":"2005-04-12T12:31:00.000+08:00"}}},{"node":{"id":"82dec0ad-0d04-5815-a070-3ae312a613a8","fields":{"slug":"/blog/2005-04-08-richie-ren-songs/","type":"blog","timeToRead":{"words":399,"minutes":2}},"frontmatter":{"title":"小齐的歌","publish_date":"2005-04-08T16:05:00.000+08:00"}}},{"node":{"id":"8519288a-7493-5ddd-b215-67c840794bba","fields":{"slug":"/blog/2005-04-07-sleepless/","type":"blog","timeToRead":{"words":17,"minutes":0}},"frontmatter":{"title":"睡不着啊","publish_date":"2005-04-07T17:52:00.000+08:00"}}},{"node":{"id":"35c39bd7-aeb4-57c9-80f3-75721e832fee","fields":{"slug":"/blog/2005-04-06-the-new-logo/","type":"blog","timeToRead":{"words":56,"minutes":0}},"frontmatter":{"title":"新的 logo","publish_date":"2005-04-06T13:52:00.000+08:00"}}},{"node":{"id":"7e49cfbf-e44b-5879-8a1f-ba3c21b2c73f","fields":{"slug":"/blog/2005-04-03-summer-rain/","type":"blog","timeToRead":{"words":103,"minutes":1}},"frontmatter":{"title":"夏天的雨","publish_date":"2005-04-03T11:52:00.000+08:00"}}},{"node":{"id":"d07d6227-858d-5d89-8569-ce155e0cda4d","fields":{"slug":"/blog/2005-04-02-i-m-feeling-lucky/","type":"blog","timeToRead":{"words":29,"minutes":0}},"frontmatter":{"title":"手气不错！","publish_date":"2005-04-02T21:00:00.000+08:00"}}},{"node":{"id":"0eae4509-672b-54fc-abe5-91d61b5e44c3","fields":{"slug":"/blog/2005-04-01-logo/","type":"blog","timeToRead":{"words":38,"minutes":0}},"frontmatter":{"title":"LOGO","publish_date":"2005-04-01T16:12:00.000+08:00"}}},{"node":{"id":"bcf3c8ec-aee2-5cc9-b462-b539d3f5eb6c","fields":{"slug":"/blog/2005-03-31-why/","type":"blog","timeToRead":{"words":231,"minutes":1}},"frontmatter":{"title":"为什么？","publish_date":"2005-03-31T21:38:00.000+08:00"}}},{"node":{"id":"7214fbe7-3531-50e3-af97-fc64452a0105","fields":{"slug":"/blog/2005-03-31-little-happy/","type":"blog","timeToRead":{"words":211,"minutes":1}},"frontmatter":{"title":"有点高兴","publish_date":"2005-03-31T14:59:00.000+08:00"}}},{"node":{"id":"8377ed9b-62dd-540d-87a9-2f9f9261bf01","fields":{"slug":"/blog/2005-03-26-moving/","type":"blog","timeToRead":{"words":45,"minutes":0}},"frontmatter":{"title":"继续吧","publish_date":"2005-03-26T21:56:00.000+08:00"}}}]}},"staticQueryHashes":["2356112386"],"slicesMap":{}}