{"componentChunkName":"component---src-templates-paginated-blog-index-tsx","path":"/blog/page/53/","result":{"pageContext":{"page":53,"total":753,"pages":76,"prev":52,"next":54,"limit":10,"items":[{"node":{"id":"58bbdf31-6737-59f9-a6fb-79c5353b2d08","fields":{"slug":"/blog/2006-07-30-back/","type":"blog","timeToRead":{"words":295,"minutes":2}},"frontmatter":{"title":"回来了","publish_date":"2006-07-30T21:09:39.000+08:00"}}},{"node":{"id":"a20fea36-ec6f-5c86-a412-4d1f02c38c71","fields":{"slug":"/blog/2006-07-19-weakness/","type":"blog","timeToRead":{"words":152,"minutes":1}},"frontmatter":{"title":"我的弱点","publish_date":"2006-07-19T19:02:54.000+08:00"}}},{"node":{"id":"a3c95f03-f19f-537f-94d5-9f1298bfce76","fields":{"slug":"/blog/2006-07-18-leaving/","type":"blog","timeToRead":{"words":266,"minutes":2}},"frontmatter":{"title":"离开……","publish_date":"2006-07-18T18:37:59.000+08:00"}}},{"node":{"id":"63a944ae-a1e1-5601-b06a-6e0802223ec1","fields":{"slug":"/blog/2006-07-17-struggling/","type":"blog","timeToRead":{"words":193,"minutes":1}},"frontmatter":{"title":"我在努力……","publish_date":"2006-07-17T18:19:44.000+08:00"}}},{"node":{"id":"af834962-6774-5764-9c6d-725bc9d61e48","fields":{"slug":"/blog/2006-07-13-slogan-effort/","type":"blog","timeToRead":{"words":266,"minutes":2}},"frontmatter":{"title":"Still Effort!","publish_date":"2006-07-13T18:25:28.000+08:00"}}},{"node":{"id":"895101ba-1ab6-5f86-b555-80107e94d66c","fields":{"slug":"/blog/2006-07-05-birthday/","type":"blog","timeToRead":{"words":173,"minutes":1}},"frontmatter":{"title":"今天我生日！","publish_date":"2006-07-05T19:51:32.000+08:00"}}},{"node":{"id":"c7dc3125-ac3c-5d08-b63e-5e6a9872f3be","fields":{"slug":"/blog/2006-07-04-flower-season/","type":"blog","timeToRead":{"words":229,"minutes":1}},"frontmatter":{"title":"花季不再来","publish_date":"2006-07-04T17:02:32.000+08:00"}}},{"node":{"id":"659cc447-6e26-5a07-a5e2-11b930f4e53e","fields":{"slug":"/blog/2006-07-02-determination/","type":"blog","timeToRead":{"words":95,"minutes":1}},"frontmatter":{"title":"决心在哪里","publish_date":"2006-07-02T12:03:02.000+08:00"}}},{"node":{"id":"76e22df3-72da-595f-b642-ce293e91d2d7","fields":{"slug":"/blog/2006-07-02-tech/","type":"blog","timeToRead":{"words":226,"minutes":1}},"frontmatter":{"title":"技术，技术","publish_date":"2006-07-02T11:58:28.000+08:00"}}},{"node":{"id":"e3a57e17-f5b0-56a2-b46a-6916357f8b8e","fields":{"slug":"/blog/2006-06-29-1-year-in-msn-spaces/","type":"blog","timeToRead":{"words":256,"minutes":2}},"frontmatter":{"title":"一年，韶华","publish_date":"2006-06-29T20:04:24.000+08:00"}}}]}},"staticQueryHashes":["2356112386"],"slicesMap":{}}