{"componentChunkName":"component---src-templates-paginated-blog-index-tsx","path":"/blog/page/58/","result":{"pageContext":{"page":58,"total":753,"pages":76,"prev":57,"next":59,"limit":10,"items":[{"node":{"id":"bdd44f01-f756-56b8-b235-4148ce44a274","fields":{"slug":"/blog/2006-03-22-varicella/","type":"blog","timeToRead":{"words":186,"minutes":1}},"frontmatter":{"title":"水痘","publish_date":"2006-03-22T09:02:25.000+08:00"}}},{"node":{"id":"f0411cfd-17ea-579c-a569-cf433b02b0b9","fields":{"slug":"/blog/2006-03-19-ietf/","type":"blog","timeToRead":{"words":539,"minutes":3}},"frontmatter":{"title":"职业倾向测验","publish_date":"2006-03-19T13:22:26.000+08:00"}}},{"node":{"id":"098e49ed-f9a7-5799-8df2-4244f2cf1566","fields":{"slug":"/blog/2006-03-18-wandering/","type":"blog","timeToRead":{"words":451,"minutes":3}},"frontmatter":{"title":"闲逛","publish_date":"2006-03-18T23:42:13.000+08:00"}}},{"node":{"id":"4758c15a-bd18-50d4-898d-4e35b9b594cf","fields":{"slug":"/blog/2006-03-18-sinusoidale/","type":"blog","timeToRead":{"words":116,"minutes":1}},"frontmatter":{"title":"交流电","publish_date":"2006-03-18T18:02:16.000+08:00"}}},{"node":{"id":"a98fdad7-91af-5a64-8c61-a105121b2b3f","fields":{"slug":"/blog/2006-03-17-rainy-days/","type":"blog","timeToRead":{"words":462,"minutes":3}},"frontmatter":{"title":"沮丧的时候是下雨天","publish_date":"2006-03-17T17:55:08.000+08:00"}}},{"node":{"id":"1a33549b-c580-556d-9d61-d250bda7b9b6","fields":{"slug":"/blog/2006-03-12-fame/","type":"blog","timeToRead":{"words":224,"minutes":1}},"frontmatter":{"title":"名……","publish_date":"2006-03-12T22:21:29.000+08:00"}}},{"node":{"id":"3313ebf2-a6b3-5e89-b18c-18e22effb624","fields":{"slug":"/blog/2006-03-12-what-to-do/","type":"blog","timeToRead":{"words":649,"minutes":4}},"frontmatter":{"title":"我们能做什么？","publish_date":"2006-03-12T22:07:51.000+08:00"}}},{"node":{"id":"02ab7cfe-79a2-5448-ba25-0bef116881ba","fields":{"slug":"/blog/2006-03-10-how/","type":"blog","timeToRead":{"words":385,"minutes":2}},"frontmatter":{"title":"怎么办？","publish_date":"2006-03-10T21:56:32.000+08:00"}}},{"node":{"id":"e202e3b1-e4d4-5fe3-944f-58f9bfbf9962","fields":{"slug":"/blog/2006-03-05-works/","type":"blog","timeToRead":{"words":40,"minutes":0}},"frontmatter":{"title":"作品","publish_date":"2006-03-05T17:20:16.000+08:00"}}},{"node":{"id":"f1af1ab3-0350-5570-a906-23aebd2513d9","fields":{"slug":"/blog/2006-03-05-zhongshan-park/","type":"blog","timeToRead":{"words":334,"minutes":2}},"frontmatter":{"title":"中山公园游玩记","publish_date":"2006-03-05T17:07:29.000+08:00"}}}]}},"staticQueryHashes":["2356112386"],"slicesMap":{}}