{"componentChunkName":"component---src-templates-paginated-blog-index-tsx","path":"/blog/page/9/","result":{"pageContext":{"page":9,"total":753,"pages":76,"prev":8,"next":10,"limit":10,"items":[{"node":{"id":"8a6dd193-8698-56b4-89c9-bcabb9fcab62","fields":{"slug":"/blog/2012-02-27-suite-animal-ethics/","type":"blog","timeToRead":{"words":1034,"minutes":6}},"frontmatter":{"title":"续《动物伦理》","publish_date":"2012-02-27T00:41:02.000+08:00"}}},{"node":{"id":"3fa91948-0a5f-570f-9f93-08b15bdf33f2","fields":{"slug":"/blog/2012-02-24-20120225/","type":"blog","timeToRead":{"words":459,"minutes":3}},"frontmatter":{"title":"2012 年 02 月 25 日","publish_date":"2012-02-24T23:48:16.000+08:00"}}},{"node":{"id":"025bb4f9-a987-5a03-af9d-8c9d8e4632bd","fields":{"slug":"/blog/2012-02-17-animal-ethics/","type":"blog","timeToRead":{"words":1263,"minutes":8}},"frontmatter":{"title":"動物倫理","publish_date":"2012-02-17T00:01:52.000+08:00"}}},{"node":{"id":"49509d10-eb81-51f7-a1c9-fc2000102df8","fields":{"slug":"/blog/2012-02-13-fruitless-winter/","type":"blog","timeToRead":{"words":744,"minutes":5}},"frontmatter":{"title":"我不知道我在今年冬天干了什么","publish_date":"2012-02-13T01:28:39.000+08:00"}}},{"node":{"id":"2f45e118-0ca7-519c-9f47-3ce8c979f6a6","fields":{"slug":"/blog/2012-02-08-defy-cm9-ics/","type":"blog","timeToRead":{"words":796,"minutes":5}},"frontmatter":{"title":"Defy CM9 ICS 使用小结","publish_date":"2012-02-08T14:06:32.000+08:00"}}},{"node":{"id":"2ec7f5a0-fade-5dd6-8aab-a1f10cefb16b","fields":{"slug":"/blog/2012-02-08-real-name-system/","type":"blog","timeToRead":{"words":796,"minutes":5}},"frontmatter":{"title":"无标题","publish_date":"2012-02-08T02:30:31.000+08:00"}}},{"node":{"id":"77ba88fc-2d61-5563-8a13-708bef635b42","fields":{"slug":"/blog/2012-02-06-20120206/","type":"blog","timeToRead":{"words":1036,"minutes":6}},"frontmatter":{"title":"2012 年 2 月 6 日","publish_date":"2012-02-06T01:07:54.000+08:00"}}},{"node":{"id":"c16ea1a9-0827-507a-ac4a-d971b474ebcb","fields":{"slug":"/blog/2012-01-30-20120131/","type":"blog","timeToRead":{"words":1333,"minutes":8}},"frontmatter":{"title":"2012 年 01 月 31 日","publish_date":"2012-01-30T23:16:56.000+08:00"}}},{"node":{"id":"bbf56a16-ef05-56bf-ba79-180b7f17b5f0","fields":{"slug":"/blog/2012-01-30-does-english-exist-on-the-world/","type":"blog","timeToRead":{"words":1688,"minutes":11}},"frontmatter":{"title":"世界上真的有英语吗？我们的教科书真实率低于 5%，连外语也不例外。","publish_date":"2012-01-30T21:48:00.000+08:00"}}},{"node":{"id":"f4a870b2-6d88-5db3-bd3c-17f6ff436f28","fields":{"slug":"/blog/2012-01-28-on-future-plan/","type":"blog","timeToRead":{"words":849,"minutes":5}},"frontmatter":{"title":"未来展望","publish_date":"2012-01-28T04:36:32.000+08:00"}}}]}},"staticQueryHashes":["2356112386"],"slicesMap":{}}