{"componentChunkName":"component---src-templates-paginated-blog-index-tsx","path":"/blog/page/29/","result":{"pageContext":{"page":29,"total":753,"pages":76,"prev":28,"next":30,"limit":10,"items":[{"node":{"id":"880985ee-b98a-5444-9485-b66986cff869","fields":{"slug":"/blog/2009-07-27-beihai-middle-school/","type":"blog","timeToRead":{"words":674,"minutes":4}},"frontmatter":{"title":"北海中学探险记","publish_date":"2009-07-27T11:08:45.000+08:00"}}},{"node":{"id":"d9f0fdb8-a2d8-5299-88f1-ef1c9a45d88b","fields":{"slug":"/blog/2009-07-24-meaning-of-homework/","type":"blog","timeToRead":{"words":206,"minutes":1}},"frontmatter":{"title":"作业的意义","publish_date":"2009-07-24T18:54:03.000+08:00"}}},{"node":{"id":"5ee14ff6-bc72-5dde-86f9-6e6a45fb9576","fields":{"slug":"/blog/2009-07-23-joy-and-love/","type":"blog","timeToRead":{"words":298,"minutes":2}},"frontmatter":{"title":"要欢乐，要有爱","publish_date":"2009-07-23T10:33:04.000+08:00"}}},{"node":{"id":"05aa548f-228a-5154-8e40-0d6c4f024476","fields":{"slug":"/blog/2009-07-04-19-year-old/","type":"blog","timeToRead":{"words":824,"minutes":5}},"frontmatter":{"title":"19 岁的索引","publish_date":"2009-07-04T22:41:30.000+08:00"}}},{"node":{"id":"3284a4b4-1d5e-5e2f-bf56-d541cedf62fd","fields":{"slug":"/blog/2009-07-04-the-real-world/","type":"blog","timeToRead":{"words":175,"minutes":1}},"frontmatter":{"title":"真正的世界","publish_date":"2009-07-04T13:36:23.000+08:00"}}},{"node":{"id":"f7103f64-0f84-517c-8924-60d6a945c480","fields":{"slug":"/blog/2009-07-03-military-training/","type":"blog","timeToRead":{"words":868,"minutes":5}},"frontmatter":{"title":"破碎的军训编天史","publish_date":"2009-07-03T21:37:07.000+08:00"}}},{"node":{"id":"89f940f8-c04e-5f7b-868c-ca8cf3d816e8","fields":{"slug":"/blog/2009-06-06-self-loathing/","type":"blog","timeToRead":{"words":252,"minutes":2}},"frontmatter":{"title":"连我自己也讨厌的自己","publish_date":"2009-06-06T13:07:28.000+08:00"}}},{"node":{"id":"c779408d-ac67-5c36-80a1-9918aa6ce026","fields":{"slug":"/blog/2009-05-27-nanking-nanking/","type":"blog","timeToRead":{"words":647,"minutes":4}},"frontmatter":{"title":"南京！南京！","publish_date":"2009-05-27T00:14:33.000+08:00"}}},{"node":{"id":"0f1b3d08-6856-5a57-b5f9-6dbf4022402a","fields":{"slug":"/blog/2009-04-03-turning-point/","type":"blog","timeToRead":{"words":392,"minutes":2}},"frontmatter":{"title":"转折点","publish_date":"2009-04-03T00:26:22.000+08:00"}}},{"node":{"id":"830fd9d1-421d-5925-9e76-01a8fb453d66","fields":{"slug":"/blog/2009-03-22-consumer-values/","type":"blog","timeToRead":{"words":1166,"minutes":7}},"frontmatter":{"title":"消费观","publish_date":"2009-03-22T20:11:01.000+08:00"}}}]}},"staticQueryHashes":["2356112386"],"slicesMap":{}}