{"componentChunkName":"component---src-templates-paginated-blog-index-tsx","path":"/blog/page/18/","result":{"pageContext":{"page":18,"total":753,"pages":76,"prev":17,"next":19,"limit":10,"items":[{"node":{"id":"89ce30d2-1eb4-5ff5-8e90-19edee6c91cf","fields":{"slug":"/blog/2010-10-22-anime-first-impression-2010-fall-p1/","type":"blog","timeToRead":{"words":727,"minutes":5}},"frontmatter":{"title":"10 年秋番简评·其之一","publish_date":"2010-10-22T02:43:00.000+08:00"}}},{"node":{"id":"359a6cb0-f63d-576f-98e0-99945dcd67af","fields":{"slug":"/blog/2010-10-18-20101018/","type":"blog","timeToRead":{"words":488,"minutes":3}},"frontmatter":{"title":"2010 年 10 月 18 日","publish_date":"2010-10-18T22:18:00.000+08:00"}}},{"node":{"id":"36087eff-97f2-5a44-ae63-8706269243c7","fields":{"slug":"/blog/2010-10-11-walk_around_the_pond/","type":"blog","timeToRead":{"words":262,"minutes":2}},"frontmatter":{"title":"绿园池塘走一圈","publish_date":"2010-10-11T08:01:00.000+08:00"}}},{"node":{"id":"dba7bcc9-a68d-5f14-8baf-6afcc2eda903","fields":{"slug":"/blog/2010-10-10-sexta/","type":"blog","timeToRead":{"words":176,"minutes":1}},"frontmatter":{"title":"天蛾","publish_date":"2010-10-10T03:26:00.000+08:00"}}},{"node":{"id":"70473c8a-2669-5fb5-9a9c-253f8aa51474","fields":{"slug":"/blog/2010-10-05-hummingbird/","type":"blog","timeToRead":{"words":411,"minutes":3}},"frontmatter":{"title":"蜂鸟","publish_date":"2010-10-05T22:10:00.000+08:00"}}},{"node":{"id":"d53cab66-efbb-5581-b9cc-c523a8e34ca4","fields":{"slug":"/blog/2010-10-04-anime-opens-the-blindness-pandora-box/","type":"blog","timeToRead":{"words":2716,"minutes":17}},"frontmatter":{"title":"动漫——悄悄开启失明灾害的魔盒","publish_date":"2010-10-04T15:32:00.000+08:00"}}},{"node":{"id":"40e73a25-cc89-5c2f-8a2c-8c1f2c92b6cc","fields":{"slug":"/blog/2010-09-16-laziness/","type":"blog","timeToRead":{"words":199,"minutes":1}},"frontmatter":{"title":"宅性发作","publish_date":"2010-09-16T13:39:19.000+08:00"}}},{"node":{"id":"80529884-eed2-5143-a8f7-2416f7c49b9c","fields":{"slug":"/blog/2010-09-09-touhou-renfried/","type":"blog","timeToRead":{"words":254,"minutes":2}},"frontmatter":{"title":"《東方恋蓮録》与下限妹","publish_date":"2010-09-09T18:08:44.000+08:00"}}},{"node":{"id":"8f0e4520-8ff3-5d64-b11e-4ede07eae5a4","fields":{"slug":"/blog/2010-09-05-night/","type":"blog","timeToRead":{"words":150,"minutes":1}},"frontmatter":{"title":"夜总是显得很深沉","publish_date":"2010-09-05T02:27:14.000+08:00"}}},{"node":{"id":"95ff1e09-54ee-5294-8a82-37a7f406a7ed","fields":{"slug":"/blog/2010-09-04-updated-wiki-kanishino/","type":"blog","timeToRead":{"words":662,"minutes":4}},"frontmatter":{"title":"更新了一下遥仰凰华的 Wiki 词条","publish_date":"2010-09-04T02:28:59.000+08:00"}}}]}},"staticQueryHashes":["2356112386"],"slicesMap":{}}