{"componentChunkName":"component---src-templates-paginated-blog-index-tsx","path":"/blog/page/23/","result":{"pageContext":{"page":23,"total":753,"pages":76,"prev":22,"next":24,"limit":10,"items":[{"node":{"id":"7fd96b19-84f0-5846-a5f8-0fd29c42017f","fields":{"slug":"/blog/2010-03-17-infusion-p4/","type":"blog","timeToRead":{"words":352,"minutes":2}},"frontmatter":{"title":"输液之四","publish_date":"2010-03-17T13:28:36.000+08:00"}}},{"node":{"id":"c05aeed0-d18d-5629-910e-17a7c8a88f11","fields":{"slug":"/blog/2010-03-16-infusion-p3/","type":"blog","timeToRead":{"words":469,"minutes":3}},"frontmatter":{"title":"输液之三","publish_date":"2010-03-16T18:10:05.000+08:00"}}},{"node":{"id":"5b5e69a7-d546-54c4-a672-cdb5c2dea211","fields":{"slug":"/blog/2010-03-15-infusion/","type":"blog","timeToRead":{"words":107,"minutes":1}},"frontmatter":{"title":"输液之一","publish_date":"2010-03-15T10:39:54.000+08:00"}}},{"node":{"id":"107f23a5-f8de-5b92-bbf9-6e2307768170","fields":{"slug":"/blog/2010-03-14-sweet-oblivion/","type":"blog","timeToRead":{"words":239,"minutes":1}},"frontmatter":{"title":"甜蜜的忘却","publish_date":"2010-03-14T15:21:40.000+08:00"}}},{"node":{"id":"133ca926-3177-565a-ae49-94cffa9d7128","fields":{"slug":"/blog/2010-03-07-this-week/","type":"blog","timeToRead":{"words":810,"minutes":5}},"frontmatter":{"title":"一周流水日志","publish_date":"2010-03-07T19:59:14.000+08:00"}}},{"node":{"id":"3907c0c8-cfa9-5377-9453-1df331889063","fields":{"slug":"/blog/2010-03-01-lantern-festival/","type":"blog","timeToRead":{"words":113,"minutes":1}},"frontmatter":{"title":"元宵·雪·烟火","publish_date":"2010-03-01T11:59:23.000+08:00"}}},{"node":{"id":"e493ad70-fc89-5898-920e-25cab290318f","fields":{"slug":"/blog/2010-02-25-cane/","type":"blog","timeToRead":{"words":258,"minutes":2}},"frontmatter":{"title":"甘蔗","publish_date":"2010-02-25T21:32:34.000+08:00"}}},{"node":{"id":"a1013278-e4f3-5901-bb90-0bd2b57ef0d4","fields":{"slug":"/blog/2010-02-22-on-n-a-pas-tous-les-jour-vingt-ans/","type":"blog","timeToRead":{"words":469,"minutes":3}},"frontmatter":{"title":"On n'a pas tous les jours vingt ans","publish_date":"2010-02-22T13:44:30.000+08:00"}}},{"node":{"id":"2aeef33d-880b-5e14-a3a2-53ad59532ca0","fields":{"slug":"/blog/2010-02-20-silence-vs-sound/","type":"blog","timeToRead":{"words":208,"minutes":1}},"frontmatter":{"title":"无声，有声","publish_date":"2010-02-20T21:15:03.000+08:00"}}},{"node":{"id":"522fcbbe-89d2-5bc2-a61e-2a33c85a1db5","fields":{"slug":"/blog/2010-02-19-golden-eighties/","type":"blog","timeToRead":{"words":384,"minutes":2}},"frontmatter":{"title":"年轻的朋友来相会","publish_date":"2010-02-19T23:10:32.000+08:00"}}}]}},"staticQueryHashes":["2356112386"],"slicesMap":{}}