{"componentChunkName":"component---src-templates-paginated-blog-index-tsx","path":"/blog/page/13/","result":{"pageContext":{"page":13,"total":753,"pages":76,"prev":12,"next":14,"limit":10,"items":[{"node":{"id":"d7b29492-9f9b-57eb-af60-571ea6f33880","fields":{"slug":"/blog/2011-05-01-20110501/","type":"blog","timeToRead":{"words":1191,"minutes":7}},"frontmatter":{"title":"2011 年 05 月 01 日","publish_date":"2011-05-01T23:22:38.000+08:00"}}},{"node":{"id":"3fbcf4d2-93a9-5f87-b9b1-7c91f7093184","fields":{"slug":"/blog/2011-04-22-review-puella-magi-madoka-magica/","type":"blog","timeToRead":{"words":917,"minutes":6}},"frontmatter":{"title":"《魔法少女小圆》简评","publish_date":"2011-04-22T23:43:53.000+08:00"}}},{"node":{"id":"ea6248e1-6651-5bae-9415-58f8cadbe0e2","fields":{"slug":"/blog/2011-04-16-anime-first-impression-2011-spring-p2/","type":"blog","timeToRead":{"words":1086,"minutes":7}},"frontmatter":{"title":"11 年春番点评 二","publish_date":"2011-04-16T15:20:24.000+08:00"}}},{"node":{"id":"ddc20915-a092-5ba1-970e-e22349847456","fields":{"slug":"/blog/2011-04-16-review-kaminomi-s1/","type":"blog","timeToRead":{"words":940,"minutes":6}},"frontmatter":{"title":"《只有神知道的世界（第一季）》简评","publish_date":"2011-04-16T02:55:01.000+08:00"}}},{"node":{"id":"582c655c-a418-5614-a7f7-c44483f552d4","fields":{"slug":"/blog/2011-04-12-haru/","type":"blog","timeToRead":{"words":781,"minutes":5}},"frontmatter":{"title":"哈露","publish_date":"2011-04-12T17:14:13.000+08:00"}}},{"node":{"id":"9f1eb130-3852-5a0e-afe2-9469311a2422","fields":{"slug":"/blog/2011-04-11-anime-first-impression-2011-spring/","type":"blog","timeToRead":{"words":711,"minutes":4}},"frontmatter":{"title":"11 年春番点评一","publish_date":"2011-04-11T01:13:08.000+08:00"}}},{"node":{"id":"6f7bee87-1b23-5c50-a761-07b8d5ffb6a3","fields":{"slug":"/blog/2011-04-10-moving-from-maxthon-3-to-firefox-4/","type":"blog","timeToRead":{"words":737,"minutes":5}},"frontmatter":{"title":"从 Maxthon 3 迁移到 Firefox 4","publish_date":"2011-04-10T21:41:39.000+08:00"}}},{"node":{"id":"fc9848c6-fc6f-5055-9fca-4fc0d215b216","fields":{"slug":"/blog/2011-04-04-hourou-musuko-and-fractale-review/","type":"blog","timeToRead":{"words":576,"minutes":4}},"frontmatter":{"title":"《放浪息子》与《FRACTALE》简评","publish_date":"2011-04-04T15:09:17.000+08:00"}}},{"node":{"id":"b94e8b6f-3263-5cc9-be0b-3c52d9fad68e","fields":{"slug":"/blog/2011-03-22-20110322/","type":"blog","timeToRead":{"words":620,"minutes":4}},"frontmatter":{"title":"2011 年 03 月 22 日","publish_date":"2011-03-22T15:56:35.000+08:00"}}},{"node":{"id":"5fad3afb-4795-5775-bdb8-4b8cbeb5a40b","fields":{"slug":"/blog/2011-03-13-credulity-leads-to-rumors/","type":"blog","timeToRead":{"words":582,"minutes":4}},"frontmatter":{"title":"轻信是谣言的快捷方式","publish_date":"2011-03-13T14:32:05.000+08:00"}}}]}},"staticQueryHashes":["2356112386"],"slicesMap":{}}