{"componentChunkName":"component---src-templates-paginated-blog-index-tsx","path":"/blog/page/47/","result":{"pageContext":{"page":47,"total":753,"pages":76,"prev":46,"next":48,"limit":10,"items":[{"node":{"id":"e80d3c73-1223-5b54-a1a2-0bd9faf611ce","fields":{"slug":"/blog/2007-01-31-playing/","type":"blog","timeToRead":{"words":75,"minutes":0}},"frontmatter":{"title":"疯玩","publish_date":"2007-01-31T19:20:36.000+08:00"}}},{"node":{"id":"a933306f-836d-5c5f-812a-544ba64a7651","fields":{"slug":"/blog/2007-01-27-dinner/","type":"blog","timeToRead":{"words":288,"minutes":2}},"frontmatter":{"title":"宴","publish_date":"2007-01-27T21:43:58.000+08:00"}}},{"node":{"id":"c0fd1559-1405-5c67-9389-f34cf519459f","fields":{"slug":"/blog/2007-01-26-depressed/","type":"blog","timeToRead":{"words":281,"minutes":2}},"frontmatter":{"title":"有点沮丧","publish_date":"2007-01-26T22:56:55.000+08:00"}}},{"node":{"id":"5c92fd21-ba19-5440-8fe1-696cb1bf2827","fields":{"slug":"/blog/2007-01-20-yellow-leaves/","type":"blog","timeToRead":{"words":435,"minutes":3}},"frontmatter":{"title":"树叶黄了","publish_date":"2007-01-20T19:56:38.000+08:00"}}},{"node":{"id":"45927429-971e-57c7-8b02-58e25c326ffd","fields":{"slug":"/blog/2007-01-14-afterwards/","type":"blog","timeToRead":{"words":182,"minutes":1}},"frontmatter":{"title":"后来","publish_date":"2007-01-14T17:41:35.000+08:00"}}},{"node":{"id":"37b540c8-5be4-5224-9f5c-d677a9356217","fields":{"slug":"/blog/2007-01-14-self-control/","type":"blog","timeToRead":{"words":166,"minutes":1}},"frontmatter":{"title":"自我控制","publish_date":"2007-01-14T17:35:22.000+08:00"}}},{"node":{"id":"a5e27b3b-c5e4-5f1a-846e-a2fbcce4a247","fields":{"slug":"/blog/2007-01-12-thoughts/","type":"blog","timeToRead":{"words":270,"minutes":2}},"frontmatter":{"title":"思考 2","publish_date":"2007-01-12T12:09:13.000+08:00"}}},{"node":{"id":"1b67258c-5602-519e-9cde-1a3684c91b18","fields":{"slug":"/blog/2007-01-07-symbol/","type":"blog","timeToRead":{"words":534,"minutes":3}},"frontmatter":{"title":"象征义","publish_date":"2007-01-07T12:31:07.000+08:00"}}},{"node":{"id":"4b9ce30b-4b60-56f9-8e4d-becd45dd108a","fields":{"slug":"/blog/2007-01-06-blue/","type":"blog","timeToRead":{"words":339,"minutes":2}},"frontmatter":{"title":"蓝色","publish_date":"2007-01-06T19:31:20.000+08:00"}}},{"node":{"id":"a80305d9-e3c4-53c1-9b9c-a5a1da82fd46","fields":{"slug":"/blog/2007-01-02-exams/","type":"blog","timeToRead":{"words":241,"minutes":2}},"frontmatter":{"title":"考啊考","publish_date":"2007-01-02T18:05:39.000+08:00"}}}]}},"staticQueryHashes":["2356112386"],"slicesMap":{}}