{"componentChunkName":"component---src-templates-paginated-blog-index-tsx","path":"/blog/page/51/","result":{"pageContext":{"page":51,"total":753,"pages":76,"prev":50,"next":52,"limit":10,"items":[{"node":{"id":"9134a74a-6856-5754-b898-d947e37ba02c","fields":{"slug":"/blog/2006-10-06-mid-automn/","type":"blog","timeToRead":{"words":299,"minutes":2}},"frontmatter":{"title":"中秋节遐想","publish_date":"2006-10-06T19:51:23.000+08:00"}}},{"node":{"id":"2067a310-5778-552e-8069-07d5ee3b35f1","fields":{"slug":"/blog/2006-10-01-dream/","type":"blog","timeToRead":{"words":216,"minutes":1}},"frontmatter":{"title":"梦","publish_date":"2006-10-01T20:30:36.000+08:00"}}},{"node":{"id":"3d9ef86c-e2f4-5289-ae24-c723b802229c","fields":{"slug":"/blog/2006-09-30-worthy/","type":"blog","timeToRead":{"words":260,"minutes":2}},"frontmatter":{"title":"值得吗","publish_date":"2006-09-30T12:40:47.000+08:00"}}},{"node":{"id":"1bbe049c-a60c-59ce-bf3c-58083bc1caaf","fields":{"slug":"/blog/2006-09-24-trip--to-guilin/","type":"blog","timeToRead":{"words":394,"minutes":2}},"frontmatter":{"title":"桂林游记","publish_date":"2006-09-24T23:27:22.000+08:00"}}},{"node":{"id":"2ca31836-7861-5fbe-8668-cbe2f0a1def4","fields":{"slug":"/blog/2006-09-21-to-guilin/","type":"blog","timeToRead":{"words":396,"minutes":2}},"frontmatter":{"title":"明天去桂林","publish_date":"2006-09-21T17:57:11.000+08:00"}}},{"node":{"id":"4c72f835-e43d-5886-881e-9e166ad7092b","fields":{"slug":"/blog/2006-09-17-escaped/","type":"blog","timeToRead":{"words":247,"minutes":2}},"frontmatter":{"title":"死里逃生","publish_date":"2006-09-17T13:03:55.000+08:00"}}},{"node":{"id":"e80723aa-39fa-52dc-8aea-72a5a78a2fb0","fields":{"slug":"/blog/2006-09-16-wordless/","type":"blog","timeToRead":{"words":346,"minutes":2}},"frontmatter":{"title":"不说话","publish_date":"2006-09-16T17:31:29.000+08:00"}}},{"node":{"id":"50dbed3d-5b6e-5ac7-968c-ce72fa18ea53","fields":{"slug":"/blog/2006-09-08-lucky/","type":"blog","timeToRead":{"words":302,"minutes":2}},"frontmatter":{"title":"幸运？","publish_date":"2006-09-08T18:04:32.000+08:00"}}},{"node":{"id":"fdb1ecd2-041c-5956-a746-2987f1bc3c35","fields":{"slug":"/blog/2006-09-03-automn/","type":"blog","timeToRead":{"words":334,"minutes":2}},"frontmatter":{"title":"秋","publish_date":"2006-09-03T12:26:09.000+08:00"}}},{"node":{"id":"9acba769-a363-5665-aae9-6be0cbebc198","fields":{"slug":"/blog/2006-09-02-untitled/","type":"blog","timeToRead":{"words":227,"minutes":1}},"frontmatter":{"title":"随笔","publish_date":"2006-09-02T19:10:54.000+08:00"}}}]}},"staticQueryHashes":["2356112386"],"slicesMap":{}}