{"componentChunkName":"component---src-templates-paginated-blog-index-tsx","path":"/blog/page/52/","result":{"pageContext":{"page":52,"total":753,"pages":76,"prev":51,"next":53,"limit":10,"items":[{"node":{"id":"4a1cf8eb-3fc0-50f3-a670-5c4b1fad0d91","fields":{"slug":"/blog/2006-09-01-buried/","type":"blog","timeToRead":{"words":396,"minutes":2}},"frontmatter":{"title":"埋藏","publish_date":"2006-09-01T18:30:15.000+08:00"}}},{"node":{"id":"dab9ed96-3ddf-5c3f-97e9-ed02cab29432","fields":{"slug":"/blog/2006-08-27-school-life-starts/","type":"blog","timeToRead":{"words":221,"minutes":1}},"frontmatter":{"title":"开学了……","publish_date":"2006-08-27T12:34:03.000+08:00"}}},{"node":{"id":"7d4ae85a-e473-52e7-9c70-e10ee22d813b","fields":{"slug":"/blog/2006-08-25-what-can-i-do/","type":"blog","timeToRead":{"words":219,"minutes":1}},"frontmatter":{"title":"我到底怎么了","publish_date":"2006-08-25T18:50:04.000+08:00"}}},{"node":{"id":"5187ff84-28fd-5dfe-b939-947a88ace097","fields":{"slug":"/blog/2006-08-19-happy-birthday/","type":"blog","timeToRead":{"words":246,"minutes":2}},"frontmatter":{"title":"今天是她生日","publish_date":"2006-08-19T17:51:24.000+08:00"}}},{"node":{"id":"30239a67-e21f-56ac-b17c-31fcc6d894b8","fields":{"slug":"/blog/2006-08-15-how/","type":"blog","timeToRead":{"words":232,"minutes":1}},"frontmatter":{"title":"我该怎么做？","publish_date":"2006-08-15T18:12:49.000+08:00"}}},{"node":{"id":"6f319729-baf5-5f86-93d6-48d60e9dc9a4","fields":{"slug":"/blog/2006-08-11-working-hard/","type":"blog","timeToRead":{"words":131,"minutes":1}},"frontmatter":{"title":"努力","publish_date":"2006-08-11T17:16:59.000+08:00"}}},{"node":{"id":"e3e9cff4-19c4-5eff-9cf2-48946c051d67","fields":{"slug":"/blog/2006-08-07-time-flies/","type":"blog","timeToRead":{"words":247,"minutes":2}},"frontmatter":{"title":"光阴如箭","publish_date":"2006-08-07T18:15:05.000+08:00"}}},{"node":{"id":"37284c07-c7ec-5cc8-b8d7-0d01882e73d0","fields":{"slug":"/blog/2006-08-06-san-chong-men/","type":"blog","timeToRead":{"words":397,"minutes":2}},"frontmatter":{"title":"三重门，迷惘之伤","publish_date":"2006-08-06T15:51:16.000+08:00"}}},{"node":{"id":"a9168f74-c2ae-5ae0-bc87-687772e774bb","fields":{"slug":"/blog/2006-08-03-avatar/","type":"blog","timeToRead":{"words":239,"minutes":1}},"frontmatter":{"title":"换头像","publish_date":"2006-08-03T18:10:50.000+08:00"}}},{"node":{"id":"2f34ca11-5d14-5417-a767-68a4497883f7","fields":{"slug":"/blog/2006-08-01-spirited-way/","type":"blog","timeToRead":{"words":189,"minutes":1}},"frontmatter":{"title":"千与千寻","publish_date":"2006-08-01T18:08:45.000+08:00"}}}]}},"staticQueryHashes":["2356112386"],"slicesMap":{}}