{"componentChunkName":"component---src-templates-paginated-blog-index-tsx","path":"/blog/page/57/","result":{"pageContext":{"page":57,"total":753,"pages":76,"prev":56,"next":58,"limit":10,"items":[{"node":{"id":"73949265-8465-5081-a6ca-fc9dff12014b","fields":{"slug":"/blog/2006-04-22-what-is-friend/","type":"blog","timeToRead":{"words":564,"minutes":4}},"frontmatter":{"title":"朋友是什么？","publish_date":"2006-04-22T21:39:04.000+08:00"}}},{"node":{"id":"3840a600-f505-5950-b47a-f0cf7f2d0c38","fields":{"slug":"/blog/2006-04-15-north-wind/","type":"blog","timeToRead":{"words":138,"minutes":1}},"frontmatter":{"title":"四月的北风","publish_date":"2006-04-15T19:39:42.000+08:00"}}},{"node":{"id":"2899b726-c549-51e2-8390-96fffd41882d","fields":{"slug":"/blog/2006-04-07-test-result/","type":"blog","timeToRead":{"words":433,"minutes":3}},"frontmatter":{"title":"囤积试卷","publish_date":"2006-04-07T18:16:12.000+08:00"}}},{"node":{"id":"da466a39-30cb-56a9-874d-b7fe6801c081","fields":{"slug":"/blog/2006-04-04-simulation-test/","type":"blog","timeToRead":{"words":374,"minutes":2}},"frontmatter":{"title":"模拟考","publish_date":"2006-04-04T17:59:33.000+08:00"}}},{"node":{"id":"acc67417-2502-5b0f-861c-bd9fcdca0565","fields":{"slug":"/blog/2006-04-02-no-inspiration/","type":"blog","timeToRead":{"words":239,"minutes":1}},"frontmatter":{"title":"写不出来","publish_date":"2006-04-02T10:40:21.000+08:00"}}},{"node":{"id":"54382566-8d44-5324-8848-cb13a0dcc6d8","fields":{"slug":"/blog/2006-03-31-value-for-love/","type":"blog","timeToRead":{"words":709,"minutes":4}},"frontmatter":{"title":"我的爱情观？","publish_date":"2006-03-31T18:59:38.000+08:00"}}},{"node":{"id":"76802be0-5c22-53fc-b0f3-9d443c155a35","fields":{"slug":"/blog/2006-03-28-changes/","type":"blog","timeToRead":{"words":502,"minutes":3}},"frontmatter":{"title":"变化","publish_date":"2006-03-28T16:48:01.000+08:00"}}},{"node":{"id":"6459fe91-90c6-5198-ae20-3263863a2383","fields":{"slug":"/blog/2006-03-27-to-school/","type":"blog","timeToRead":{"words":111,"minutes":1}},"frontmatter":{"title":"我要去学校了","publish_date":"2006-03-27T19:18:02.000+08:00"}}},{"node":{"id":"6a7d67fc-4e98-547a-89d4-d0b7a17759ca","fields":{"slug":"/blog/2006-03-25-infusion/","type":"blog","timeToRead":{"words":471,"minutes":3}},"frontmatter":{"title":"输液","publish_date":"2006-03-25T17:19:39.000+08:00"}}},{"node":{"id":"875be06b-b839-5af9-9c1d-7393abad7cc0","fields":{"slug":"/blog/2006-03-23-varicella-2/","type":"blog","timeToRead":{"words":168,"minutes":1}},"frontmatter":{"title":"痒啊","publish_date":"2006-03-23T09:34:48.000+08:00"}}}]}},"staticQueryHashes":["2356112386"],"slicesMap":{}}