{"componentChunkName":"component---src-templates-paginated-blog-index-tsx","path":"/blog/page/4/","result":{"pageContext":{"page":4,"total":753,"pages":76,"prev":3,"next":5,"limit":10,"items":[{"node":{"id":"567e969c-85aa-5f24-adfa-1ba8d431b0ab","fields":{"slug":"/blog/2014-09-14-on-theming-the-blog/","type":"blog","timeToRead":{"words":984,"minutes":6}},"frontmatter":{"title":"关于日志的主题","publish_date":"2014-09-14T04:05:00.000+08:00"}}},{"node":{"id":"1ebe28ec-6bd8-5c81-a9d2-359728631f8c","fields":{"slug":"/blog/2014-09-10-sas-tokyo-victory/","type":"blog","timeToRead":{"words":1026,"minutes":6}},"frontmatter":{"title":"サザンオールスターズ - 東京 VICTORY","publish_date":"2014-09-10T19:30:00.000+08:00"}}},{"node":{"id":"00b255a6-be34-56e4-bfa2-5b49225450ed","fields":{"slug":"/blog/2014-09-10-forget-it/","type":"blog","timeToRead":{"words":437,"minutes":3}},"frontmatter":{"title":"弃捐勿复道","publish_date":"2014-09-10T02:12:00.000+08:00"}}},{"node":{"id":"4c40a577-ecb8-561c-a46d-30068d89c087","fields":{"slug":"/blog/2014-08-30-western-typeface/","type":"blog","timeToRead":{"words":309,"minutes":2}},"frontmatter":{"title":"《西文字体》","publish_date":"2014-08-30T17:24:57.000+08:00"}}},{"node":{"id":"2abfab79-6be2-5796-83af-d7631e3d8e9a","fields":{"slug":"/blog/2014-08-21-the-continent/","type":"blog","timeToRead":{"words":276,"minutes":2}},"frontmatter":{"title":"后会无期","publish_date":"2014-08-21T02:08:15.000+08:00"}}},{"node":{"id":"377f3c08-f7a2-5d75-9729-75ad6dcf37b8","fields":{"slug":"/blog/2014-08-16-writedowns/","type":"blog","timeToRead":{"words":373,"minutes":2}},"frontmatter":{"title":"随手记 20140816","publish_date":"2014-08-16T18:58:44.000+08:00"}}},{"node":{"id":"9f781db3-6152-50b1-bd00-f38d5b87a089","fields":{"slug":"/blog/2014-08-15-theme-update/","type":"blog","timeToRead":{"words":750,"minutes":5}},"frontmatter":{"title":"日志主题更新","publish_date":"2014-08-15T03:03:33.000+08:00"}}},{"node":{"id":"13d48d84-9037-5c95-878e-ba82766dc69c","fields":{"slug":"/blog/2014-08-13-openwrt-wan-reconnect/","type":"blog","timeToRead":{"words":317,"minutes":2}},"frontmatter":{"title":"Openwrt wan 的断线重连","publish_date":"2014-08-13T12:26:49.000+08:00"}}},{"node":{"id":"faabbe39-a07c-5fb6-8923-e1229472f911","fields":{"slug":"/blog/2014-08-01-source-han-sans/","type":"blog","timeToRead":{"words":727,"minutes":5}},"frontmatter":{"title":"思源黑体","publish_date":"2014-08-01T16:44:26.000+08:00"}}},{"node":{"id":"c1da9bc9-fff9-5028-b1b2-14e6afe0039c","fields":{"slug":"/blog/2014-07-28-20140728/","type":"blog","timeToRead":{"words":404,"minutes":3}},"frontmatter":{"title":"2014 年 7 月 28 日","publish_date":"2014-07-28T18:47:47.000+08:00"}}}]}},"staticQueryHashes":["2356112386"],"slicesMap":{}}