{"componentChunkName":"component---src-templates-paginated-blog-index-tsx","path":"/blog/page/21/","result":{"pageContext":{"page":21,"total":753,"pages":76,"prev":20,"next":22,"limit":10,"items":[{"node":{"id":"847d5f16-78df-550f-9137-315c69d0da44","fields":{"slug":"/blog/2010-07-09-20100708/","type":"blog","timeToRead":{"words":438,"minutes":3}},"frontmatter":{"title":"日记 7.8","publish_date":"2010-07-09T20:09:54.000+08:00"}}},{"node":{"id":"efbd0d68-b3e9-559e-8b62-96d7311ba766","fields":{"slug":"/blog/2010-07-09-20100707/","type":"blog","timeToRead":{"words":798,"minutes":5}},"frontmatter":{"title":"日记 7.7","publish_date":"2010-07-09T20:06:10.000+08:00"}}},{"node":{"id":"b007cf4c-321a-5fec-b092-7b4db7730881","fields":{"slug":"/blog/2010-07-02-untitled/","type":"blog","timeToRead":{"words":372,"minutes":2}},"frontmatter":{"title":"无题","publish_date":"2010-07-02T05:05:14.000+08:00"}}},{"node":{"id":"1203ce17-d878-597f-ad54-94fbe46da84f","fields":{"slug":"/blog/2010-06-30-perfectionist/","type":"blog","timeToRead":{"words":205,"minutes":1}},"frontmatter":{"title":"完美主义者","publish_date":"2010-06-30T02:00:54.000+08:00"}}},{"node":{"id":"59e07dda-a373-503c-ae73-26010b810143","fields":{"slug":"/blog/2010-06-28-matinee/","type":"blog","timeToRead":{"words":232,"minutes":1}},"frontmatter":{"title":"Matinée","publish_date":"2010-06-28T01:26:34.000+08:00"}}},{"node":{"id":"73629aa4-df68-581d-bf08-32460ece3f4d","fields":{"slug":"/blog/2010-06-23-twilight/","type":"blog","timeToRead":{"words":400,"minutes":3}},"frontmatter":{"title":"Twilight","publish_date":"2010-06-23T01:01:21.000+08:00"}}},{"node":{"id":"c3d4b4be-b580-51fc-8846-7c0e2c3ad449","fields":{"slug":"/blog/2010-06-05-reed-who-talls/","type":"blog","timeToRead":{"words":184,"minutes":1}},"frontmatter":{"title":"会说话的芦苇","publish_date":"2010-06-05T17:08:21.000+08:00"}}},{"node":{"id":"f6545009-d576-5597-bced-be4c4f7c2f3e","fields":{"slug":"/blog/2010-05-28-again/","type":"blog","timeToRead":{"words":125,"minutes":1}},"frontmatter":{"title":"又写一遍","publish_date":"2010-05-28T00:34:50.000+08:00"}}},{"node":{"id":"4627f676-2af1-55fe-ab6b-9b6baa943107","fields":{"slug":"/blog/2010-05-21-blue-gate-crossing/","type":"blog","timeToRead":{"words":63,"minutes":0}},"frontmatter":{"title":"简评：《蓝色大门》","publish_date":"2010-05-21T20:21:29.000+08:00"}}},{"node":{"id":"70d32f35-a64e-5190-b15c-d81ac6193ce3","fields":{"slug":"/blog/2010-05-17-desire/","type":"blog","timeToRead":{"words":124,"minutes":1}},"frontmatter":{"title":"自己所想要的","publish_date":"2010-05-17T01:06:25.000+08:00"}}}]}},"staticQueryHashes":["2356112386"],"slicesMap":{}}