{"componentChunkName":"component---src-templates-paginated-blog-index-tsx","path":"/blog/page/68/","result":{"pageContext":{"page":68,"total":753,"pages":76,"prev":67,"next":69,"limit":10,"items":[{"node":{"id":"bda2e942-4464-5288-8fe6-aa87648b3d78","fields":{"slug":"/blog/2005-06-29-omg/","type":"blog","timeToRead":{"words":153,"minutes":1}},"frontmatter":{"title":"天啊","publish_date":"2005-06-29T22:54:44.000+08:00"}}},{"node":{"id":"437f163c-ed75-5086-b281-5a246700e005","fields":{"slug":"/blog/2005-06-28-am-i-lin-yuxiang/","type":"blog","timeToRead":{"words":70,"minutes":0}},"frontmatter":{"title":"我是林雨翔？","publish_date":"2005-06-28T10:50:06.000+08:00"}}},{"node":{"id":"217bbc49-080c-574d-aee1-0c3090459bcc","fields":{"slug":"/blog/2005-06-26-final-tests/","type":"blog","timeToRead":{"words":19,"minutes":0}},"frontmatter":{"title":"期末考试……","publish_date":"2005-06-26T12:43:06.000+08:00"}}},{"node":{"id":"b1e59b4e-ef57-5797-bf92-0267ea99c149","fields":{"slug":"/blog/2005-06-24-warlord-of-wastelands/","type":"blog","timeToRead":{"words":212,"minutes":1}},"frontmatter":{"title":"废墟战神","publish_date":"2005-06-24T18:38:54.000+08:00"}}},{"node":{"id":"400ad7ce-b6d0-532b-b586-1e0ce396798a","fields":{"slug":"/blog/2005-06-23-easy-cee/","type":"blog","timeToRead":{"words":162,"minutes":1}},"frontmatter":{"title":"容易的高考","publish_date":"2005-06-23T15:40:20.000+08:00"}}},{"node":{"id":"47cc7350-f90e-5e42-80e9-461425ea67d7","fields":{"slug":"/blog/2005-06-16-exam-is-over/","type":"blog","timeToRead":{"words":45,"minutes":0}},"frontmatter":{"title":"会考完了，没感觉……","publish_date":"2005-06-16T23:33:26.000+08:00"}}},{"node":{"id":"dd0e3436-aeb4-514e-bf28-ba1874a5a3f0","fields":{"slug":"/blog/2005-06-15-kiss-pv/","type":"blog","timeToRead":{"words":260,"minutes":2}},"frontmatter":{"title":"Kiss，感动的故事","publish_date":"2005-06-15T20:30:51.000+08:00"}}},{"node":{"id":"aafc92ac-2248-563e-973f-f3102d44034f","fields":{"slug":"/blog/2005-06-15-no-game/","type":"blog","timeToRead":{"words":52,"minutes":0}},"frontmatter":{"title":"没有游戏……","publish_date":"2005-06-15T15:26:40.000+08:00"}}},{"node":{"id":"475ba77c-8b7c-5722-a68a-1f9629446286","fields":{"slug":"/blog/2005-06-09-shortsighting/","type":"blog","timeToRead":{"words":55,"minutes":0}},"frontmatter":{"title":"近视了……","publish_date":"2005-06-09T15:10:34.000+08:00"}}},{"node":{"id":"39889607-fd42-55b4-a01b-115617a40f21","fields":{"slug":"/blog/2005-06-08-scream/","type":"blog","timeToRead":{"words":79,"minutes":0}},"frontmatter":{"title":"呐喊","publish_date":"2005-06-08T18:04:28.000+08:00"}}}]}},"staticQueryHashes":["2356112386"],"slicesMap":{}}