{"componentChunkName":"component---src-templates-paginated-blog-index-tsx","path":"/blog/page/73/","result":{"pageContext":{"page":73,"total":753,"pages":76,"prev":72,"next":74,"limit":10,"items":[{"node":{"id":"e5cfa881-ea3d-57bc-9761-c25af61c934d","fields":{"slug":"/blog/2005-03-12-bored/","type":"blog","timeToRead":{"words":19,"minutes":0}},"frontmatter":{"title":"无聊","publish_date":"2005-03-12T21:22:00.000+08:00"}}},{"node":{"id":"235a7f3c-2470-5991-8538-72c81b2b5a9b","fields":{"slug":"/blog/2005-03-10-tired/","type":"blog","timeToRead":{"words":189,"minutes":1}},"frontmatter":{"title":"很累","publish_date":"2005-03-10T22:29:00.000+08:00"}}},{"node":{"id":"47eab76f-5e9b-5f46-9898-35b93b0ef7a9","fields":{"slug":"/blog/2005-03-10-qq-show/","type":"blog","timeToRead":{"words":117,"minutes":1}},"frontmatter":{"title":"QQ 秀","publish_date":"2005-03-10T22:17:00.000+08:00"}}},{"node":{"id":"ef6dd4b7-cac4-5d9a-8d9b-7fa0718b0da1","fields":{"slug":"/blog/2005-03-05-size-13/","type":"blog","timeToRead":{"words":70,"minutes":0}},"frontmatter":{"title":"字号 13","publish_date":"2005-03-05T22:24:00.000+08:00"}}},{"node":{"id":"24def998-9253-53fc-91b8-716aefdf8cae","fields":{"slug":"/blog/2005-03-04-spirited-away/","type":"blog","timeToRead":{"words":116,"minutes":1}},"frontmatter":{"title":"Spirited Away","publish_date":"2005-03-04T22:46:00.000+08:00"}}},{"node":{"id":"ab1cb091-5754-52a5-9794-3d62ab7d5c80","fields":{"slug":"/blog/2005-03-04-this-week/","type":"blog","timeToRead":{"words":323,"minutes":2}},"frontmatter":{"title":"这个星期","publish_date":"2005-03-04T22:19:00.000+08:00"}}},{"node":{"id":"93589624-75ec-536c-9b7f-c86ef5f94069","fields":{"slug":"/blog/2005-02-26-small-modifications/","type":"blog","timeToRead":{"words":82,"minutes":1}},"frontmatter":{"title":"小修改","publish_date":"2005-02-26T22:11:00.000+08:00"}}},{"node":{"id":"cc29ab7e-fe65-5ff8-8ba7-0aae524b29e2","fields":{"slug":"/blog/2005-02-26-been-indexed/","type":"blog","timeToRead":{"words":68,"minutes":0}},"frontmatter":{"title":"上 Google 了……","publish_date":"2005-02-26T11:48:00.000+08:00"}}},{"node":{"id":"55b9ca47-4630-5157-9edb-29e95078715a","fields":{"slug":"/blog/2005-02-26-lonely/","type":"blog","timeToRead":{"words":120,"minutes":1}},"frontmatter":{"title":"寂寞啊！","publish_date":"2005-02-26T11:37:00.000+08:00"}}},{"node":{"id":"e63e6377-57b4-5b8e-bb39-b0174a194bb6","fields":{"slug":"/blog/2005-02-26-previously-envisaged-configuration/","type":"blog","timeToRead":{"words":84,"minutes":1}},"frontmatter":{"title":"以前设想的机子","publish_date":"2005-02-26T11:23:00.000+08:00"}}}]}},"staticQueryHashes":["2356112386"],"slicesMap":{}}