{"componentChunkName":"component---src-templates-paginated-blog-index-tsx","path":"/blog/","result":{"pageContext":{"page":1,"total":753,"pages":76,"prev":0,"next":2,"limit":10,"items":[{"node":{"id":"07644d72-2e65-5fd0-a2d6-740de2400244","fields":{"slug":"/blog/2020-06-09-recent-blog-system-updates/","type":"blog","timeToRead":{"words":1798,"minutes":11}},"frontmatter":{"title":"最近日志系统的一些小更新","publish_date":"2020-06-09T01:57:07.613+08:00"}}},{"node":{"id":"f137260c-77c3-509f-9e06-6bf4eebd30b7","fields":{"slug":"/blog/2019-07-22-pray-for-kyoani/","type":"blog","timeToRead":{"words":393,"minutes":2}},"frontmatter":{"title":"长歌当哭","publish_date":"2019-07-22T00:29:52.171+08:00"}}},{"node":{"id":"51195c7d-0b7c-57f6-9d53-928256535f76","fields":{"slug":"/blog/2019-02-19-japan-trip-2019/","type":"blog","timeToRead":{"words":3305,"minutes":21}},"frontmatter":{"title":"日本纪行","publish_date":"2019-02-19T21:18:23.444+08:00"}}},{"node":{"id":"2355e631-6c86-5660-a41f-b8de2351290f","fields":{"slug":"/blog/2018-12-07-kurihara-updates/","type":"blog","timeToRead":{"words":1397,"minutes":9}},"frontmatter":{"title":"日志系统施工进度","publish_date":"2018-12-07T02:17:50.924+08:00"}}},{"node":{"id":"85b76286-38d7-539a-8aea-fc0d633d62db","fields":{"slug":"/blog/2018-11-19-poison-of-time/","type":"blog","timeToRead":{"words":374,"minutes":2}},"frontmatter":{"title":"时光之毒","publish_date":"2018-11-19T00:49:28.929+08:00"}}},{"node":{"id":"2abdca7f-3e7e-5810-8427-72fa147cea49","fields":{"slug":"/blog/2018-11-03-project-kurihara/","type":"blog","timeToRead":{"words":1059,"minutes":7}},"frontmatter":{"title":"Project Kurihara","publish_date":"2018-11-03T01:52:08.922+08:00"}}},{"node":{"id":"c3c438f0-4456-5c0e-a698-5ef8dcb6d851","fields":{"slug":"/blog/2018-06-06-but-is-it-beneficial/","type":"blog","timeToRead":{"words":532,"minutes":3}},"frontmatter":{"title":"「但是那有什么用呢」","publish_date":"2018-06-06T00:44:18.000+08:00"}}},{"node":{"id":"5e9fff4c-f3b7-5495-abb7-45475648954b","fields":{"slug":"/blog/2017-01-04-to-year-2017/","type":"blog","timeToRead":{"words":746,"minutes":5}},"frontmatter":{"title":"写给 2017 年","publish_date":"2017-01-04T02:40:09.000+08:00"}}},{"node":{"id":"225d1dac-b072-50e9-86c0-de4f5acd354f","fields":{"slug":"/blog/2016-12-31-improvement-alone/","type":"blog","timeToRead":{"words":929,"minutes":6}},"frontmatter":{"title":"山中修炼","publish_date":"2016-12-31T01:29:41.000+08:00"}}},{"node":{"id":"fa9d1985-6896-5e63-987f-10f125f2a2e9","fields":{"slug":"/blog/2016-03-09-20160309/","type":"blog","timeToRead":{"words":711,"minutes":4}},"frontmatter":{"title":"2016 年 3 月 9 日","publish_date":"2016-03-09T01:30:07.000+08:00"}}}]}},"staticQueryHashes":["2356112386"],"slicesMap":{}}