{"componentChunkName":"component---src-templates-paginated-blog-index-tsx","path":"/blog/page/10/","result":{"pageContext":{"page":10,"total":753,"pages":76,"prev":9,"next":11,"limit":10,"items":[{"node":{"id":"e93d2b1d-4850-5d43-97fe-2fbe6c1ce6d6","fields":{"slug":"/blog/2012-01-22-why-i-wirte-blogs/","type":"blog","timeToRead":{"words":1019,"minutes":6}},"frontmatter":{"title":"我为什么写博客","publish_date":"2012-01-22T00:36:12.000+08:00"}}},{"node":{"id":"4c2be19d-a172-52be-9025-a3217be5dc20","fields":{"slug":"/blog/2012-01-18-on-love/","type":"blog","timeToRead":{"words":1876,"minutes":12}},"frontmatter":{"title":"情骚","publish_date":"2012-01-18T10:25:39.000+08:00"}}},{"node":{"id":"7d1c7a31-4a6d-5c47-84c8-faa904591d68","fields":{"slug":"/blog/2012-01-06-anime-reviews-2012-fall/","type":"blog","timeToRead":{"words":2070,"minutes":13}},"frontmatter":{"title":"11 年秋番观片总结","publish_date":"2012-01-06T16:03:30.000+08:00"}}},{"node":{"id":"12a465a7-4e4e-5a9c-8404-f4f156af3a26","fields":{"slug":"/blog/2012-01-04-tsukihime-nichichou-wa2ic/","type":"blog","timeToRead":{"words":958,"minutes":6}},"frontmatter":{"title":"月姬、日常与 WA2IC","publish_date":"2012-01-04T00:08:05.000+08:00"}}},{"node":{"id":"d3bdf8d1-2540-5575-9f9e-4fde044fd996","fields":{"slug":"/blog/2011-12-31-to-the-year-2012/","type":"blog","timeToRead":{"words":933,"minutes":6}},"frontmatter":{"title":"写给新的一年","publish_date":"2011-12-31T10:52:04.000+08:00"}}},{"node":{"id":"6c692504-2dc6-51ca-8867-dc18b421b4c5","fields":{"slug":"/blog/2011-12-24-merry-christmas/","type":"blog","timeToRead":{"words":2000,"minutes":13}},"frontmatter":{"title":"美丽克莉丝玛斯","publish_date":"2011-12-24T23:12:54.000+08:00"}}},{"node":{"id":"4b45beab-a010-5819-98a0-a9cb0a4e7e6f","fields":{"slug":"/blog/2011-12-16-on-ambition/","type":"blog","timeToRead":{"words":872,"minutes":5}},"frontmatter":{"title":"干劲的问题","publish_date":"2011-12-16T10:14:29.000+08:00"}}},{"node":{"id":"7c5b8805-78fe-530e-8950-538eab59b95b","fields":{"slug":"/blog/2011-12-11-japan-anime-exhibition/","type":"blog","timeToRead":{"words":766,"minutes":5}},"frontmatter":{"title":"日本动画电影展观影小记","publish_date":"2011-12-11T02:11:39.000+08:00"}}},{"node":{"id":"61d67efc-de9f-575b-ad0a-308cb8de99af","fields":{"slug":"/blog/2011-12-05-20111205/","type":"blog","timeToRead":{"words":256,"minutes":2}},"frontmatter":{"title":"2011 年 12 月 05 日","publish_date":"2011-12-05T20:27:09.000+08:00"}}},{"node":{"id":"b4def30c-8dd5-5244-83ae-483c5b504c1f","fields":{"slug":"/blog/2011-11-19-review-on-youth/","type":"blog","timeToRead":{"words":770,"minutes":5}},"frontmatter":{"title":"《青春》读后感","publish_date":"2011-11-19T01:32:21.000+08:00"}}}]}},"staticQueryHashes":["2356112386"],"slicesMap":{}}