{"componentChunkName":"component---src-templates-paginated-blog-index-tsx","path":"/blog/page/26/","result":{"pageContext":{"page":26,"total":753,"pages":76,"prev":25,"next":27,"limit":10,"items":[{"node":{"id":"f95b28e1-d1d7-5bdf-8563-103f9516fc1d","fields":{"slug":"/blog/2009-11-06-yuuhi/","type":"blog","timeToRead":{"words":305,"minutes":2}},"frontmatter":{"title":"登乐游原","publish_date":"2009-11-06T00:48:01.000+08:00"}}},{"node":{"id":"cf78c3ad-ee94-58a8-a2b0-cf8ea5319504","fields":{"slug":"/blog/2009-10-30-rain-in-fall/","type":"blog","timeToRead":{"words":515,"minutes":3}},"frontmatter":{"title":"秋雨","publish_date":"2009-10-30T22:29:19.000+08:00"}}},{"node":{"id":"4768ac6d-de7a-566f-a5e9-5a9d0fdaf39a","fields":{"slug":"/blog/2009-10-27-presence/","type":"blog","timeToRead":{"words":293,"minutes":2}},"frontmatter":{"title":"我还在","publish_date":"2009-10-27T22:24:31.000+08:00"}}},{"node":{"id":"9316b739-0523-5259-aad8-58e246793aa3","fields":{"slug":"/blog/2009-10-06-kanon-seasons/","type":"blog","timeToRead":{"words":287,"minutes":2}},"frontmatter":{"title":"Kanon-四季","publish_date":"2009-10-06T16:09:05.000+08:00"}}},{"node":{"id":"34c4559f-dfca-5e5f-bb94-1bfc61fa0bbb","fields":{"slug":"/blog/2009-10-06-byousoku-go-senchi/","type":"blog","timeToRead":{"words":571,"minutes":4}},"frontmatter":{"title":"秒速几厘米","publish_date":"2009-10-06T14:51:11.000+08:00"}}},{"node":{"id":"11b66c76-a1ed-5db5-ad0e-ca1849033e28","fields":{"slug":"/blog/2009-10-06-toradora-review/","type":"blog","timeToRead":{"words":438,"minutes":3}},"frontmatter":{"title":"《虎与龙》观后感 alpha","publish_date":"2009-10-06T02:09:33.000+08:00"}}},{"node":{"id":"0830a467-1fb8-57ea-b2ba-78d14875eb3a","fields":{"slug":"/blog/2009-10-02-motherland/","type":"blog","timeToRead":{"words":101,"minutes":1}},"frontmatter":{"title":"歌唱祖国","publish_date":"2009-10-02T13:57:24.000+08:00"}}},{"node":{"id":"5737b7d3-5120-5d7b-a557-276f0c473f68","fields":{"slug":"/blog/2009-09-29-waves/","type":"blog","timeToRead":{"words":422,"minutes":3}},"frontmatter":{"title":"前浪","publish_date":"2009-09-29T20:49:07.000+08:00"}}},{"node":{"id":"30cfaa62-5979-50dc-9483-e304ae7de854","fields":{"slug":"/blog/2009-09-28-everything-i-have/","type":"blog","timeToRead":{"words":701,"minutes":4}},"frontmatter":{"title":"我所拥有的一切","publish_date":"2009-09-28T00:51:30.000+08:00"}}},{"node":{"id":"55b2f223-9b73-5793-a253-67ff5a53eeda","fields":{"slug":"/blog/2009-09-21-the-changing-world/","type":"blog","timeToRead":{"words":295,"minutes":2}},"frontmatter":{"title":"变化的人，不变的记忆","publish_date":"2009-09-21T22:46:24.000+08:00"}}}]}},"staticQueryHashes":["2356112386"],"slicesMap":{}}