{"componentChunkName":"component---src-templates-paginated-blog-index-tsx","path":"/blog/page/65/","result":{"pageContext":{"page":65,"total":753,"pages":76,"prev":64,"next":66,"limit":10,"items":[{"node":{"id":"fab72554-6f0e-5f46-acc7-8a59e19a2544","fields":{"slug":"/blog/2005-09-17-fail-to-find/","type":"blog","timeToRead":{"words":125,"minutes":1}},"frontmatter":{"title":"看不见……","publish_date":"2005-09-17T18:15:43.000+08:00"}}},{"node":{"id":"49e0989f-06aa-52e4-a915-61c11ca2f449","fields":{"slug":"/blog/2005-09-16-i-and-shangguan-yan/","type":"blog","timeToRead":{"words":185,"minutes":1}},"frontmatter":{"title":"我和上官燕","publish_date":"2005-09-16T18:41:00.000+08:00"}}},{"node":{"id":"b08e4a20-c36f-5273-9664-2be624342d74","fields":{"slug":"/blog/2005-09-13-unclear/","type":"blog","timeToRead":{"words":125,"minutes":1}},"frontmatter":{"title":"不知道……","publish_date":"2005-09-13T17:55:05.000+08:00"}}},{"node":{"id":"b5860211-2c45-558f-a904-4c7ca76922f8","fields":{"slug":"/blog/2005-09-11-new-watch/","type":"blog","timeToRead":{"words":322,"minutes":2}},"frontmatter":{"title":"新手表","publish_date":"2005-09-11T17:49:55.000+08:00"}}},{"node":{"id":"843465ff-247a-53d0-9fc7-e8dc7d273136","fields":{"slug":"/blog/2005-09-09-gradually/","type":"blog","timeToRead":{"words":331,"minutes":2}},"frontmatter":{"title":"渐渐","publish_date":"2005-09-09T18:58:27.000+08:00"}}},{"node":{"id":"c0a29a59-65a1-5928-b394-151b6bb959f2","fields":{"slug":"/blog/2005-09-07-fallen-sick/","type":"blog","timeToRead":{"words":260,"minutes":2}},"frontmatter":{"title":"生病了","publish_date":"2005-09-07T17:49:36.000+08:00"}}},{"node":{"id":"2ebd9555-6823-5d09-ae4c-2389142e7495","fields":{"slug":"/blog/2005-09-04-fall/","type":"blog","timeToRead":{"words":74,"minutes":0}},"frontmatter":{"title":"秋气","publish_date":"2005-09-04T12:14:02.000+08:00"}}},{"node":{"id":"d1e13b74-6836-5479-ad54-6947bada0531","fields":{"slug":"/blog/2005-09-03-atmosphere/","type":"blog","timeToRead":{"words":273,"minutes":2}},"frontmatter":{"title":"世俗的眼光","publish_date":"2005-09-03T20:12:21.000+08:00"}}},{"node":{"id":"65654e02-9a6f-5378-970c-cb67d9099b7d","fields":{"slug":"/blog/2005-09-02-dazzled/","type":"blog","timeToRead":{"words":284,"minutes":2}},"frontmatter":{"title":"继续，迷惘","publish_date":"2005-09-02T19:21:50.000+08:00"}}},{"node":{"id":"d89e5f95-70b5-55f6-ae35-9da78f1cd7dd","fields":{"slug":"/blog/2005-08-28-confused/","type":"blog","timeToRead":{"words":402,"minutes":3}},"frontmatter":{"title":"迷乱","publish_date":"2005-08-28T21:59:43.000+08:00"}}}]}},"staticQueryHashes":["2356112386"],"slicesMap":{}}