{"componentChunkName":"component---src-templates-paginated-blog-index-tsx","path":"/blog/page/6/","result":{"pageContext":{"page":6,"total":753,"pages":76,"prev":5,"next":7,"limit":10,"items":[{"node":{"id":"931e1fc5-2d99-509c-9d3f-83e2466a4188","fields":{"slug":"/blog/2013-08-26-magic-axioms/","type":"blog","timeToRead":{"words":903,"minutes":6}},"frontmatter":{"title":"魔法公理学","publish_date":"2013-08-26T23:20:37.000+08:00"}}},{"node":{"id":"0846ed9c-9682-5d1a-ab71-7f03dfd721bc","fields":{"slug":"/blog/2013-08-10-seishun/","type":"blog","timeToRead":{"words":297,"minutes":2}},"frontmatter":{"title":"青春","publish_date":"2013-08-10T00:58:09.000+08:00"}}},{"node":{"id":"6b57dc58-264b-57b6-be69-857a35ea6326","fields":{"slug":"/blog/2013-08-05-news/","type":"blog","timeToRead":{"words":590,"minutes":4}},"frontmatter":{"title":"近况","publish_date":"2013-08-05T21:37:10.000+08:00"}}},{"node":{"id":"55135e66-9ffb-5fec-aa26-e835b30383bf","fields":{"slug":"/blog/2013-04-10-project-seishun/","type":"blog","timeToRead":{"words":139,"minutes":1}},"frontmatter":{"title":"Project Seishun","publish_date":"2013-04-10T19:01:48.000+08:00"}}},{"node":{"id":"7a67f2e2-0a23-5e9c-8523-fed18f4f3d84","fields":{"slug":"/blog/2013-04-04-latex-tips-suite/","type":"blog","timeToRead":{"words":1021,"minutes":6}},"frontmatter":{"title":"再：LaTeX 使用小结","publish_date":"2013-04-04T03:12:47.000+08:00"}}},{"node":{"id":"9cc7511c-29be-5e0d-82a5-faebb0b54284","fields":{"slug":"/blog/2013-03-24-new-land/","type":"blog","timeToRead":{"words":625,"minutes":4}},"frontmatter":{"title":"新地","publish_date":"2013-03-24T23:29:27.000+08:00"}}},{"node":{"id":"e14a1fad-eee2-5ad8-b030-96828f3e47bd","fields":{"slug":"/blog/2013-03-09-latex-tips-suite/","type":"blog","timeToRead":{"words":1835,"minutes":11}},"frontmatter":{"title":"续：LaTeX 使用小结","publish_date":"2013-03-09T20:51:17.000+08:00"}}},{"node":{"id":"891523dd-d3b2-560f-bba8-30e98fa68187","fields":{"slug":"/blog/2013-03-07-latex-tips/","type":"blog","timeToRead":{"words":747,"minutes":5}},"frontmatter":{"title":"LaTeX 使用小结","publish_date":"2013-03-07T19:53:36.000+08:00"}}},{"node":{"id":"b9f0f60f-c36e-57a2-97b9-65f2ca175187","fields":{"slug":"/blog/2013-02-22-huang-xiangyi/","type":"blog","timeToRead":{"words":498,"minutes":3}},"frontmatter":{"title":"黄湘怡","publish_date":"2013-02-22T23:53:23.000+08:00"}}},{"node":{"id":"9de89fcc-e2cf-53d8-ba57-17d67c36bc6b","fields":{"slug":"/blog/2013-01-21-to-the-year-2013/","type":"blog","timeToRead":{"words":1245,"minutes":8}},"frontmatter":{"title":"写给新的一年","publish_date":"2013-01-21T15:01:30.000+08:00"}}}]}},"staticQueryHashes":["2356112386"],"slicesMap":{}}