{"componentChunkName":"component---src-templates-paginated-blog-index-tsx","path":"/blog/page/60/","result":{"pageContext":{"page":60,"total":753,"pages":76,"prev":59,"next":61,"limit":10,"items":[{"node":{"id":"636bab79-9aaf-5b99-958e-72d462d1136c","fields":{"slug":"/blog/2006-02-10-thoughts/","type":"blog","timeToRead":{"words":223,"minutes":1}},"frontmatter":{"title":"心里所想的","publish_date":"2006-02-10T22:21:35.000+08:00"}}},{"node":{"id":"a464aaf5-f47f-5335-8bea-39e9117022d4","fields":{"slug":"/blog/2006-02-07-these-years/","type":"blog","timeToRead":{"words":491,"minutes":3}},"frontmatter":{"title":"遥想当年……","publish_date":"2006-02-07T20:52:57.000+08:00"}}},{"node":{"id":"5e0e333b-ea5e-5ea9-b1f0-8db32516df5d","fields":{"slug":"/blog/2006-02-06-blocked/","type":"blog","timeToRead":{"words":149,"minutes":1}},"frontmatter":{"title":"写不下去了……","publish_date":"2006-02-06T21:25:34.000+08:00"}}},{"node":{"id":"0bbb5dc4-acc6-5395-939f-8ccfda51ed18","fields":{"slug":"/blog/2006-02-04-sea/","type":"blog","timeToRead":{"words":507,"minutes":3}},"frontmatter":{"title":"去看海","publish_date":"2006-02-04T20:52:42.000+08:00"}}},{"node":{"id":"8070c713-404a-52b9-b0bb-9586df8f623c","fields":{"slug":"/blog/2006-02-01-diablo-2/","type":"blog","timeToRead":{"words":128,"minutes":1}},"frontmatter":{"title":"暗黑……","publish_date":"2006-02-01T17:09:47.000+08:00"}}},{"node":{"id":"7049f765-d570-5baf-8aae-8fe6bfde995b","fields":{"slug":"/blog/2006-01-30-alyssa-chia/","type":"blog","timeToRead":{"words":136,"minutes":1}},"frontmatter":{"title":"百看不厌……贾静雯","publish_date":"2006-01-30T15:32:17.000+08:00"}}},{"node":{"id":"1be66294-3ac4-5477-85c6-50b5bb0485dd","fields":{"slug":"/blog/2006-01-28-wishes/","type":"blog","timeToRead":{"words":213,"minutes":1}},"frontmatter":{"title":"祝福！","publish_date":"2006-01-28T22:41:50.000+08:00"}}},{"node":{"id":"0e75db5b-6b78-53b5-b151-1d8888f0bbe2","fields":{"slug":"/blog/2006-01-26-joey/","type":"blog","timeToRead":{"words":342,"minutes":2}},"frontmatter":{"title":"祖儿的歌，以及其他","publish_date":"2006-01-26T16:30:53.000+08:00"}}},{"node":{"id":"b370479f-e727-59d7-be18-45c22d209018","fields":{"slug":"/blog/2006-01-25-from-may-to-janarary/","type":"blog","timeToRead":{"words":220,"minutes":1}},"frontmatter":{"title":"从五月到一月","publish_date":"2006-01-25T18:39:01.000+08:00"}}},{"node":{"id":"86f75163-1cdc-5067-9fa9-2aab44b52209","fields":{"slug":"/blog/2006-01-24-cold-wind/","type":"blog","timeToRead":{"words":284,"minutes":2}},"frontmatter":{"title":"冷风","publish_date":"2006-01-24T23:34:22.000+08:00"}}}]}},"staticQueryHashes":["2356112386"],"slicesMap":{}}