{"componentChunkName":"component---src-templates-paginated-blog-index-tsx","path":"/blog/page/34/","result":{"pageContext":{"page":34,"total":753,"pages":76,"prev":33,"next":35,"limit":10,"items":[{"node":{"id":"a599e52f-8a61-5b8e-8712-df69f1e42960","fields":{"slug":"/blog/2007-11-23-shamelessness-is-invincible/","type":"blog","timeToRead":{"words":338,"minutes":2}},"frontmatter":{"title":"人无耻就无敌","publish_date":"2007-11-23T17:37:36.000+08:00"}}},{"node":{"id":"cb272b5d-6de3-547f-880c-df2cfe991b0b","fields":{"slug":"/blog/2007-11-21-running-forward/","type":"blog","timeToRead":{"words":336,"minutes":2}},"frontmatter":{"title":"向前奔跑","publish_date":"2007-11-21T16:52:54.000+08:00"}}},{"node":{"id":"fb589efa-6b30-5ddb-9baa-e081507afc6f","fields":{"slug":"/blog/2007-11-16-search/","type":"blog","timeToRead":{"words":170,"minutes":1}},"frontmatter":{"title":"搜搜搜","publish_date":"2007-11-16T18:14:12.000+08:00"}}},{"node":{"id":"8030f797-0c92-5fc4-9559-930779e5c20f","fields":{"slug":"/blog/2007-11-14-exam-week/","type":"blog","timeToRead":{"words":385,"minutes":2}},"frontmatter":{"title":"考试周","publish_date":"2007-11-14T17:12:17.000+08:00"}}},{"node":{"id":"ef060710-e8ae-54b7-ba66-23f09af51b96","fields":{"slug":"/blog/2007-11-12-no-class/","type":"blog","timeToRead":{"words":199,"minutes":1}},"frontmatter":{"title":"不上课","publish_date":"2007-11-12T11:10:56.000+08:00"}}},{"node":{"id":"bfe5224e-fc20-51f1-80f1-fd3239e3de14","fields":{"slug":"/blog/2007-11-12-caught-a-cold/","type":"blog","timeToRead":{"words":377,"minutes":2}},"frontmatter":{"title":"感冒……","publish_date":"2007-11-12T11:05:58.000+08:00"}}},{"node":{"id":"a3a9b613-cefa-54a3-9cbf-36a26ce770ce","fields":{"slug":"/blog/2007-11-11-cold/","type":"blog","timeToRead":{"words":377,"minutes":2}},"frontmatter":{"title":"感冒……","publish_date":"2007-11-11T13:50:37.000+08:00"}}},{"node":{"id":"f6c7ad4e-625b-573b-a2d1-71f2984a7dbc","fields":{"slug":"/blog/2007-11-03-boring/","type":"blog","timeToRead":{"words":104,"minutes":1}},"frontmatter":{"title":"无聊啊无聊","publish_date":"2007-11-03T12:10:30.000+08:00"}}},{"node":{"id":"07c3681a-a708-56db-96c3-f1b770544383","fields":{"slug":"/blog/2007-10-28-boring/","type":"blog","timeToRead":{"words":61,"minutes":0}},"frontmatter":{"title":"好无聊……","publish_date":"2007-10-28T21:18:58.000+08:00"}}},{"node":{"id":"8b5bd3aa-eed3-530b-8c31-d0cd64e7e18e","fields":{"slug":"/blog/2007-10-27-days-in-beihang/","type":"blog","timeToRead":{"words":821,"minutes":5}},"frontmatter":{"title":"我在大学，我在北航","publish_date":"2007-10-27T17:30:30.000+08:00"}}}]}},"staticQueryHashes":["2356112386"],"slicesMap":{}}