{"componentChunkName":"component---src-templates-paginated-blog-index-tsx","path":"/blog/page/5/","result":{"pageContext":{"page":5,"total":753,"pages":76,"prev":4,"next":6,"limit":10,"items":[{"node":{"id":"b43ab600-f29a-555a-90ff-eb350875861a","fields":{"slug":"/blog/2014-06-27-actualities/","type":"blog","timeToRead":{"words":328,"minutes":2}},"frontmatter":{"title":"近况","publish_date":"2014-06-27T22:16:05.000+08:00"}}},{"node":{"id":"a186bd40-8a48-5b33-a733-327142b5fcc8","fields":{"slug":"/blog/2014-03-22-movie-anohana/","type":"blog","timeToRead":{"words":852,"minutes":5}},"frontmatter":{"title":"电影：向日所见花之名，我们仍未知晓","publish_date":"2014-03-22T01:50:42.000+08:00"}}},{"node":{"id":"c697d09b-81bc-5288-8cf6-e0bee5584cff","fields":{"slug":"/blog/2014-02-26-20140226/","type":"blog","timeToRead":{"words":555,"minutes":3}},"frontmatter":{"title":"2014 年 2 月 26 日","publish_date":"2014-02-26T20:36:27.000+08:00"}}},{"node":{"id":"b0fc9d20-81e4-59ff-a0d7-8c7d2a2fdf06","fields":{"slug":"/blog/2014-02-23-10-year-anniversary-traces/","type":"blog","timeToRead":{"words":2005,"minutes":13}},"frontmatter":{"title":"10+：轨迹","publish_date":"2014-02-23T17:42:19.000+08:00"}}},{"node":{"id":"9558d4e2-c6bd-5b04-9d21-3699989191cb","fields":{"slug":"/blog/2014-02-22-10-year-anniversary/","type":"blog","timeToRead":{"words":384,"minutes":2}},"frontmatter":{"title":"10+：To the next 10 years","publish_date":"2014-02-22T23:55:51.000+08:00"}}},{"node":{"id":"459c772a-2b7a-5aae-ab11-f0abd6cc1186","fields":{"slug":"/blog/2014-02-16-20140216/","type":"blog","timeToRead":{"words":945,"minutes":6}},"frontmatter":{"title":"2014 年 2 月 16 日","publish_date":"2014-02-16T01:03:48.000+08:00"}}},{"node":{"id":"5543ca38-5d21-5b6b-82e0-8953220a49c6","fields":{"slug":"/blog/2014-02-14-project-matsuri/","type":"blog","timeToRead":{"words":928,"minutes":6}},"frontmatter":{"title":"Project 茉莉","publish_date":"2014-02-14T14:20:55.000+08:00"}}},{"node":{"id":"2575327d-853f-57fc-b4b8-9d3ed23e4f4b","fields":{"slug":"/blog/2014-01-13-kagamichan-dayou/","type":"blog","timeToRead":{"words":367,"minutes":2}},"frontmatter":{"title":"鏡ちゃんですよ！","publish_date":"2014-01-13T00:13:55.000+08:00"}}},{"node":{"id":"ae1f3d07-6cfa-512b-a06c-aacc10b21de3","fields":{"slug":"/blog/2013-10-04-anime-reviews-2013-summer/","type":"blog","timeToRead":{"words":1122,"minutes":7}},"frontmatter":{"title":"2013 年 7 月夏番简评 （前篇）","publish_date":"2013-10-04T01:44:02.000+08:00"}}},{"node":{"id":"0a1b33e9-530e-5896-ab1d-6efeeeff079d","fields":{"slug":"/blog/2013-08-27-anime-reviews-2013-first-half/","type":"blog","timeToRead":{"words":2423,"minutes":15}},"frontmatter":{"title":"2013 年上半年新番简评","publish_date":"2013-08-27T20:39:16.000+08:00"}}}]}},"staticQueryHashes":["2356112386"],"slicesMap":{}}