{"componentChunkName":"component---src-templates-paginated-blog-index-tsx","path":"/blog/page/31/","result":{"pageContext":{"page":31,"total":753,"pages":76,"prev":30,"next":32,"limit":10,"items":[{"node":{"id":"74c34226-3562-5be0-b2f0-354a1539262d","fields":{"slug":"/blog/2009-01-06-my-friday/","type":"blog","timeToRead":{"words":520,"minutes":3}},"frontmatter":{"title":"我的星期五","publish_date":"2009-01-06T00:34:13.000+08:00"}}},{"node":{"id":"5047afb5-4c60-53e7-95a5-8e1836b534ff","fields":{"slug":"/blog/2009-01-05-long-time-after/","type":"blog","timeToRead":{"words":171,"minutes":1}},"frontmatter":{"title":"很久以后","publish_date":"2009-01-05T21:43:04.000+08:00"}}},{"node":{"id":"2282f57a-1a5b-525b-a7fb-5b019da4e08b","fields":{"slug":"/blog/2008-11-19-wanshou-temple/","type":"blog","timeToRead":{"words":606,"minutes":4}},"frontmatter":{"title":"《万寿寺》之一","publish_date":"2008-11-19T00:18:45.000+08:00"}}},{"node":{"id":"e64ee478-e82d-5c55-9707-45945b2fd510","fields":{"slug":"/blog/2008-11-12-self-positioning/","type":"blog","timeToRead":{"words":50,"minutes":0}},"frontmatter":{"title":"自我定位","publish_date":"2008-11-12T23:22:11.000+08:00"}}},{"node":{"id":"7ed220cd-36cf-5509-9a93-00aaa300a52e","fields":{"slug":"/blog/2008-11-05-war/","type":"blog","timeToRead":{"words":175,"minutes":1}},"frontmatter":{"title":"战争","publish_date":"2008-11-05T13:54:05.000+08:00"}}},{"node":{"id":"3d6101a0-f9b5-5ffb-a336-c8a27e3bfba4","fields":{"slug":"/blog/2008-10-19-helene-rolles-je-m-appelle-helene/","type":"blog","timeToRead":{"words":1163,"minutes":7}},"frontmatter":{"title":"Hélène Rollès-Je m'appelle Hélène","publish_date":"2008-10-19T12:48:45.000+08:00"}}},{"node":{"id":"650179fd-799b-5e58-8852-79a03f44571d","fields":{"slug":"/blog/2008-10-15-persist/","type":"blog","timeToRead":{"words":175,"minutes":1}},"frontmatter":{"title":"坚持","publish_date":"2008-10-15T22:52:45.000+08:00"}}},{"node":{"id":"438bebfb-cb3f-5014-9470-0d17703d1a7f","fields":{"slug":"/blog/2008-10-08-experiment/","type":"blog","timeToRead":{"words":203,"minutes":1}},"frontmatter":{"title":"实验","publish_date":"2008-10-08T00:15:12.000+08:00"}}},{"node":{"id":"eef7fb70-2f41-5203-9849-8b7038e4d1e2","fields":{"slug":"/blog/2008-10-06-unreal/","type":"blog","timeToRead":{"words":183,"minutes":1}},"frontmatter":{"title":"给虚幻所麻痹了","publish_date":"2008-10-06T18:53:51.000+08:00"}}},{"node":{"id":"72def4ff-9db4-5587-a0b5-5e0a9a5f25bf","fields":{"slug":"/blog/2008-10-05-answer/","type":"blog","timeToRead":{"words":765,"minutes":5}},"frontmatter":{"title":"回答","publish_date":"2008-10-05T12:17:50.000+08:00"}}}]}},"staticQueryHashes":["2356112386"],"slicesMap":{}}