{"componentChunkName":"component---src-templates-paginated-blog-index-tsx","path":"/blog/page/55/","result":{"pageContext":{"page":55,"total":753,"pages":76,"prev":54,"next":56,"limit":10,"items":[{"node":{"id":"46b170a2-89f4-57ee-895b-eed9ac7ad622","fields":{"slug":"/blog/2006-06-06-bored/","type":"blog","timeToRead":{"words":284,"minutes":2}},"frontmatter":{"title":"无聊","publish_date":"2006-06-06T18:40:24.000+08:00"}}},{"node":{"id":"65dd2644-f384-594d-af63-ac6c2d4aa562","fields":{"slug":"/blog/2006-06-03-flowering/","type":"blog","timeToRead":{"words":209,"minutes":1}},"frontmatter":{"title":"未开的花","publish_date":"2006-06-03T18:35:20.000+08:00"}}},{"node":{"id":"3620f3df-040a-53eb-a214-d306a812320c","fields":{"slug":"/blog/2006-06-02-sick-leave/","type":"blog","timeToRead":{"words":168,"minutes":1}},"frontmatter":{"title":"不想去学校","publish_date":"2006-06-02T19:09:19.000+08:00"}}},{"node":{"id":"41fd7820-4dbe-517a-ba7a-8e8e2ed7f45d","fields":{"slug":"/blog/2006-05-30-money/","type":"blog","timeToRead":{"words":388,"minutes":2}},"frontmatter":{"title":"money","publish_date":"2006-05-30T09:44:30.000+08:00"}}},{"node":{"id":"c1dfbec6-2817-5e08-a247-edde82f758c8","fields":{"slug":"/blog/2006-05-27-elementary-school-classmates/","type":"blog","timeToRead":{"words":508,"minutes":3}},"frontmatter":{"title":"小学同学","publish_date":"2006-05-27T20:41:14.000+08:00"}}},{"node":{"id":"860931df-c4f9-52cc-ae82-7b22ee911bd9","fields":{"slug":"/blog/2006-05-27-be-friend/","type":"blog","timeToRead":{"words":204,"minutes":1}},"frontmatter":{"title":"想和你做朋友","publish_date":"2006-05-27T20:24:36.000+08:00"}}},{"node":{"id":"0802bdab-7338-5530-b9e3-27cd96f4f386","fields":{"slug":"/blog/2006-05-26-sunny-rain/","type":"blog","timeToRead":{"words":263,"minutes":2}},"frontmatter":{"title":"晴雨","publish_date":"2006-05-26T20:37:02.000+08:00"}}},{"node":{"id":"86f24b7d-c613-5db7-b2b0-5b696120d61a","fields":{"slug":"/blog/2006-05-21-test-is-over/","type":"blog","timeToRead":{"words":141,"minutes":1}},"frontmatter":{"title":"考完了","publish_date":"2006-05-21T18:00:25.000+08:00"}}},{"node":{"id":"2652e251-8771-5034-9da5-84675fe63b52","fields":{"slug":"/blog/2006-05-20-fourth-simulation/","type":"blog","timeToRead":{"words":215,"minutes":1}},"frontmatter":{"title":"四模","publish_date":"2006-05-20T18:02:20.000+08:00"}}},{"node":{"id":"7cc1bff7-d032-5e04-9d64-6f124abd5c3b","fields":{"slug":"/blog/2006-05-19-hand-forward/","type":"blog","timeToRead":{"words":187,"minutes":1}},"frontmatter":{"title":"伸出我的手","publish_date":"2006-05-19T19:13:57.000+08:00"}}}]}},"staticQueryHashes":["2356112386"],"slicesMap":{}}