{"componentChunkName":"component---src-templates-paginated-blog-index-tsx","path":"/blog/page/24/","result":{"pageContext":{"page":24,"total":753,"pages":76,"prev":23,"next":25,"limit":10,"items":[{"node":{"id":"aaf9e755-94f8-5959-8e46-cb40709e6477","fields":{"slug":"/blog/2010-02-19-nowhere-to-go/","type":"blog","timeToRead":{"words":443,"minutes":3}},"frontmatter":{"title":"无处容身","publish_date":"2010-02-19T01:06:20.000+08:00"}}},{"node":{"id":"949b310e-45e4-515f-875f-87bc5524fadb","fields":{"slug":"/blog/2010-02-14-snowman-linkmeng/","type":"blog","timeToRead":{"words":853,"minutes":5}},"frontmatter":{"title":"记忆碎片之雪人与零刻","publish_date":"2010-02-14T16:41:28.000+08:00"}}},{"node":{"id":"803a1ac6-ce38-5d4d-b5c5-a30e87e44743","fields":{"slug":"/blog/2010-02-08-two-things/","type":"blog","timeToRead":{"words":38,"minutes":0}},"frontmatter":{"title":"两事","publish_date":"2010-02-08T17:44:08.000+08:00"}}},{"node":{"id":"7413c8f3-45dc-5d1b-9919-3ed6d4675507","fields":{"slug":"/blog/2010-02-07-network-power/","type":"blog","timeToRead":{"words":677,"minutes":4}},"frontmatter":{"title":"网络就是话语权","publish_date":"2010-02-07T18:51:51.000+08:00"}}},{"node":{"id":"f3ea4d5d-e8f3-5de9-a48d-cd40d4756f0b","fields":{"slug":"/blog/2010-02-05-bavarde/","type":"blog","timeToRead":{"words":229,"minutes":1}},"frontmatter":{"title":"碎碎言","publish_date":"2010-02-05T15:48:53.000+08:00"}}},{"node":{"id":"c45dc11e-6ee2-5ba5-89f2-0f1f137f1d7d","fields":{"slug":"/blog/2010-01-20-clouds-please-stay/","type":"blog","timeToRead":{"words":267,"minutes":2}},"frontmatter":{"title":"云且留住","publish_date":"2010-01-20T00:07:26.000+08:00"}}},{"node":{"id":"20629b1f-7c00-5333-884d-9bf7a8cb7c6c","fields":{"slug":"/blog/2010-01-16-regret-is-useless/","type":"blog","timeToRead":{"words":9,"minutes":0}},"frontmatter":{"title":"后悔无用","publish_date":"2010-01-16T13:06:05.000+08:00"}}},{"node":{"id":"058e2744-fc90-5658-b83d-b69f2ac235be","fields":{"slug":"/blog/2010-01-16-exams/","type":"blog","timeToRead":{"words":4,"minutes":0}},"frontmatter":{"title":"考期忏悔","publish_date":"2010-01-16T11:50:53.000+08:00"}}},{"node":{"id":"c9ca3f0e-90b5-501a-a8e8-0d1fd3dfc4bf","fields":{"slug":"/blog/2009-12-31-to-the-year-2010/","type":"blog","timeToRead":{"words":665,"minutes":4}},"frontmatter":{"title":"写给新的一年","publish_date":"2009-12-31T13:25:58.000+08:00"}}},{"node":{"id":"8184d449-8e13-5b23-9cd9-151c5b8ecc96","fields":{"slug":"/blog/2009-12-27-clannad-full-voice-chs-patch/","type":"blog","timeToRead":{"words":1298,"minutes":8}},"frontmatter":{"title":"CLANNAD Full Voice 汉化补丁[KeyFC/CLANNAD 吧/Dwing]","publish_date":"2009-12-27T15:36:48.000+08:00"}}}]}},"staticQueryHashes":["2356112386"],"slicesMap":{}}