{"componentChunkName":"component---src-templates-paginated-blog-index-tsx","path":"/blog/page/30/","result":{"pageContext":{"page":30,"total":753,"pages":76,"prev":29,"next":31,"limit":10,"items":[{"node":{"id":"ac7cf4d9-e4c3-5396-a809-5c1c74830b52","fields":{"slug":"/blog/2009-03-15-cape-no-7/","type":"blog","timeToRead":{"words":340,"minutes":2}},"frontmatter":{"title":"海角七号","publish_date":"2009-03-15T00:01:39.000+08:00"}}},{"node":{"id":"9c074ce8-c8dc-5fcd-b14a-d8f0f738fb01","fields":{"slug":"/blog/2009-03-04-workaround/","type":"blog","timeToRead":{"words":153,"minutes":1}},"frontmatter":{"title":"解决方法","publish_date":"2009-03-04T15:48:22.000+08:00"}}},{"node":{"id":"03bf08de-764a-5145-85e0-5e34ae481550","fields":{"slug":"/blog/2009-03-01-no-willing-to-move-on/","type":"blog","timeToRead":{"words":34,"minutes":0}},"frontmatter":{"title":"还是不想动","publish_date":"2009-03-01T13:46:15.000+08:00"}}},{"node":{"id":"170a2b15-d499-56d7-acff-6714dbd2d909","fields":{"slug":"/blog/2009-02-24-recent-plan/","type":"blog","timeToRead":{"words":236,"minutes":1}},"frontmatter":{"title":"最近一点小小的打算","publish_date":"2009-02-24T23:38:47.000+08:00"}}},{"node":{"id":"53e46653-3499-540c-8810-e9657c49574f","fields":{"slug":"/blog/2009-02-24-aging-comes-in-silence/","type":"blog","timeToRead":{"words":508,"minutes":3}},"frontmatter":{"title":"曾不知老之将至","publish_date":"2009-02-24T01:18:07.000+08:00"}}},{"node":{"id":"d87fb19b-5312-5e3f-a5b7-bc66f3e12fc1","fields":{"slug":"/blog/2009-02-17-suddenly-very-sad/","type":"blog","timeToRead":{"words":98,"minutes":1}},"frontmatter":{"title":"突然很难过","publish_date":"2009-02-17T23:09:28.000+08:00"}}},{"node":{"id":"10e4f3e9-2d30-5c72-b2a4-73e5e9051dfa","fields":{"slug":"/blog/2009-02-11-preparing-make-up-exam/","type":"blog","timeToRead":{"words":80,"minutes":1}},"frontmatter":{"title":"准备补考，心情很烦","publish_date":"2009-02-11T17:22:59.000+08:00"}}},{"node":{"id":"eb890390-267b-5e42-9991-e24666c97b4a","fields":{"slug":"/blog/2009-02-07-sinking/","type":"blog","timeToRead":{"words":176,"minutes":1}},"frontmatter":{"title":"沉沦着","publish_date":"2009-02-07T17:16:25.000+08:00"}}},{"node":{"id":"ddbdabd0-e10a-5044-8cb4-47a5001fd58d","fields":{"slug":"/blog/2009-02-02-staying-home/","type":"blog","timeToRead":{"words":409,"minutes":3}},"frontmatter":{"title":"纠结与沉沦","publish_date":"2009-02-02T20:16:50.000+08:00"}}},{"node":{"id":"e29adf79-12a8-52b4-910a-9414bac27d7f","fields":{"slug":"/blog/2009-01-08-thoughts-like-floating-water/","type":"blog","timeToRead":{"words":454,"minutes":3}},"frontmatter":{"title":"思绪如水","publish_date":"2009-01-08T23:46:58.000+08:00"}}}]}},"staticQueryHashes":["2356112386"],"slicesMap":{}}