{"componentChunkName":"component---src-templates-paginated-blog-index-tsx","path":"/blog/page/2/","result":{"pageContext":{"page":2,"total":753,"pages":76,"prev":1,"next":3,"limit":10,"items":[{"node":{"id":"3038f3ee-a8be-5f96-80dd-3de0c20bf2b3","fields":{"slug":"/blog/2016-01-01-to-the-year-2016/","type":"blog","timeToRead":{"words":987,"minutes":6}},"frontmatter":{"title":"写给 2016 年","publish_date":"2016-01-01T04:46:26.000+08:00"}}},{"node":{"id":"f9c483bf-047d-59ac-89e0-537f822c3b11","fields":{"slug":"/blog/2015-10-14-17-ans/","type":"blog","timeToRead":{"words":708,"minutes":4}},"frontmatter":{"title":"17 ans","publish_date":"2015-10-14T22:36:18.000+08:00"}}},{"node":{"id":"d656e9c5-608f-5d67-b6de-5a5bcf23b764","fields":{"slug":"/blog/2015-09-02-historical-progress/","type":"blog","timeToRead":{"words":323,"minutes":2}},"frontmatter":{"title":"醉的人们举起杯，笑得眼里都是泪","publish_date":"2015-09-02T02:05:21.000+08:00"}}},{"node":{"id":"2e1b60a7-c679-5534-8380-9aa97e3059d7","fields":{"slug":"/blog/2015-09-01-full-band-jamming/","type":"blog","timeToRead":{"words":433,"minutes":3}},"frontmatter":{"title":"全频带阻塞干扰","publish_date":"2015-09-01T00:55:40.000+08:00"}}},{"node":{"id":"9a9a1ad1-d81b-54a9-8603-4c6b2d34ff64","fields":{"slug":"/blog/2015-08-20-where-is-the-watermelon/","type":"blog","timeToRead":{"words":414,"minutes":3}},"frontmatter":{"title":"西瓜在哪里","publish_date":"2015-08-20T01:03:45.000+08:00"}}},{"node":{"id":"403a4f52-9e09-5050-a754-2bbd185dbb3a","fields":{"slug":"/blog/2015-07-07-to-my-26-years-old/","type":"blog","timeToRead":{"words":573,"minutes":4}},"frontmatter":{"title":"写给 26 岁","publish_date":"2015-07-07T01:27:19.000+08:00"}}},{"node":{"id":"c6b25f9b-9cc2-5031-8d04-acba31d869e0","fields":{"slug":"/blog/2015-06-04-saenai-no-hp-no-sotate-kaata/","type":"blog","timeToRead":{"words":383,"minutes":2}},"frontmatter":{"title":"冴えない HP の育てかた","publish_date":"2015-06-04T23:20:44.000+08:00"}}},{"node":{"id":"66e44f1a-03c7-5068-8e9e-38628c10bc21","fields":{"slug":"/blog/2015-05-04-big-world-little-freedom/","type":"blog","timeToRead":{"words":641,"minutes":4}},"frontmatter":{"title":"世界那么大，自由度却很小","publish_date":"2015-05-04T01:58:13.000+08:00"}}},{"node":{"id":"4764a74a-b1fc-5917-97a5-e346ac87613d","fields":{"slug":"/blog/2015-04-19-the-summer-of-that-year/","type":"blog","timeToRead":{"words":452,"minutes":3}},"frontmatter":{"title":"那个夏天","publish_date":"2015-04-19T22:02:24.000+08:00"}}},{"node":{"id":"98db3e37-6fbe-5185-bd0c-35c0ec43a16c","fields":{"slug":"/blog/2015-04-02-ryuusei-wagon/","type":"blog","timeToRead":{"words":567,"minutes":4}},"frontmatter":{"title":"流星ワゴン","publish_date":"2015-04-02T01:12:14.000+08:00"}}}]}},"staticQueryHashes":["2356112386"],"slicesMap":{}}