{"componentChunkName":"component---src-templates-paginated-blog-index-tsx","path":"/blog/page/35/","result":{"pageContext":{"page":35,"total":753,"pages":76,"prev":34,"next":36,"limit":10,"items":[{"node":{"id":"cf2b0bc2-ecaf-5b5c-b014-c50fd341d705","fields":{"slug":"/blog/2007-10-25-troubles/","type":"blog","timeToRead":{"words":69,"minutes":0}},"frontmatter":{"title":"烦恼","publish_date":"2007-10-25T21:48:14.000+08:00"}}},{"node":{"id":"26c00de6-473f-51b9-b3f2-79a4cf096711","fields":{"slug":"/blog/2007-10-21-tired/","type":"blog","timeToRead":{"words":407,"minutes":3}},"frontmatter":{"title":"有点累","publish_date":"2007-10-21T13:01:20.000+08:00"}}},{"node":{"id":"914b403d-4c08-529e-8e35-697ef729467e","fields":{"slug":"/blog/2007-10-20-offline/","type":"blog","timeToRead":{"words":369,"minutes":2}},"frontmatter":{"title":"不上网","publish_date":"2007-10-20T16:02:27.000+08:00"}}},{"node":{"id":"b512075c-e50b-558c-bb62-6c4c52de0a99","fields":{"slug":"/blog/2007-10-11-rushing/","type":"blog","timeToRead":{"words":340,"minutes":2}},"frontmatter":{"title":"赶赶赶","publish_date":"2007-10-11T17:45:26.000+08:00"}}},{"node":{"id":"4c7e6945-a415-55e1-90ac-4dc2fe76935f","fields":{"slug":"/blog/2007-10-09-missing-normally/","type":"blog","timeToRead":{"words":263,"minutes":2}},"frontmatter":{"title":"平常想念","publish_date":"2007-10-09T17:04:03.000+08:00"}}},{"node":{"id":"c24f11d2-0ccc-55b7-84f9-e9f9b0c65c74","fields":{"slug":"/blog/2007-10-09-golden-week/","type":"blog","timeToRead":{"words":382,"minutes":2}},"frontmatter":{"title":"黄金周补记","publish_date":"2007-10-09T16:55:10.000+08:00"}}},{"node":{"id":"6f674077-4811-5082-9062-518901a2cfd8","fields":{"slug":"/blog/2007-10-05-poor-mouth/","type":"blog","timeToRead":{"words":337,"minutes":2}},"frontmatter":{"title":"可怜的嘴角","publish_date":"2007-10-05T16:04:11.000+08:00"}}},{"node":{"id":"30d74370-73ff-5e3c-a441-9448b4eaf121","fields":{"slug":"/blog/2007-10-03-treasure/","type":"blog","timeToRead":{"words":247,"minutes":2}},"frontmatter":{"title":"珍惜","publish_date":"2007-10-03T21:46:35.000+08:00"}}},{"node":{"id":"f5e1c572-8d6d-5a6e-953c-bbb8f0bdf06c","fields":{"slug":"/blog/2007-10-02-holding-hand/","type":"blog","timeToRead":{"words":207,"minutes":1}},"frontmatter":{"title":"牵手","publish_date":"2007-10-02T09:49:49.000+08:00"}}},{"node":{"id":"cf64de53-12f2-56df-b817-c25ecb4f6e03","fields":{"slug":"/blog/2007-09-30-missing-home/","type":"blog","timeToRead":{"words":369,"minutes":2}},"frontmatter":{"title":"突然想家的思绪","publish_date":"2007-09-30T10:12:56.000+08:00"}}}]}},"staticQueryHashes":["2356112386"],"slicesMap":{}}