{"componentChunkName":"component---src-templates-paginated-blog-index-tsx","path":"/blog/page/48/","result":{"pageContext":{"page":48,"total":753,"pages":76,"prev":47,"next":49,"limit":10,"items":[{"node":{"id":"93932d55-136b-58ac-ac26-956406387d4f","fields":{"slug":"/blog/2007-01-01-new-year/","type":"blog","timeToRead":{"words":333,"minutes":2}},"frontmatter":{"title":"新年畅想","publish_date":"2007-01-01T11:55:00.000+08:00"}}},{"node":{"id":"e74f6740-bbe3-530f-b684-635d85f79b96","fields":{"slug":"/blog/2006-12-24-christmas/","type":"blog","timeToRead":{"words":626,"minutes":4}},"frontmatter":{"title":"无人圣诞","publish_date":"2006-12-24T17:30:25.000+08:00"}}},{"node":{"id":"4ec85765-8bc4-5a9e-9f0f-65e18a09ca53","fields":{"slug":"/blog/2006-12-24-swan/","type":"blog","timeToRead":{"words":189,"minutes":1}},"frontmatter":{"title":"天鹅","publish_date":"2006-12-24T12:22:56.000+08:00"}}},{"node":{"id":"520590e5-4310-5abd-be42-1ee5a2ea35fc","fields":{"slug":"/blog/2006-12-23-random-thoughts/","type":"blog","timeToRead":{"words":301,"minutes":2}},"frontmatter":{"title":"胡思乱想","publish_date":"2006-12-23T17:19:14.000+08:00"}}},{"node":{"id":"b49af2ba-68e1-5625-a040-b8a3c2174ad1","fields":{"slug":"/blog/2006-12-17-orion/","type":"blog","timeToRead":{"words":225,"minutes":1}},"frontmatter":{"title":"好丽友","publish_date":"2006-12-17T18:04:26.000+08:00"}}},{"node":{"id":"62161d51-f171-575c-bcc1-a26f271497cb","fields":{"slug":"/blog/2006-12-17-helpless/","type":"blog","timeToRead":{"words":98,"minutes":1}},"frontmatter":{"title":"无奈","publish_date":"2006-12-17T13:18:38.000+08:00"}}},{"node":{"id":"2492994a-1d69-5f94-b15b-ab6e741b8db1","fields":{"slug":"/blog/2006-12-16-2-week-without-blogging/","type":"blog","timeToRead":{"words":338,"minutes":2}},"frontmatter":{"title":"失去 blog 的两星期","publish_date":"2006-12-16T17:46:21.000+08:00"}}},{"node":{"id":"5e1facd9-42c1-50e9-b436-71d7228441dd","fields":{"slug":"/blog/2006-12-03-listless/","type":"blog","timeToRead":{"words":202,"minutes":1}},"frontmatter":{"title":"无精打采","publish_date":"2006-12-03T17:57:17.000+08:00"}}},{"node":{"id":"ce8efca6-0e5e-556e-ae7e-c2ad1fc49769","fields":{"slug":"/blog/2006-12-02-castle/","type":"blog","timeToRead":{"words":534,"minutes":3}},"frontmatter":{"title":"我的城堡","publish_date":"2006-12-02T19:18:43.000+08:00"}}},{"node":{"id":"452bea92-e56d-59f6-a851-443da909256e","fields":{"slug":"/blog/2006-11-26-no-depression/","type":"blog","timeToRead":{"words":205,"minutes":1}},"frontmatter":{"title":"拒绝消沉","publish_date":"2006-11-26T18:34:27.000+08:00"}}}]}},"staticQueryHashes":["2356112386"],"slicesMap":{}}