{"componentChunkName":"component---src-templates-paginated-blog-index-tsx","path":"/blog/page/32/","result":{"pageContext":{"page":32,"total":753,"pages":76,"prev":31,"next":33,"limit":10,"items":[{"node":{"id":"2bff6b3a-71eb-5f17-9cda-5ca45ff59123","fields":{"slug":"/blog/2008-09-21-i-pascal/","type":"blog","timeToRead":{"words":235,"minutes":1}},"frontmatter":{"title":"i, pascal","publish_date":"2008-09-21T13:25:14.000+08:00"}}},{"node":{"id":"502a869c-de0b-558c-9082-7e32ec70099f","fields":{"slug":"/blog/2008-08-18-eight-years-in-one-day/","type":"blog","timeToRead":{"words":831,"minutes":5}},"frontmatter":{"title":"一天八年","publish_date":"2008-08-18T16:53:17.000+08:00"}}},{"node":{"id":"3f1d118c-d7e7-5579-8639-70f615476ed1","fields":{"slug":"/blog/2008-07-14-second-day-olympic-city-volunteer/","type":"blog","timeToRead":{"words":438,"minutes":3}},"frontmatter":{"title":"城市志愿者的第二个四小时","publish_date":"2008-07-14T20:17:37.000+08:00"}}},{"node":{"id":"f994ef84-2f51-5bf7-be09-55a48e68526b","fields":{"slug":"/blog/2008-07-12first-day-olympic-city-volunteer/","type":"blog","timeToRead":{"words":848,"minutes":5}},"frontmatter":{"title":"城市志愿者的第一天","publish_date":"2008-07-12T14:26:12.000+08:00"}}},{"node":{"id":"7d2eb464-897d-55b0-aae1-0294fc0376e6","fields":{"slug":"/blog/2008-07-05-19-years-old/","type":"blog","timeToRead":{"words":573,"minutes":4}},"frontmatter":{"title":"19 岁","publish_date":"2008-07-05T22:40:05.000+08:00"}}},{"node":{"id":"5f9647b0-f8b7-5493-88d6-c7ad517c248b","fields":{"slug":"/blog/2008-06-30-staying-in-beijing/","type":"blog","timeToRead":{"words":311,"minutes":2}},"frontmatter":{"title":"滞留北京","publish_date":"2008-06-30T15:27:23.000+08:00"}}},{"node":{"id":"74551c8b-7eb2-5dd9-acd6-a2471921d4bb","fields":{"slug":"/blog/2008-04-19-away/","type":"blog","timeToRead":{"words":517,"minutes":3}},"frontmatter":{"title":"远离一种生活","publish_date":"2008-04-19T19:57:20.000+08:00"}}},{"node":{"id":"a75fce61-ac13-53f6-a1bd-fe057c65ac8d","fields":{"slug":"/blog/2008-04-01-tired/","type":"blog","timeToRead":{"words":703,"minutes":4}},"frontmatter":{"title":"累了","publish_date":"2008-04-01T22:07:44.000+08:00"}}},{"node":{"id":"35a11f0d-beb7-5288-9aa8-a749f5a19629","fields":{"slug":"/blog/2008-02-28-thoughts/","type":"blog","timeToRead":{"words":145,"minutes":1}},"frontmatter":{"title":"思绪","publish_date":"2008-02-28T17:38:32.000+08:00"}}},{"node":{"id":"eae03416-dc38-56e4-9498-1ae70f64ab3b","fields":{"slug":"/blog/2008-02-23-first-week/","type":"blog","timeToRead":{"words":380,"minutes":2}},"frontmatter":{"title":"第一周，莫名其妙","publish_date":"2008-02-23T14:22:40.000+08:00"}}}]}},"staticQueryHashes":["2356112386"],"slicesMap":{}}