{"componentChunkName":"component---src-templates-paginated-blog-index-tsx","path":"/blog/page/49/","result":{"pageContext":{"page":49,"total":753,"pages":76,"prev":48,"next":50,"limit":10,"items":[{"node":{"id":"29abd697-4011-5bc5-a505-4d663ab593fe","fields":{"slug":"/blog/2006-11-19-blue-ideal/","type":"blog","timeToRead":{"words":255,"minutes":2}},"frontmatter":{"title":"蓝色理想","publish_date":"2006-11-19T18:04:18.000+08:00"}}},{"node":{"id":"c17171ec-64e5-5b9f-8ade-546f1cb09abe","fields":{"slug":"/blog/2006-11-18-happiness/","type":"blog","timeToRead":{"words":315,"minutes":2}},"frontmatter":{"title":"幸福","publish_date":"2006-11-18T17:39:11.000+08:00"}}},{"node":{"id":"eb5cc6aa-62e5-5f0a-84a1-728f60358e32","fields":{"slug":"/blog/2006-11-12-marching/","type":"blog","timeToRead":{"words":104,"minutes":1}},"frontmatter":{"title":"向前进，向前进！","publish_date":"2006-11-12T17:40:24.000+08:00"}}},{"node":{"id":"431ffb23-5bb0-5aeb-84fe-150bbad2caca","fields":{"slug":"/blog/2006-11-10-fallen-dust/","type":"blog","timeToRead":{"words":166,"minutes":1}},"frontmatter":{"title":"尘埃已落","publish_date":"2006-11-10T21:08:26.000+08:00"}}},{"node":{"id":"12bd10b5-86f7-5706-8438-03f51ef7701b","fields":{"slug":"/blog/2006-11-07-monthly-exam-nov-2/","type":"blog","timeToRead":{"words":289,"minutes":2}},"frontmatter":{"title":"11 月-月考下","publish_date":"2006-11-07T17:46:03.000+08:00"}}},{"node":{"id":"a325ee44-abe5-56aa-add3-b1daf4ed6b3a","fields":{"slug":"/blog/2006-11-06-monthly-exam-nov/","type":"blog","timeToRead":{"words":193,"minutes":1}},"frontmatter":{"title":"11 月-月考上","publish_date":"2006-11-06T17:54:16.000+08:00"}}},{"node":{"id":"2fc8d114-9b20-53c1-a668-2ac37a561dba","fields":{"slug":"/blog/2006-11-05-portrail-and-elopment/","type":"blog","timeToRead":{"words":308,"minutes":2}},"frontmatter":{"title":"画像与私奔","publish_date":"2006-11-05T17:26:52.000+08:00"}}},{"node":{"id":"2e7db09c-d502-577d-bee3-9015bef4d395","fields":{"slug":"/blog/2006-11-04-be-natural/","type":"blog","timeToRead":{"words":226,"minutes":1}},"frontmatter":{"title":"顺其自然","publish_date":"2006-11-04T19:52:55.000+08:00"}}},{"node":{"id":"2553a3a7-aade-5861-84df-85d82a6e0aa9","fields":{"slug":"/blog/2006-11-03-where-to-go/","type":"blog","timeToRead":{"words":630,"minutes":4}},"frontmatter":{"title":"彼且奚适？","publish_date":"2006-11-03T18:39:15.000+08:00"}}},{"node":{"id":"2c8e7e64-e542-5787-80d4-0092a1389e21","fields":{"slug":"/blog/2006-10-29-miracles/","type":"blog","timeToRead":{"words":193,"minutes":1}},"frontmatter":{"title":"相信奇迹","publish_date":"2006-10-29T18:05:38.000+08:00"}}}]}},"staticQueryHashes":["2356112386"],"slicesMap":{}}