{"componentChunkName":"component---src-templates-paginated-blog-index-tsx","path":"/blog/page/33/","result":{"pageContext":{"page":33,"total":753,"pages":76,"prev":32,"next":34,"limit":10,"items":[{"node":{"id":"bab63d10-9721-5447-9242-ac188bb27b8c","fields":{"slug":"/blog/2008-02-14-departure/","type":"blog","timeToRead":{"words":159,"minutes":1}},"frontmatter":{"title":"今天我要走了","publish_date":"2008-02-14T15:07:58.000+08:00"}}},{"node":{"id":"0dc913ca-d318-5c8a-8e47-378b70a30e69","fields":{"slug":"/blog/2008-02-06-meditation/","type":"blog","timeToRead":{"words":339,"minutes":2}},"frontmatter":{"title":"静心","publish_date":"2008-02-06T12:05:17.000+08:00"}}},{"node":{"id":"7ee937c8-eea4-5d3f-971a-180f9c957963","fields":{"slug":"/blog/2008-01-30-concentrate/","type":"blog","timeToRead":{"words":189,"minutes":1}},"frontmatter":{"title":"收心","publish_date":"2008-01-30T17:16:17.000+08:00"}}},{"node":{"id":"da42db87-0df0-59e0-9bb8-be92174d6a1f","fields":{"slug":"/blog/2008-01-12-exams-soon/","type":"blog","timeToRead":{"words":260,"minutes":2}},"frontmatter":{"title":"快考试了","publish_date":"2008-01-12T16:03:46.000+08:00"}}},{"node":{"id":"97cb8042-b508-519e-98b0-15625eedba54","fields":{"slug":"/blog/2008-01-04-small-things/","type":"blog","timeToRead":{"words":729,"minutes":5}},"frontmatter":{"title":"琐琐碎碎","publish_date":"2008-01-04T17:03:05.000+08:00"}}},{"node":{"id":"2a8fdeee-d97e-53c2-9b71-c12c5358c63b","fields":{"slug":"/blog/2007-12-23-renew/","type":"blog","timeToRead":{"words":289,"minutes":2}},"frontmatter":{"title":"我要洗心革面","publish_date":"2007-12-23T14:48:56.000+08:00"}}},{"node":{"id":"43e847a5-27fc-5253-9a8d-e81e3ad86c68","fields":{"slug":"/blog/2007-12-13-combat-with-laziness/","type":"blog","timeToRead":{"words":286,"minutes":2}},"frontmatter":{"title":"与惰性作战","publish_date":"2007-12-13T17:29:04.000+08:00"}}},{"node":{"id":"aba8e07a-813f-5c95-9650-d8fbdb90e853","fields":{"slug":"/blog/2007-12-11-first-snow/","type":"blog","timeToRead":{"words":338,"minutes":2}},"frontmatter":{"title":"第一场雪","publish_date":"2007-12-11T16:55:15.000+08:00"}}},{"node":{"id":"ca5503d0-aa06-5585-aa96-cbdcc61d6be7","fields":{"slug":"/blog/2007-12-08-powerful-virus/","type":"blog","timeToRead":{"words":351,"minutes":2}},"frontmatter":{"title":"强大的病毒","publish_date":"2007-12-08T17:02:23.000+08:00"}}},{"node":{"id":"e2d0fd4a-fc90-5a9c-9880-d8cbaedaefe7","fields":{"slug":"/blog/2007-11-30-about-exams/","type":"blog","timeToRead":{"words":542,"minutes":3}},"frontmatter":{"title":"说说考试","publish_date":"2007-11-30T18:25:57.000+08:00"}}}]}},"staticQueryHashes":["2356112386"],"slicesMap":{}}