{"componentChunkName":"component---src-templates-paginated-blog-index-tsx","path":"/blog/page/74/","result":{"pageContext":{"page":74,"total":753,"pages":76,"prev":73,"next":75,"limit":10,"items":[{"node":{"id":"43585f07-2218-5f1e-a7da-326c74ba1ef1","fields":{"slug":"/blog/2005-02-26-i-use-ie/","type":"blog","timeToRead":{"words":174,"minutes":1}},"frontmatter":{"title":"我就用 IE！","publish_date":"2005-02-26T11:14:00.000+08:00"}}},{"node":{"id":"98653d94-62b7-5c6d-b3f5-b2ff836ff1ee","fields":{"slug":"/blog/2005-02-24-loss/","type":"blog","timeToRead":{"words":55,"minutes":0}},"frontmatter":{"title":"茫然","publish_date":"2005-02-24T21:17:00.000+08:00"}}},{"node":{"id":"02b298b7-4c3a-59ed-8534-e2264783c80c","fields":{"slug":"/blog/2005-02-22-helpless/","type":"blog","timeToRead":{"words":98,"minutes":1}},"frontmatter":{"title":"无奈","publish_date":"2005-02-22T20:36:00.000+08:00"}}},{"node":{"id":"3e2ee7c9-475c-5efc-9b92-9418055790ad","fields":{"slug":"/blog/2005-02-21-the-word/","type":"blog","timeToRead":{"words":42,"minutes":0}},"frontmatter":{"title":"了字","publish_date":"2005-02-21T22:14:00.000+08:00"}}},{"node":{"id":"60cd7410-5ca1-5f36-994a-9c6507ec4a56","fields":{"slug":"/blog/2005-02-21-collapse/","type":"blog","timeToRead":{"words":197,"minutes":1}},"frontmatter":{"title":"崩溃","publish_date":"2005-02-21T22:10:00.000+08:00"}}},{"node":{"id":"10b6be54-e29a-5264-aaa6-0fc6648162c6","fields":{"slug":"/blog/2005-02-21-envy/","type":"blog","timeToRead":{"words":118,"minutes":1}},"frontmatter":{"title":"羡慕中","publish_date":"2005-02-21T17:30:00.000+08:00"}}},{"node":{"id":"b2b54618-2d66-51e3-af3c-b83d84173a4a","fields":{"slug":"/blog/2005-02-20-started/","type":"blog","timeToRead":{"words":212,"minutes":1}},"frontmatter":{"title":"开始啦","publish_date":"2005-02-20T16:02:00.000+08:00"}}},{"node":{"id":"99b8a982-2764-5ca3-89e1-5f8d7847fd0d","fields":{"slug":"/blog/2005-02-19-tired/","type":"blog","timeToRead":{"words":139,"minutes":1}},"frontmatter":{"title":"累死……","publish_date":"2005-02-19T23:00:00.000+08:00"}}},{"node":{"id":"72e8e8d1-e742-50b1-b388-6088369d4c9c","fields":{"slug":"/blog/2005-02-18-eh/","type":"blog","timeToRead":{"words":60,"minutes":0}},"frontmatter":{"title":"晕....","publish_date":"2005-02-18T22:23:00.000+08:00"}}},{"node":{"id":"9627142b-6007-57a1-90e8-6f08988e34ec","fields":{"slug":"/blog/2005-02-18-rebuild/","type":"blog","timeToRead":{"words":38,"minutes":0}},"frontmatter":{"title":"Rebuild, rebuild","publish_date":"2005-02-18T17:02:00.000+08:00"}}}]}},"staticQueryHashes":["2356112386"],"slicesMap":{}}