{"componentChunkName":"component---src-templates-paginated-blog-index-tsx","path":"/blog/page/14/","result":{"pageContext":{"page":14,"total":753,"pages":76,"prev":13,"next":15,"limit":10,"items":[{"node":{"id":"aeb2fdf9-1812-57d7-bc44-14d8fcd183c0","fields":{"slug":"/blog/2011-03-12-20110312/","type":"blog","timeToRead":{"words":707,"minutes":4}},"frontmatter":{"title":"2011 年 03 月 12 日","publish_date":"2011-03-12T00:55:03.000+08:00"}}},{"node":{"id":"6522b136-43df-59ae-bf84-8225ae0ff2a3","fields":{"slug":"/blog/2011-03-08-debian-installation-note-suite/","type":"blog","timeToRead":{"words":1099,"minutes":7}},"frontmatter":{"title":"Debian 安装手记 2","publish_date":"2011-03-08T16:36:59.000+08:00"}}},{"node":{"id":"44c18ed5-be90-5a5f-8385-d24eff7c4030","fields":{"slug":"/blog/2011-03-06-debian-installation-note/","type":"blog","timeToRead":{"words":838,"minutes":5}},"frontmatter":{"title":"Debian 安装手记","publish_date":"2011-03-06T23:14:16.000+08:00"}}},{"node":{"id":"3694507d-b643-53b8-b204-f0e89ecbd940","fields":{"slug":"/blog/2011-02-24-my-way-to-becoming-otaku/","type":"blog","timeToRead":{"words":3759,"minutes":23}},"frontmatter":{"title":"我的宅之路","publish_date":"2011-02-24T23:14:38.000+08:00"}}},{"node":{"id":"de156e26-dc07-5c0a-9b36-1dc65e0a77f0","fields":{"slug":"/blog/2011-02-24-blog-moving-plan/","type":"blog","timeToRead":{"words":349,"minutes":2}},"frontmatter":{"title":"搬家计划","publish_date":"2011-02-24T01:41:04.000+08:00"}}},{"node":{"id":"493c4681-92d5-5749-9343-572430435490","fields":{"slug":"/blog/2011-02-22-mpc-hc-tutorial-outline/","type":"blog","timeToRead":{"words":859,"minutes":5}},"frontmatter":{"title":"mpc-hc 教程，某个坑","publish_date":"2011-02-22T03:14:21.000+08:00"}}},{"node":{"id":"bcf2d2fe-a2d1-58fa-990d-293145427ea8","fields":{"slug":"/blog/2011-02-21-learning-to-drive/","type":"blog","timeToRead":{"words":778,"minutes":5}},"frontmatter":{"title":"学车记","publish_date":"2011-02-21T21:51:47.000+08:00"}}},{"node":{"id":"57597c60-e017-5433-b16b-6bea2ea8ce0a","fields":{"slug":"/blog/2011-02-17-higashi-no-eden-review/","type":"blog","timeToRead":{"words":1034,"minutes":6}},"frontmatter":{"title":"《东之伊甸》简评","publish_date":"2011-02-17T23:33:42.000+08:00"}}},{"node":{"id":"19e9d1f7-bf2d-509e-a5ad-950fe40ef3dd","fields":{"slug":"/blog/2011-02-12-alpha-channel-in-bmp-file/","type":"blog","timeToRead":{"words":252,"minutes":2}},"frontmatter":{"title":"BMP 图像中的 alpha 通道","publish_date":"2011-02-12T20:54:30.000+08:00"}}},{"node":{"id":"e575566b-1266-56ea-9679-d8304e272c87","fields":{"slug":"/blog/2011-02-09-trip-to-beihai/","type":"blog","timeToRead":{"words":698,"minutes":4}},"frontmatter":{"title":"北海記行","publish_date":"2011-02-09T23:59:00.000+08:00"}}}]}},"staticQueryHashes":["2356112386"],"slicesMap":{}}