{"componentChunkName":"component---src-templates-paginated-blog-index-tsx","path":"/blog/page/27/","result":{"pageContext":{"page":27,"total":753,"pages":76,"prev":26,"next":28,"limit":10,"items":[{"node":{"id":"b800503c-f11a-5e2b-9700-b5aaebad7449","fields":{"slug":"/blog/2009-09-14-presence/","type":"blog","timeToRead":{"words":234,"minutes":1}},"frontmatter":{"title":"冒泡","publish_date":"2009-09-14T22:52:38.000+08:00"}}},{"node":{"id":"d40f9d8d-b413-5385-8f56-3cefca8fcf6e","fields":{"slug":"/blog/2009-09-10-tomorrow-northward/","type":"blog","timeToRead":{"words":277,"minutes":2}},"frontmatter":{"title":"明天北上","publish_date":"2009-09-10T00:44:57.000+08:00"}}},{"node":{"id":"83ae9ac3-bc44-5a2a-bac0-54289217e8d8","fields":{"slug":"/blog/2009-09-09-how-time-flies/","type":"blog","timeToRead":{"words":174,"minutes":1}},"frontmatter":{"title":"时间，时间","publish_date":"2009-09-09T00:51:59.000+08:00"}}},{"node":{"id":"8c43d480-9e97-5ef0-a6a6-e21f2fb076e6","fields":{"slug":"/blog/2009-09-08-you-know/","type":"blog","timeToRead":{"words":270,"minutes":2}},"frontmatter":{"title":"你们知道的","publish_date":"2009-09-08T00:08:07.000+08:00"}}},{"node":{"id":"9cd10054-f841-5efb-88f4-78e5391e166d","fields":{"slug":"/blog/2009-09-05-defense/","type":"blog","timeToRead":{"words":512,"minutes":3}},"frontmatter":{"title":"围观楼主","publish_date":"2009-09-05T10:54:11.000+08:00"}}},{"node":{"id":"4d6997a7-d360-59a0-b248-6a14457c80e1","fields":{"slug":"/blog/2009-09-04-what-i-have-done-today/","type":"blog","timeToRead":{"words":52,"minutes":0}},"frontmatter":{"title":"自己做的","publish_date":"2009-09-04T17:10:49.000+08:00"}}},{"node":{"id":"9e8a6672-ce0f-5c80-a0ec-9e1769f54582","fields":{"slug":"/blog/2009-09-02-starlight/","type":"blog","timeToRead":{"words":733,"minutes":5}},"frontmatter":{"title":"星光冷峻","publish_date":"2009-09-02T21:23:22.000+08:00"}}},{"node":{"id":"3fe065bb-b905-533c-a74c-3fcd65319a0c","fields":{"slug":"/blog/2009-09-02-evagelion/","type":"blog","timeToRead":{"words":381,"minutes":2}},"frontmatter":{"title":"从未被超越","publish_date":"2009-09-02T16:39:42.000+08:00"}}},{"node":{"id":"0dc530c2-b170-5993-8b8e-0045b39ac4e8","fields":{"slug":"/blog/2009-08-30-ecpkn-open-day/","type":"blog","timeToRead":{"words":1169,"minutes":7}},"frontmatter":{"title":"也说说中法工程师学院第一届中法开放日","publish_date":"2009-08-30T18:23:53.000+08:00"}}},{"node":{"id":"b717ca7c-4a1d-5fcd-a047-c4d58c4003eb","fields":{"slug":"/blog/2009-08-30-place-des-grands-hommes/","type":"blog","timeToRead":{"words":1892,"minutes":12}},"frontmatter":{"title":"Patrick Bruel-Place des Grands Hommes","publish_date":"2009-08-30T17:59:39.000+08:00"}}}]}},"staticQueryHashes":["2356112386"],"slicesMap":{}}