{"componentChunkName":"component---src-templates-paginated-blog-index-tsx","path":"/blog/page/12/","result":{"pageContext":{"page":12,"total":753,"pages":76,"prev":11,"next":13,"limit":10,"items":[{"node":{"id":"f551cad1-c7a6-5bb6-bfc1-ebc244e25282","fields":{"slug":"/blog/2011-07-04-anime-impression-2011-summer/","type":"blog","timeToRead":{"words":738,"minutes":5}},"frontmatter":{"title":"2011 夏番初评","publish_date":"2011-07-04T11:58:31.000+08:00"}}},{"node":{"id":"f02268b7-f0a7-5957-bb2d-e1cb3635967b","fields":{"slug":"/blog/2011-06-29-paritech-libre-savoirs/","type":"blog","timeToRead":{"words":415,"minutes":3}},"frontmatter":{"title":"法语 OCW：PariTech Libre Savoirs","publish_date":"2011-06-29T22:20:44.000+08:00"}}},{"node":{"id":"ec80bf1d-ea81-5e35-a696-f7d6376f2089","fields":{"slug":"/blog/2011-06-29-reproduced-sustc-comment/","type":"blog","timeToRead":{"words":1211,"minutes":8}},"frontmatter":{"title":"[转载]南科大学生眼中的南科大","publish_date":"2011-06-29T15:16:26.000+08:00"}}},{"node":{"id":"198cedf1-675a-53b9-b5ce-a4997d0e5b00","fields":{"slug":"/blog/2011-06-25-communication-with-hk-students/","type":"blog","timeToRead":{"words":961,"minutes":6}},"frontmatter":{"title":"20110625 交流会小记","publish_date":"2011-06-25T23:53:19.000+08:00"}}},{"node":{"id":"f3115ea6-9f8d-557c-aae9-b4452b64e6fd","fields":{"slug":"/blog/2011-06-21-20110621/","type":"blog","timeToRead":{"words":1510,"minutes":9}},"frontmatter":{"title":"2011 年 06 月 21 日","publish_date":"2011-06-21T00:16:27.000+08:00"}}},{"node":{"id":"7dcaeb5b-7b15-58a3-a017-9b772743ec5d","fields":{"slug":"/blog/2011-06-17-review-begining-of-the-great-revival/","type":"blog","timeToRead":{"words":1011,"minutes":6}},"frontmatter":{"title":"《建党伟业》观后感","publish_date":"2011-06-17T20:54:47.000+08:00"}}},{"node":{"id":"4abe1091-1b9a-5675-ba25-563547f46606","fields":{"slug":"/blog/2011-06-12-sangnom-readme/","type":"blog","timeToRead":{"words":220,"minutes":1}},"frontmatter":{"title":"SangNom Readme 说明","publish_date":"2011-06-12T15:05:00.000+08:00"}}},{"node":{"id":"1b2be216-985a-505a-944d-1417e3e0f143","fields":{"slug":"/blog/2011-05-18-hoshimemo-review-part-1/","type":"blog","timeToRead":{"words":249,"minutes":2}},"frontmatter":{"title":"《星空のメモリア》简评 part1","publish_date":"2011-05-18T00:40:23.000+08:00"}}},{"node":{"id":"00b7ef93-10a8-50f7-b11e-b01682b6e6d4","fields":{"slug":"/blog/2011-05-16-confession/","type":"blog","timeToRead":{"words":847,"minutes":5}},"frontmatter":{"title":"Confession","publish_date":"2011-05-16T23:41:01.000+08:00"}}},{"node":{"id":"7c732db5-984c-5881-8b2c-b56d578ac44d","fields":{"slug":"/blog/2011-05-11-possibility-control/","type":"blog","timeToRead":{"words":660,"minutes":4}},"frontmatter":{"title":"Possibility Control","publish_date":"2011-05-11T02:01:00.000+08:00"}}}]}},"staticQueryHashes":["2356112386"],"slicesMap":{}}