{"componentChunkName":"component---src-templates-paginated-blog-index-tsx","path":"/blog/page/54/","result":{"pageContext":{"page":54,"total":753,"pages":76,"prev":53,"next":55,"limit":10,"items":[{"node":{"id":"ee8fc8a0-7110-512e-bdc7-08ce302060cc","fields":{"slug":"/blog/2006-06-29-farewell-full-score/","type":"blog","timeToRead":{"words":220,"minutes":1}},"frontmatter":{"title":"再见，满分","publish_date":"2006-06-29T11:35:52.000+08:00"}}},{"node":{"id":"50b8cebd-5241-5d14-9cdf-79699d820d1e","fields":{"slug":"/blog/2006-06-27-muddy/","type":"blog","timeToRead":{"words":181,"minutes":1}},"frontmatter":{"title":"浑浑噩噩","publish_date":"2006-06-27T10:55:39.000+08:00"}}},{"node":{"id":"d0610c6c-e592-577a-bf29-0be0d2853419","fields":{"slug":"/blog/2006-06-23-lonely/","type":"blog","timeToRead":{"words":249,"minutes":2}},"frontmatter":{"title":"Is it lonely?","publish_date":"2006-06-23T21:59:54.000+08:00"}}},{"node":{"id":"4fb8fbcd-8192-5334-9273-ef288e206f4e","fields":{"slug":"/blog/2006-06-18-soulmate/","type":"blog","timeToRead":{"words":239,"minutes":1}},"frontmatter":{"title":"止水术","publish_date":"2006-06-18T21:44:28.000+08:00"}}},{"node":{"id":"7299ddb2-df07-5b8d-8a3b-d7992e4650ab","fields":{"slug":"/blog/2006-06-16-maple/","type":"blog","timeToRead":{"words":638,"minutes":4}},"frontmatter":{"title":"秋枫","publish_date":"2006-06-16T18:35:40.000+08:00"}}},{"node":{"id":"a3ae34b0-f6f9-5c91-ba66-17dd9c56b513","fields":{"slug":"/blog/2006-06-15-frustrated/","type":"blog","timeToRead":{"words":362,"minutes":2}},"frontmatter":{"title":"惘然","publish_date":"2006-06-15T19:13:43.000+08:00"}}},{"node":{"id":"b54b4201-ff4d-58d2-9c31-6e61e39015d1","fields":{"slug":"/blog/2006-06-11-journey/","type":"blog","timeToRead":{"words":363,"minutes":2}},"frontmatter":{"title":"journey","publish_date":"2006-06-11T12:37:07.000+08:00"}}},{"node":{"id":"5cf41f91-eb7d-5ada-85e8-3c94db79f575","fields":{"slug":"/blog/2006-06-10-tired/","type":"blog","timeToRead":{"words":229,"minutes":1}},"frontmatter":{"title":"？","publish_date":"2006-06-10T20:37:50.000+08:00"}}},{"node":{"id":"bb51cec7-2fa8-5c98-902c-b427c67bae92","fields":{"slug":"/blog/2006-06-08-beauty/","type":"blog","timeToRead":{"words":182,"minutes":1}},"frontmatter":{"title":"不遇，亦是美丽","publish_date":"2006-06-08T16:44:51.000+08:00"}}},{"node":{"id":"ddff1048-175e-53f2-8ad5-bc0cb54ab1c5","fields":{"slug":"/blog/2006-06-07-miss-mermaid/","type":"blog","timeToRead":{"words":115,"minutes":1}},"frontmatter":{"title":"人鱼小姐","publish_date":"2006-06-07T20:44:52.000+08:00"}}}]}},"staticQueryHashes":["2356112386"],"slicesMap":{}}