{"componentChunkName":"component---src-templates-paginated-blog-index-tsx","path":"/blog/page/17/","result":{"pageContext":{"page":17,"total":753,"pages":76,"prev":16,"next":18,"limit":10,"items":[{"node":{"id":"110d76e6-3e9c-5112-a62b-af82a85ab302","fields":{"slug":"/blog/2010-11-18-koe-de-oshigoto-review/","type":"blog","timeToRead":{"words":574,"minutes":4}},"frontmatter":{"title":"《天籁之声》简评","publish_date":"2010-11-18T22:41:00.000+08:00"}}},{"node":{"id":"fe6bd439-caa0-5768-899d-8799fd8c8d34","fields":{"slug":"/blog/2010-11-17-erotic-anime-site-busted/","type":"blog","timeToRead":{"words":2287,"minutes":14}},"frontmatter":{"title":"我市警方捣毁全国首例涉黄动漫网站","publish_date":"2010-11-17T18:51:00.000+08:00"}}},{"node":{"id":"8ca5f1ba-a17e-5b5d-b984-067fafc2ad84","fields":{"slug":"/blog/2010-11-12-recent-writings/","type":"blog","timeToRead":{"words":962,"minutes":6}},"frontmatter":{"title":"最近写的两篇小短文","publish_date":"2010-11-12T01:04:00.000+08:00"}}},{"node":{"id":"ebf60a74-c238-5109-8e67-2f4fbc5f9c2d","fields":{"slug":"/blog/2010-11-11-recommended-cartoons/","type":"blog","timeToRead":{"words":1837,"minutes":11}},"frontmatter":{"title":"广电总局关于推荐 2010 年第三批优秀国产动画片的通知","publish_date":"2010-11-11T01:58:00.000+08:00"}}},{"node":{"id":"affe7d33-ea6f-5d2b-aca5-0780ac92f1fa","fields":{"slug":"/blog/2010-11-09-on-severe-university-network/","type":"blog","timeToRead":{"words":626,"minutes":4}},"frontmatter":{"title":"我航网络亚克西","publish_date":"2010-11-09T01:52:00.000+08:00"}}},{"node":{"id":"b881c76b-1afe-51dd-8b6a-06ce2683a100","fields":{"slug":"/blog/2010-11-08-cycle/","type":"blog","timeToRead":{"words":278,"minutes":2}},"frontmatter":{"title":"Cycle","publish_date":"2010-11-08T01:06:00.000+08:00"}}},{"node":{"id":"64cdeb58-1114-5f9a-8473-11f9d0440ad5","fields":{"slug":"/blog/2010-11-01-lurking_beneath_the_bright_shadow/","type":"blog","timeToRead":{"words":50,"minutes":0}},"frontmatter":{"title":"潜藏在光明之下的暗影","publish_date":"2010-11-01T00:28:00.000+08:00"}}},{"node":{"id":"ee4664a3-6f24-55f6-a055-5df887bf0f00","fields":{"slug":"/blog/2010-10-31-anime-first-impression-2010-fall-p4/","type":"blog","timeToRead":{"words":814,"minutes":5}},"frontmatter":{"title":"10 年秋番简评 其之四","publish_date":"2010-10-31T01:11:00.000+08:00"}}},{"node":{"id":"a300c615-d132-5884-a4df-55b9632b82fc","fields":{"slug":"/blog/2010-10-26-anime-first-impression-2010-fall-p3/","type":"blog","timeToRead":{"words":656,"minutes":4}},"frontmatter":{"title":"10 年秋番简评·其之三","publish_date":"2010-10-26T16:56:00.000+08:00"}}},{"node":{"id":"03fd4951-e7ce-5a97-9cfa-c96906f42df2","fields":{"slug":"/blog/2010-10-23-anime-first-impression-2010-fall-p2/","type":"blog","timeToRead":{"words":485,"minutes":3}},"frontmatter":{"title":"10 年秋番简评·其之二","publish_date":"2010-10-23T02:18:00.000+08:00"}}}]}},"staticQueryHashes":["2356112386"],"slicesMap":{}}