{"componentChunkName":"component---src-templates-paginated-blog-index-tsx","path":"/blog/page/56/","result":{"pageContext":{"page":56,"total":753,"pages":76,"prev":55,"next":57,"limit":10,"items":[{"node":{"id":"eb1ed044-1b36-54fa-ae5d-02fdb965605a","fields":{"slug":"/blog/2006-05-19-love-sunshine/","type":"blog","timeToRead":{"words":327,"minutes":2}},"frontmatter":{"title":"我爱阳光","publish_date":"2006-05-19T19:00:37.000+08:00"}}},{"node":{"id":"27c76814-6748-5382-9e61-470e36d582c0","fields":{"slug":"/blog/2006-05-14-north-wind-may/","type":"blog","timeToRead":{"words":222,"minutes":1}},"frontmatter":{"title":"五月，北风吹","publish_date":"2006-05-14T12:02:10.000+08:00"}}},{"node":{"id":"91f2a7c0-bf10-54fc-ace8-b7e90d8bc9ce","fields":{"slug":"/blog/2006-05-12-afterwards/","type":"blog","timeToRead":{"words":359,"minutes":2}},"frontmatter":{"title":"之后","publish_date":"2006-05-12T17:52:35.000+08:00"}}},{"node":{"id":"ce2e3115-6b57-5be2-8773-9b9728ce2dc0","fields":{"slug":"/blog/2006-05-07-farewell-the-past-2/","type":"blog","timeToRead":{"words":209,"minutes":1}},"frontmatter":{"title":"再见过去之二","publish_date":"2006-05-07T17:11:30.000+08:00"}}},{"node":{"id":"85a344ec-f230-5721-809c-7233a0654b5c","fields":{"slug":"/blog/2006-05-06-farewell-the-past/","type":"blog","timeToRead":{"words":115,"minutes":1}},"frontmatter":{"title":"再见过去","publish_date":"2006-05-06T17:27:58.000+08:00"}}},{"node":{"id":"7dd38581-a61f-5333-9cca-a9c44323d417","fields":{"slug":"/blog/2006-05-05-moving-foward/","type":"blog","timeToRead":{"words":472,"minutes":3}},"frontmatter":{"title":"向前进","publish_date":"2006-05-05T12:34:11.000+08:00"}}},{"node":{"id":"10b45043-3c2f-523e-b4e4-92b2421c6306","fields":{"slug":"/blog/2006-04-30-sadness/","type":"blog","timeToRead":{"words":290,"minutes":2}},"frontmatter":{"title":"明媚忧伤","publish_date":"2006-04-30T18:35:04.000+08:00"}}},{"node":{"id":"eefff098-468f-5879-ad80-da0f4ebd9da5","fields":{"slug":"/blog/2006-04-28-restart/","type":"blog","timeToRead":{"words":180,"minutes":1}},"frontmatter":{"title":"新起点","publish_date":"2006-04-28T18:16:35.000+08:00"}}},{"node":{"id":"647e10f9-6b49-51ef-a95c-8613f0079551","fields":{"slug":"/blog/2006-04-27-no-feeling/","type":"blog","timeToRead":{"words":156,"minutes":1}},"frontmatter":{"title":"第二天，无感觉","publish_date":"2006-04-27T17:52:34.000+08:00"}}},{"node":{"id":"b6a5f2e6-fee7-5124-8709-bf39be9d2b71","fields":{"slug":"/blog/2006-04-26-test-in-bottom/","type":"blog","timeToRead":{"words":341,"minutes":2}},"frontmatter":{"title":"在低谷的考试","publish_date":"2006-04-26T17:20:36.000+08:00"}}}]}},"staticQueryHashes":["2356112386"],"slicesMap":{}}