{"componentChunkName":"component---src-templates-paginated-blog-index-tsx","path":"/blog/page/8/","result":{"pageContext":{"page":8,"total":753,"pages":76,"prev":7,"next":9,"limit":10,"items":[{"node":{"id":"86cd63fc-8830-5513-8634-e97f514e449e","fields":{"slug":"/blog/2012-05-19-cheap-love/","type":"blog","timeToRead":{"words":763,"minutes":5}},"frontmatter":{"title":"三俗","publish_date":"2012-05-19T00:37:39.000+08:00"}}},{"node":{"id":"51283f06-462c-5abf-b724-67db7c109797","fields":{"slug":"/blog/2012-05-07-on-tea/","type":"blog","timeToRead":{"words":1009,"minutes":6}},"frontmatter":{"title":"茶","publish_date":"2012-05-07T05:20:52.000+08:00"}}},{"node":{"id":"7aaba307-1416-5c22-9503-fd80684e7f81","fields":{"slug":"/blog/2012-04-27-sync-same-folder-for-google-drive-skydrive-on-windows/","type":"blog","timeToRead":{"words":444,"minutes":3}},"frontmatter":{"title":"Windows 下让 google Drive 和 Skydrive 同步同一个文件夹","publish_date":"2012-04-27T22:56:34.000+08:00"}}},{"node":{"id":"67375250-aadd-52f1-a564-c57f0f0ecac9","fields":{"slug":"/blog/2012-04-16-anime-reviews-2012-winter/","type":"blog","timeToRead":{"words":1066,"minutes":7}},"frontmatter":{"title":"12 年冬番简评","publish_date":"2012-04-16T14:42:05.000+08:00"}}},{"node":{"id":"e0d1e85a-58f3-56ea-be49-041224fb2e3d","fields":{"slug":"/blog/2012-04-12-201204 12/","type":"blog","timeToRead":{"words":802,"minutes":5}},"frontmatter":{"title":"2012 年 04 月 12 日","publish_date":"2012-04-12T00:45:01.000+08:00"}}},{"node":{"id":"5233f390-c7f1-5176-b316-fdca049d8b04","fields":{"slug":"/blog/2012-04-10-reproduced-the-begining-of-noble-life/","type":"blog","timeToRead":{"words":10909,"minutes":68}},"frontmatter":{"title":"[转载] 贵族生活的开始","publish_date":"2012-04-10T21:22:34.000+08:00"}}},{"node":{"id":"93bffe73-4611-5c55-8b49-26dcc8f0ca67","fields":{"slug":"/blog/2012-04-08-long-trip-in-age-of-21/","type":"blog","timeToRead":{"words":1079,"minutes":7}},"frontmatter":{"title":"21 岁出门远行","publish_date":"2012-04-08T23:05:03.000+08:00"}}},{"node":{"id":"3dd29dea-b6e3-579f-a7ef-99568c8934a2","fields":{"slug":"/blog/2012-03-23-science-engineering-superiority/","type":"blog","timeToRead":{"words":740,"minutes":5}},"frontmatter":{"title":"理科男与优越感","publish_date":"2012-03-23T00:35:51.000+08:00"}}},{"node":{"id":"bdfdd6c3-84e5-5fb2-b323-8692221d98ed","fields":{"slug":"/blog/2012-03-09-20120309/","type":"blog","timeToRead":{"words":503,"minutes":3}},"frontmatter":{"title":"2012 年 03 月 09 日","publish_date":"2012-03-09T02:55:04.000+08:00"}}},{"node":{"id":"f89661ae-ffb0-5aa7-a0b4-1b74c8287c02","fields":{"slug":"/blog/2012-03-04-external-obstacles/","type":"blog","timeToRead":{"words":515,"minutes":3}},"frontmatter":{"title":"物障","publish_date":"2012-03-04T01:48:21.000+08:00"}}}]}},"staticQueryHashes":["2356112386"],"slicesMap":{}}