{"componentChunkName":"component---src-templates-paginated-blog-index-tsx","path":"/blog/page/20/","result":{"pageContext":{"page":20,"total":753,"pages":76,"prev":19,"next":21,"limit":10,"items":[{"node":{"id":"52a846c1-42d8-5bbb-bc2b-ae53a8a35243","fields":{"slug":"/blog/2010-08-22-prof-layton-and-the-eternal-diva-review/","type":"blog","timeToRead":{"words":285,"minutes":2}},"frontmatter":{"title":"《雷顿教授与永远的歌姬》简评","publish_date":"2010-08-22T00:37:16.000+08:00"}}},{"node":{"id":"d7a89177-86da-52ea-903f-a55ad2b57f67","fields":{"slug":"/blog/2010-08-19-supercell-sayonara-memories/","type":"blog","timeToRead":{"words":519,"minutes":3}},"frontmatter":{"title":"Supercell-さよならメモリーズ","publish_date":"2010-08-19T20:11:26.000+08:00"}}},{"node":{"id":"86e12af7-5dee-5eef-8d2a-b5dfd61493b1","fields":{"slug":"/blog/2010-08-19-at-beihai/","type":"blog","timeToRead":{"words":338,"minutes":2}},"frontmatter":{"title":"@Beihai","publish_date":"2010-08-19T00:20:32.000+08:00"}}},{"node":{"id":"eb4293c8-b535-5663-8d19-e8f358f1a43c","fields":{"slug":"/blog/2010-08-17-bisei-tokei-3-pc-port/","type":"blog","timeToRead":{"words":144,"minutes":1}},"frontmatter":{"title":"美声时计 PC 移植版第二弹","publish_date":"2010-08-17T13:23:29.000+08:00"}}},{"node":{"id":"987a012a-88af-5b28-83b7-be22af64f891","fields":{"slug":"/blog/2010-08-16-broken-blade-ep1-review/","type":"blog","timeToRead":{"words":331,"minutes":2}},"frontmatter":{"title":"破刃之剑 Ep01 简评","publish_date":"2010-08-16T10:59:04.000+08:00"}}},{"node":{"id":"662eac41-06be-5400-9237-bd77e638e3f7","fields":{"slug":"/blog/2010-08-16-more-on-nova-era/","type":"blog","timeToRead":{"words":289,"minutes":2}},"frontmatter":{"title":"再论《超新星纪元》","publish_date":"2010-08-16T10:27:12.000+08:00"}}},{"node":{"id":"a26caca6-8aac-56d4-9a5d-2965ecd9cc33","fields":{"slug":"/blog/2010-08-14-th12-8/","type":"blog","timeToRead":{"words":197,"minutes":1}},"frontmatter":{"title":"TH12.8 东方三月精——其实是 TH12.⑨","publish_date":"2010-08-14T18:10:03.000+08:00"}}},{"node":{"id":"1bc21c69-f440-503c-a2c6-6790a3641bb3","fields":{"slug":"/blog/2010-08-12-illness/","type":"blog","timeToRead":{"words":218,"minutes":1}},"frontmatter":{"title":"偶感小恙","publish_date":"2010-08-12T23:26:27.000+08:00"}}},{"node":{"id":"0a989f5d-45b6-56a2-9dad-82b58faa0b36","fields":{"slug":"/blog/2010-08-11-bisei-tokei-pc-port/","type":"blog","timeToRead":{"words":261,"minutes":2}},"frontmatter":{"title":"美声时计 PC 移植版","publish_date":"2010-08-11T14:52:36.000+08:00"}}},{"node":{"id":"5b04b917-bc78-5078-a64f-c91b4015d3f5","fields":{"slug":"/blog/2010-08-09-ivress/","type":"blog","timeToRead":{"words":305,"minutes":2}},"frontmatter":{"title":"Ivress","publish_date":"2010-08-09T21:07:41.000+08:00"}}}]}},"staticQueryHashes":["2356112386"],"slicesMap":{}}