{"componentChunkName":"component---src-templates-paginated-blog-index-tsx","path":"/blog/page/43/","result":{"pageContext":{"page":43,"total":753,"pages":76,"prev":42,"next":44,"limit":10,"items":[{"node":{"id":"c8729419-e0ab-5cbf-8ef3-27d76251fc96","fields":{"slug":"/blog/2007-04-07-memorial/","type":"blog","timeToRead":{"words":307,"minutes":2}},"frontmatter":{"title":"祭拜","publish_date":"2007-04-07T19:59:43.000+08:00"}}},{"node":{"id":"1b83e78f-0ed1-586e-8cf6-4654915065da","fields":{"slug":"/blog/2007-04-06-confused/","type":"blog","timeToRead":{"words":225,"minutes":1}},"frontmatter":{"title":"有点迷茫","publish_date":"2007-04-06T20:10:04.000+08:00"}}},{"node":{"id":"447c8863-6edb-5b6f-b76f-e93c40363b52","fields":{"slug":"/blog/2007-04-06-new-pc-3/","type":"blog","timeToRead":{"words":184,"minutes":1}},"frontmatter":{"title":"新电脑试用手记","publish_date":"2007-04-06T20:01:16.000+08:00"}}},{"node":{"id":"145990df-df0a-5ef6-a9db-c3f77b73ba6c","fields":{"slug":"/blog/2007-04-02-new-pc-2/","type":"blog","timeToRead":{"words":50,"minutes":0}},"frontmatter":{"title":"新电脑","publish_date":"2007-04-02T22:27:32.000+08:00"}}},{"node":{"id":"cc23946e-b814-542f-91e6-e4abdff952e1","fields":{"slug":"/blog/2007-03-30-new-pc/","type":"blog","timeToRead":{"words":137,"minutes":1}},"frontmatter":{"title":"新电脑","publish_date":"2007-03-30T18:05:53.000+08:00"}}},{"node":{"id":"ccbfaf57-4e22-5a44-883f-cbc292429917","fields":{"slug":"/blog/2007-03-25-is-it-right/","type":"blog","timeToRead":{"words":249,"minutes":2}},"frontmatter":{"title":"对不对？","publish_date":"2007-03-25T17:58:53.000+08:00"}}},{"node":{"id":"0b94be4e-3c32-5432-961d-4f0eca54ed58","fields":{"slug":"/blog/2007-03-24-chinese/","type":"blog","timeToRead":{"words":206,"minutes":1}},"frontmatter":{"title":"语文的问题","publish_date":"2007-03-24T19:52:17.000+08:00"}}},{"node":{"id":"2fd0840a-ddaf-5bd4-a10e-b3eb64972fd0","fields":{"slug":"/blog/2007-03-22-2nd-simulation-2/","type":"blog","timeToRead":{"words":193,"minutes":1}},"frontmatter":{"title":"二模手记 II","publish_date":"2007-03-22T22:32:43.000+08:00"}}},{"node":{"id":"35eae1fa-c342-5929-b458-e4b82efa847a","fields":{"slug":"/blog/2007-03-22-2nd-simulation/","type":"blog","timeToRead":{"words":339,"minutes":2}},"frontmatter":{"title":"二模手记-I","publish_date":"2007-03-22T08:33:07.000+08:00"}}},{"node":{"id":"1d2dfcad-b94d-5eba-bdee-07d57a808f36","fields":{"slug":"/blog/2007-03-22-calm/","type":"blog","timeToRead":{"words":179,"minutes":1}},"frontmatter":{"title":"冷静冷静","publish_date":"2007-03-22T08:32:43.000+08:00"}}}]}},"staticQueryHashes":["2356112386"],"slicesMap":{}}