{"componentChunkName":"component---src-templates-paginated-blog-index-tsx","path":"/blog/page/45/","result":{"pageContext":{"page":45,"total":753,"pages":76,"prev":44,"next":46,"limit":10,"items":[{"node":{"id":"c2c51361-4849-5838-b111-2acf4bf1c678","fields":{"slug":"/blog/2007-02-28-control/","type":"blog","timeToRead":{"words":220,"minutes":1}},"frontmatter":{"title":"控制","publish_date":"2007-02-28T17:08:33.000+08:00"}}},{"node":{"id":"c24854f8-cd49-5ded-8087-046e8bbf3790","fields":{"slug":"/blog/2007-02-27-my-pride/","type":"blog","timeToRead":{"words":366,"minutes":2}},"frontmatter":{"title":"我的骄傲","publish_date":"2007-02-27T19:27:40.000+08:00"}}},{"node":{"id":"ca6ea990-5bd6-59f8-8838-27a3b4dbf616","fields":{"slug":"/blog/2007-02-27-100-day-countdown/","type":"blog","timeToRead":{"words":278,"minutes":2}},"frontmatter":{"title":"100 天","publish_date":"2007-02-27T17:21:23.000+08:00"}}},{"node":{"id":"489ee39c-a711-5b49-82b5-8ae3a3779759","fields":{"slug":"/blog/2007-02-26-monthly-exam-feb/","type":"blog","timeToRead":{"words":128,"minutes":1}},"frontmatter":{"title":"2 月月考，第二天","publish_date":"2007-02-26T18:36:00.000+08:00"}}},{"node":{"id":"28f52f56-4aa1-591a-9e5d-43d0639489c4","fields":{"slug":"/blog/2007-02-25-meaning-of-traveling/","type":"blog","timeToRead":{"words":112,"minutes":1}},"frontmatter":{"title":"旅行的意义","publish_date":"2007-02-25T18:59:54.000+08:00"}}},{"node":{"id":"da015ed8-e557-5d2c-9a39-ee17ab8e18b2","fields":{"slug":"/blog/2007-02-25-monthly-exam-feb/","type":"blog","timeToRead":{"words":380,"minutes":2}},"frontmatter":{"title":"2 月月考，第一天","publish_date":"2007-02-25T18:45:25.000+08:00"}}},{"node":{"id":"ab36586a-8d8e-5d40-8598-4ca45da4b65e","fields":{"slug":"/blog/2007-02-23-new-start/","type":"blog","timeToRead":{"words":134,"minutes":1}},"frontmatter":{"title":"又要开学","publish_date":"2007-02-23T16:43:18.000+08:00"}}},{"node":{"id":"086b6584-9158-5e11-9e7c-aca33a5b7b9a","fields":{"slug":"/blog/2007-02-23-cost-effectiveness/","type":"blog","timeToRead":{"words":276,"minutes":2}},"frontmatter":{"title":"性价比","publish_date":"2007-02-23T16:38:29.000+08:00"}}},{"node":{"id":"cfda66b3-34a1-5808-878b-b1abc27e8766","fields":{"slug":"/blog/2007-02-20-anderson/","type":"blog","timeToRead":{"words":416,"minutes":3}},"frontmatter":{"title":"安徒生","publish_date":"2007-02-20T16:28:40.000+08:00"}}},{"node":{"id":"27b6facd-9909-5ee7-bc07-09d79512b24b","fields":{"slug":"/blog/2007-02-19-back-home/","type":"blog","timeToRead":{"words":251,"minutes":2}},"frontmatter":{"title":"回家","publish_date":"2007-02-19T20:37:47.000+08:00"}}}]}},"staticQueryHashes":["2356112386"],"slicesMap":{}}