{"componentChunkName":"component---src-templates-paginated-blog-index-tsx","path":"/blog/page/28/","result":{"pageContext":{"page":28,"total":753,"pages":76,"prev":27,"next":29,"limit":10,"items":[{"node":{"id":"ac7f4720-74cd-5640-9d6d-716b60a97189","fields":{"slug":"/blog/2009-08-27-love/","type":"blog","timeToRead":{"words":805,"minutes":5}},"frontmatter":{"title":"越看越悲伤","publish_date":"2009-08-27T11:55:14.000+08:00"}}},{"node":{"id":"b9db0b00-1ba1-5f7f-9074-f638648f9fb2","fields":{"slug":"/blog/2009-08-24-eternal-scar/","type":"blog","timeToRead":{"words":136,"minutes":1}},"frontmatter":{"title":"永恒之伤","publish_date":"2009-08-24T13:20:45.000+08:00"}}},{"node":{"id":"eef9fbbe-b2a1-5122-b894-3b0e23101c77","fields":{"slug":"/blog/2009-08-21-time-passing/","type":"blog","timeToRead":{"words":469,"minutes":3}},"frontmatter":{"title":"似水流年之二","publish_date":"2009-08-21T23:21:05.000+08:00"}}},{"node":{"id":"2aab43cf-7675-5136-a57a-a539ef4fd1be","fields":{"slug":"/blog/2009-08-16-yang-yong-xin/","type":"blog","timeToRead":{"words":1248,"minutes":8}},"frontmatter":{"title":"有关杨叔","publish_date":"2009-08-16T16:47:05.000+08:00"}}},{"node":{"id":"e749d74c-74a8-539f-9a4b-2795fe595a60","fields":{"slug":"/blog/2009-08-14-genjimonogatari/","type":"blog","timeToRead":{"words":817,"minutes":5}},"frontmatter":{"title":"源氏物语 v0.1","publish_date":"2009-08-14T02:40:07.000+08:00"}}},{"node":{"id":"852d24fd-6940-561f-8866-73a9c5c68491","fields":{"slug":"/blog/2009-08-10-time-passing/","type":"blog","timeToRead":{"words":245,"minutes":2}},"frontmatter":{"title":"似水流年","publish_date":"2009-08-10T02:08:58.000+08:00"}}},{"node":{"id":"b6881cf5-4418-572f-a58d-a3f500a5d46e","fields":{"slug":"/blog/2009-08-07-secretary-pei/","type":"blog","timeToRead":{"words":355,"minutes":2}},"frontmatter":{"title":"裴支书","publish_date":"2009-08-07T21:09:14.000+08:00"}}},{"node":{"id":"128614a1-bb6e-52b0-b93d-a316b606381e","fields":{"slug":"/blog/2009-07-31-power-of-silence/","type":"blog","timeToRead":{"words":375,"minutes":2}},"frontmatter":{"title":"沉默的力量","publish_date":"2009-07-31T21:28:50.000+08:00"}}},{"node":{"id":"7da012a5-47f0-53a1-bc93-ca06f7a01df8","fields":{"slug":"/blog/2009-07-29-kanon-review/","type":"blog","timeToRead":{"words":1706,"minutes":11}},"frontmatter":{"title":"梦想尽头的轮唱曲 ～kanon～","publish_date":"2009-07-29T10:38:04.000+08:00"}}},{"node":{"id":"4ff2d6c8-d5ea-582c-b68a-806bfc31291a","fields":{"slug":"/blog/2009-07-29-seishun/","type":"blog","timeToRead":{"words":1020,"minutes":6}},"frontmatter":{"title":"青春","publish_date":"2009-07-29T10:35:19.000+08:00"}}}]}},"staticQueryHashes":["2356112386"],"slicesMap":{}}