{"componentChunkName":"component---src-templates-paginated-blog-index-tsx","path":"/blog/page/11/","result":{"pageContext":{"page":11,"total":753,"pages":76,"prev":10,"next":12,"limit":10,"items":[{"node":{"id":"f5be9285-9950-5751-ba4f-fb91afd2de0b","fields":{"slug":"/blog/2011-11-16-reproduce-it-is-outdated/","type":"blog","timeToRead":{"words":2063,"minutes":13}},"frontmatter":{"title":"[转载]这事儿都过气了","publish_date":"2011-11-16T23:04:24.000+08:00"}}},{"node":{"id":"b60b4809-62dc-57b6-bc07-47d9296e5797","fields":{"slug":"/blog/2011-11-14-alive/","type":"blog","timeToRead":{"words":627,"minutes":4}},"frontmatter":{"title":"活着","publish_date":"2011-11-14T19:41:49.000+08:00"}}},{"node":{"id":"340fa3c8-0694-5942-b209-2cc5fa94d8cc","fields":{"slug":"/blog/2011-11-12-20111113/","type":"blog","timeToRead":{"words":1722,"minutes":11}},"frontmatter":{"title":"2011 年 11 月 13 日","publish_date":"2011-11-12T23:33:12.000+08:00"}}},{"node":{"id":"5f6ffdf7-af12-51cd-a4aa-3b22e6e63034","fields":{"slug":"/blog/2011-10-13-20111013/","type":"blog","timeToRead":{"words":1179,"minutes":7}},"frontmatter":{"title":"2011 年 10 月 13 日","publish_date":"2011-10-13T13:12:42.000+08:00"}}},{"node":{"id":"4551b2c7-b9c7-5fd8-82a0-1ee91462cb05","fields":{"slug":"/blog/2011-10-11-20111011/","type":"blog","timeToRead":{"words":565,"minutes":4}},"frontmatter":{"title":"2011 年 10 月 11 日","publish_date":"2011-10-11T00:25:33.000+08:00"}}},{"node":{"id":"b66130d9-5d66-5d0d-9dd8-c4ed22469544","fields":{"slug":"/blog/2011-09-27-20110927/","type":"blog","timeToRead":{"words":415,"minutes":3}},"frontmatter":{"title":"2011 年 09 月 27 日","publish_date":"2011-09-27T20:28:43.000+08:00"}}},{"node":{"id":"c40cdf98-66a5-5115-b16b-ad58259c5704","fields":{"slug":"/blog/2011-09-23-on-future/","type":"blog","timeToRead":{"words":1042,"minutes":7}},"frontmatter":{"title":"未来","publish_date":"2011-09-23T02:11:12.000+08:00"}}},{"node":{"id":"153c8c97-99cb-5065-902e-1af6f9f0baa8","fields":{"slug":"/blog/2011-09-08-20110908/","type":"blog","timeToRead":{"words":145,"minutes":1}},"frontmatter":{"title":"2011 年 09 月 08 日","publish_date":"2011-09-08T22:53:57.000+08:00"}}},{"node":{"id":"653311cc-df79-53f6-8a20-74fef12f973f","fields":{"slug":"/blog/2011-07-10-anime-list-2011-summer/","type":"blog","timeToRead":{"words":181,"minutes":1}},"frontmatter":{"title":"2011 年夏季追番列表","publish_date":"2011-07-10T15:33:09.000+08:00"}}},{"node":{"id":"e5f3ab68-eed4-5798-b266-a368352ad778","fields":{"slug":"/blog/2011-07-05-intership-comac-services/","type":"blog","timeToRead":{"words":1817,"minutes":11}},"frontmatter":{"title":"上海飞机客户服务公司实习小记","publish_date":"2011-07-05T22:41:37.000+08:00"}}}]}},"staticQueryHashes":["2356112386"],"slicesMap":{}}