{"componentChunkName":"component---src-templates-paginated-blog-index-tsx","path":"/blog/page/40/","result":{"pageContext":{"page":40,"total":753,"pages":76,"prev":39,"next":41,"limit":10,"items":[{"node":{"id":"02f36f46-bf1a-539e-969c-f5de37f985d2","fields":{"slug":"/blog/2007-06-22-settled/","type":"blog","timeToRead":{"words":310,"minutes":2}},"frontmatter":{"title":"尘埃落定","publish_date":"2007-06-22T11:51:08.000+08:00"}}},{"node":{"id":"bad8a528-e940-5887-8661-c56ac622d0af","fields":{"slug":"/blog/2007-06-17-be-brave/","type":"blog","timeToRead":{"words":223,"minutes":1}},"frontmatter":{"title":"我要勇敢","publish_date":"2007-06-17T14:39:29.000+08:00"}}},{"node":{"id":"4474af54-843d-5ce7-908e-d39c68f395b8","fields":{"slug":"/blog/2007-06-15-empty/","type":"blog","timeToRead":{"words":265,"minutes":2}},"frontmatter":{"title":"略带空虚","publish_date":"2007-06-15T17:18:51.000+08:00"}}},{"node":{"id":"e23b7083-c02b-5710-8d80-1f77e59f38d8","fields":{"slug":"/blog/2007-06-11-mermaid/","type":"blog","timeToRead":{"words":382,"minutes":2}},"frontmatter":{"title":"美人鱼","publish_date":"2007-06-11T20:53:01.000+08:00"}}},{"node":{"id":"5c9cf195-046c-5286-8f04-8437557e350a","fields":{"slug":"/blog/2007-06-10-collapse/","type":"blog","timeToRead":{"words":203,"minutes":1}},"frontmatter":{"title":"瓦解","publish_date":"2007-06-10T12:49:51.000+08:00"}}},{"node":{"id":"43131b09-c3c6-5b81-b220-471e2a4bae60","fields":{"slug":"/blog/2007-06-07-acacia/","type":"blog","timeToRead":{"words":1605,"minutes":10}},"frontmatter":{"title":"合欢树","publish_date":"2007-06-07T19:23:21.000+08:00"}}},{"node":{"id":"7fbaae79-3127-527d-8725-f1335f6330c6","fields":{"slug":"/blog/2007-06-07-quiet/","type":"blog","timeToRead":{"words":72,"minutes":0}},"frontmatter":{"title":"沉静","publish_date":"2007-06-07T19:18:38.000+08:00"}}},{"node":{"id":"203261dd-4bf2-540c-8f33-63355d4f8eab","fields":{"slug":"/blog/2007-06-06-exams/","type":"blog","timeToRead":{"words":65,"minutes":0}},"frontmatter":{"title":"考试去","publish_date":"2007-06-06T16:15:24.000+08:00"}}},{"node":{"id":"78ff2f77-186a-584c-a82b-736a9caaf6d0","fields":{"slug":"/blog/2007-06-05-go-walking/","type":"blog","timeToRead":{"words":186,"minutes":1}},"frontmatter":{"title":"走走走","publish_date":"2007-06-05T17:55:52.000+08:00"}}},{"node":{"id":"67b7d208-bc9d-5840-9961-76b2276b2557","fields":{"slug":"/blog/2007-06-03-sleepless/","type":"blog","timeToRead":{"words":185,"minutes":1}},"frontmatter":{"title":"失眠","publish_date":"2007-06-03T11:05:37.000+08:00"}}}]}},"staticQueryHashes":["2356112386"],"slicesMap":{}}