{"componentChunkName":"component---src-templates-paginated-blog-index-tsx","path":"/blog/page/22/","result":{"pageContext":{"page":22,"total":753,"pages":76,"prev":21,"next":23,"limit":10,"items":[{"node":{"id":"3c61f49d-2aaf-552e-b869-ce0cdabf5cf8","fields":{"slug":"/blog/2010-05-10-crazy-fan/","type":"blog","timeToRead":{"words":557,"minutes":3}},"frontmatter":{"title":"风扇狂转","publish_date":"2010-05-10T01:28:56.000+08:00"}}},{"node":{"id":"b22d5e58-630a-5865-a1c9-a8693223f646","fields":{"slug":"/blog/2010-04-30-anime-first-impression-2010-spring/","type":"blog","timeToRead":{"words":2113,"minutes":13}},"frontmatter":{"title":"四月新番の吐槽集","publish_date":"2010-04-30T22:22:52.000+08:00"}}},{"node":{"id":"b4917baf-aa50-5dfe-a6f1-f7cfc6d58ecc","fields":{"slug":"/blog/2010-04-26-alive-and-dead/","type":"blog","timeToRead":{"words":713,"minutes":4}},"frontmatter":{"title":"活着与死去","publish_date":"2010-04-26T00:58:51.000+08:00"}}},{"node":{"id":"9c37842d-2c3b-512c-86bd-363fb18102cf","fields":{"slug":"/blog/2010-04-19-fengru-cup-thoughts/","type":"blog","timeToRead":{"words":785,"minutes":5}},"frontmatter":{"title":"冯如杯杂感","publish_date":"2010-04-19T01:05:40.000+08:00"}}},{"node":{"id":"e0bce3c7-ecaf-58d6-acc5-c23c72282ce8","fields":{"slug":"/blog/2010-04-17-working-around/","type":"blog","timeToRead":{"words":266,"minutes":2}},"frontmatter":{"title":"奔奔走走","publish_date":"2010-04-17T01:21:35.000+08:00"}}},{"node":{"id":"d929b23e-05dd-595f-890d-19bf3ca2a060","fields":{"slug":"/blog/2010-04-13-brave-song/","type":"blog","timeToRead":{"words":81,"minutes":1}},"frontmatter":{"title":"Brave Song (TVSize)","publish_date":"2010-04-13T12:58:04.000+08:00"}}},{"node":{"id":"c777a518-bffa-5827-8c06-8ceef82d9ade","fields":{"slug":"/blog/2010-04-09-i-am-ok-thanks/","type":"blog","timeToRead":{"words":383,"minutes":2}},"frontmatter":{"title":"I'm OK，谢谢","publish_date":"2010-04-09T00:41:14.000+08:00"}}},{"node":{"id":"4b3883dd-39da-5cc4-8168-1f0ea182cc31","fields":{"slug":"/blog/2010-03-29-20100328/","type":"blog","timeToRead":{"words":511,"minutes":3}},"frontmatter":{"title":"20100328","publish_date":"2010-03-29T00:20:54.000+08:00"}}},{"node":{"id":"d851382a-e528-5b01-a091-cb3bc5495e5a","fields":{"slug":"/blog/2010-03-26-burst-in-silence/","type":"blog","timeToRead":{"words":263,"minutes":2}},"frontmatter":{"title":"静寂暴走","publish_date":"2010-03-26T01:19:02.000+08:00"}}},{"node":{"id":"11751d1e-546c-548e-915d-f708d72b8794","fields":{"slug":"/blog/2010-03-23-beautiful-new-world/","type":"blog","timeToRead":{"words":311,"minutes":2}},"frontmatter":{"title":"光陆怪离","publish_date":"2010-03-23T12:47:36.000+08:00"}}}]}},"staticQueryHashes":["2356112386"],"slicesMap":{}}