{"componentChunkName":"component---src-templates-paginated-blog-index-tsx","path":"/blog/page/37/","result":{"pageContext":{"page":37,"total":753,"pages":76,"prev":36,"next":38,"limit":10,"items":[{"node":{"id":"3a8c034e-1a30-57ec-841c-70927a4be9ca","fields":{"slug":"/blog/2007-09-02-wait-silently/","type":"blog","timeToRead":{"words":259,"minutes":2}},"frontmatter":{"title":"默默守候","publish_date":"2007-09-02T16:56:37.000+08:00"}}},{"node":{"id":"9a3f0b03-c87d-5999-9841-5ecc17323f78","fields":{"slug":"/blog/2007-09-01-qixing/","type":"blog","timeToRead":{"words":465,"minutes":3}},"frontmatter":{"title":"故乡七星","publish_date":"2007-09-01T08:53:31.000+08:00"}}},{"node":{"id":"0a7ab341-0e79-5add-bf20-5da09a090345","fields":{"slug":"/blog/2007-08-30-yu-dong/","type":"blog","timeToRead":{"words":278,"minutes":2}},"frontmatter":{"title":"郁冬","publish_date":"2007-08-30T14:55:52.000+08:00"}}},{"node":{"id":"d0af3d5b-3c06-5109-bb7a-1738f2be5a37","fields":{"slug":"/blog/2007-08-29-why/","type":"blog","timeToRead":{"words":288,"minutes":2}},"frontmatter":{"title":"为什么","publish_date":"2007-08-29T18:12:46.000+08:00"}}},{"node":{"id":"f88fe12f-b0b7-5518-a508-1336e6905659","fields":{"slug":"/blog/2007-08-21-a-better-phone/","type":"blog","timeToRead":{"words":269,"minutes":2}},"frontmatter":{"title":"居然有更具性价比的……","publish_date":"2007-08-21T22:39:25.000+08:00"}}},{"node":{"id":"b6fd20f7-b9a1-5589-878a-a45d6a6f5454","fields":{"slug":"/blog/2007-08-19-approaching/","type":"blog","timeToRead":{"words":275,"minutes":2}},"frontmatter":{"title":"临近","publish_date":"2007-08-19T12:01:58.000+08:00"}}},{"node":{"id":"cc6dfec8-f4dc-52bd-9ee2-aa99ce39dbc8","fields":{"slug":"/blog/2007-08-18-dinner/","type":"blog","timeToRead":{"words":272,"minutes":2}},"frontmatter":{"title":"家宴","publish_date":"2007-08-18T23:40:41.000+08:00"}}},{"node":{"id":"292731cb-f686-504a-9f68-43a8206586ff","fields":{"slug":"/blog/2007-08-18-cactus-flower/","type":"blog","timeToRead":{"words":34,"minutes":0}},"frontmatter":{"title":"仙人球的花","publish_date":"2007-08-18T10:05:46.000+08:00"}}},{"node":{"id":"876847fe-8772-5b69-b69e-6ccb2faa266e","fields":{"slug":"/blog/2007-08-15-estrange/","type":"blog","timeToRead":{"words":236,"minutes":1}},"frontmatter":{"title":"隔膜","publish_date":"2007-08-15T10:40:57.000+08:00"}}},{"node":{"id":"440cdde3-8f2f-5de8-9b33-bc5b7e92e2e1","fields":{"slug":"/blog/2007-08-11-departure/","type":"blog","timeToRead":{"words":304,"minutes":2}},"frontmatter":{"title":"离别","publish_date":"2007-08-11T22:30:09.000+08:00"}}}]}},"staticQueryHashes":["2356112386"],"slicesMap":{}}