{"componentChunkName":"component---src-templates-paginated-blog-index-tsx","path":"/blog/page/50/","result":{"pageContext":{"page":50,"total":753,"pages":76,"prev":49,"next":51,"limit":10,"items":[{"node":{"id":"7880c701-1889-54c9-b380-cfbf4dad1b85","fields":{"slug":"/blog/2006-10-29-before-the-future-comes/","type":"blog","timeToRead":{"words":250,"minutes":2}},"frontmatter":{"title":"未来来之前","publish_date":"2006-10-29T13:10:01.000+08:00"}}},{"node":{"id":"64bdde5b-781c-54c3-bea5-0cfe095d81a4","fields":{"slug":"/blog/2006-10-28-cruelty/","type":"blog","timeToRead":{"words":465,"minutes":3}},"frontmatter":{"title":"残酷","publish_date":"2006-10-28T19:43:05.000+08:00"}}},{"node":{"id":"ac5a615a-a4a7-574d-a5fb-553415a7d7b7","fields":{"slug":"/blog/2006-10-22-follow-mama-words/","type":"blog","timeToRead":{"words":132,"minutes":1}},"frontmatter":{"title":"听妈妈的话","publish_date":"2006-10-22T18:20:05.000+08:00"}}},{"node":{"id":"79bdcd16-536a-5650-ac6f-6371a64ecfb2","fields":{"slug":"/blog/2006-10-22-feeling-bad/","type":"blog","timeToRead":{"words":128,"minutes":1}},"frontmatter":{"title":"很难受","publish_date":"2006-10-22T13:30:38.000+08:00"}}},{"node":{"id":"6f72dadf-e656-5c2b-af8e-2dd1bce64b9b","fields":{"slug":"/blog/2006-10-20-feeling-down/","type":"blog","timeToRead":{"words":261,"minutes":2}},"frontmatter":{"title":"feeling down","publish_date":"2006-10-20T22:21:55.000+08:00"}}},{"node":{"id":"7f0d825b-592d-59df-b12e-1b386c5d306d","fields":{"slug":"/blog/2006-10-15-no-time/","type":"blog","timeToRead":{"words":204,"minutes":1}},"frontmatter":{"title":"时间在哪里","publish_date":"2006-10-15T18:06:09.000+08:00"}}},{"node":{"id":"581256f4-05b5-5fc7-a7fd-fe8a3f07d6de","fields":{"slug":"/blog/2006-10-14-working-hard/","type":"blog","timeToRead":{"words":225,"minutes":1}},"frontmatter":{"title":"继续努力","publish_date":"2006-10-14T18:51:31.000+08:00"}}},{"node":{"id":"59b53908-ad0e-5eb6-832e-62fd060328b4","fields":{"slug":"/blog/2006-10-09-monthly-exam-oct-2/","type":"blog","timeToRead":{"words":244,"minutes":2}},"frontmatter":{"title":"10 月月考下","publish_date":"2006-10-09T17:42:09.000+08:00"}}},{"node":{"id":"7943fe3d-9460-5d55-8534-c9d74e54394f","fields":{"slug":"/blog/2006-10-08-monthly-exam-oct/","type":"blog","timeToRead":{"words":386,"minutes":2}},"frontmatter":{"title":"10 月月考上","publish_date":"2006-10-08T17:58:10.000+08:00"}}},{"node":{"id":"9b1fb301-7d0d-5e71-998c-b192e830c072","fields":{"slug":"/blog/2006-10-07-li-jian/","type":"blog","timeToRead":{"words":224,"minutes":1}},"frontmatter":{"title":"李健","publish_date":"2006-10-07T12:49:45.000+08:00"}}}]}},"staticQueryHashes":["2356112386"],"slicesMap":{}}