{"componentChunkName":"component---src-templates-paginated-blog-index-tsx","path":"/blog/page/61/","result":{"pageContext":{"page":61,"total":753,"pages":76,"prev":60,"next":62,"limit":10,"items":[{"node":{"id":"427cb2d9-5595-5492-86fb-5a09567c5c2b","fields":{"slug":"/blog/2006-01-22-finally/","type":"blog","timeToRead":{"words":285,"minutes":2}},"frontmatter":{"title":"终于知道了","publish_date":"2006-01-22T16:35:05.000+08:00"}}},{"node":{"id":"c0603683-5e69-541a-b34d-af2b1ae91765","fields":{"slug":"/blog/2006-01-21-rest/","type":"blog","timeToRead":{"words":51,"minutes":0}},"frontmatter":{"title":"休养……","publish_date":"2006-01-21T19:04:30.000+08:00"}}},{"node":{"id":"5b256eb5-cdb9-52c5-9a5f-5d6b888dee46","fields":{"slug":"/blog/2006-01-20-Over/","type":"blog","timeToRead":{"words":170,"minutes":1}},"frontmatter":{"title":"Over...","publish_date":"2006-01-20T17:56:40.000+08:00"}}},{"node":{"id":"4c129a0f-9d3b-5c61-8d03-582377e8b883","fields":{"slug":"/blog/2006-01-19-maxthon-over-firefox/","type":"blog","timeToRead":{"words":79,"minutes":0}},"frontmatter":{"title":"Maxthon，而不是 Firefox","publish_date":"2006-01-19T16:51:24.000+08:00"}}},{"node":{"id":"efbb12e0-aeb1-5881-a694-dcecd62d70d8","fields":{"slug":"/blog/2006-01-19-Over-and-begin/","type":"blog","timeToRead":{"words":353,"minutes":2}},"frontmatter":{"title":"Over,and begin.","publish_date":"2006-01-19T16:46:44.000+08:00"}}},{"node":{"id":"bd8a7a33-416f-5b0a-a0bb-fcf83d1e6938","fields":{"slug":"/blog/2006-01-16-final-exam-first-day/","type":"blog","timeToRead":{"words":213,"minutes":1}},"frontmatter":{"title":"期末考试，第一天","publish_date":"2006-01-16T21:44:55.000+08:00"}}},{"node":{"id":"32e04b61-5070-5fa6-aa5f-51a454d45238","fields":{"slug":"/blog/2006-01-06-belief/","type":"blog","timeToRead":{"words":240,"minutes":2}},"frontmatter":{"title":"相信中……","publish_date":"2006-01-06T22:48:52.000+08:00"}}},{"node":{"id":"379eacb4-f346-5816-9b5d-0acc01809d5f","fields":{"slug":"/blog/2006-01-01-memories/","type":"blog","timeToRead":{"words":86,"minutes":1}},"frontmatter":{"title":"回忆","publish_date":"2006-01-01T15:23:36.000+08:00"}}},{"node":{"id":"93986fd2-33ad-5091-a9b0-974949008080","fields":{"slug":"/blog/2006-01-01-daikoukai/","type":"blog","timeToRead":{"words":21,"minutes":0}},"frontmatter":{"title":"大航海……","publish_date":"2006-01-01T15:22:23.000+08:00"}}},{"node":{"id":"77693226-4927-5dba-9ef2-98496158943f","fields":{"slug":"/blog/2005-12-29-wishes/","type":"blog","timeToRead":{"words":133,"minutes":1}},"frontmatter":{"title":"我唱了歌，歌给我在美好期待中……","publish_date":"2005-12-29T22:16:03.000+08:00"}}}]}},"staticQueryHashes":["2356112386"],"slicesMap":{}}