{"componentChunkName":"component---src-templates-paginated-blog-index-tsx","path":"/blog/page/67/","result":{"pageContext":{"page":67,"total":753,"pages":76,"prev":66,"next":68,"limit":10,"items":[{"node":{"id":"24172547-14bc-5763-9ea6-74e8bd0656c2","fields":{"slug":"/blog/2005-07-30-typhoon-in-beihai/","type":"blog","timeToRead":{"words":155,"minutes":1}},"frontmatter":{"title":"今天台风，我去北海","publish_date":"2005-07-30T21:56:59.000+08:00"}}},{"node":{"id":"71a190ba-1124-50c8-8951-e5b6960f4468","fields":{"slug":"/blog/2005-07-30-recalling/","type":"blog","timeToRead":{"words":56,"minutes":0}},"frontmatter":{"title":"想起","publish_date":"2005-07-30T21:50:09.000+08:00"}}},{"node":{"id":"a35822d9-33a9-5879-8ebc-55ad423a3d74","fields":{"slug":"/blog/2005-07-26-moonlight/","type":"blog","timeToRead":{"words":116,"minutes":1}},"frontmatter":{"title":"月光……","publish_date":"2005-07-26T12:21:50.000+08:00"}}},{"node":{"id":"76b36497-04ab-58f7-85b6-ed45c0510299","fields":{"slug":"/blog/2005-07-25-first-cover-song/","type":"blog","timeToRead":{"words":107,"minutes":1}},"frontmatter":{"title":"初唱","publish_date":"2005-07-25T18:08:27.000+08:00"}}},{"node":{"id":"a458bafc-03f2-5f74-ac37-439f9ff05f3a","fields":{"slug":"/blog/2005-07-23-untitled/","type":"blog","timeToRead":{"words":50,"minutes":0}},"frontmatter":{"title":"来了","publish_date":"2005-07-23T10:38:57.000+08:00"}}},{"node":{"id":"9f019c9a-bcd3-544e-abe3-b614438ff2bf","fields":{"slug":"/blog/2005-07-12-her-face/","type":"blog","timeToRead":{"words":192,"minutes":1}},"frontmatter":{"title":"她的样子","publish_date":"2005-07-12T11:57:03.000+08:00"}}},{"node":{"id":"bc4a1201-e6db-5535-b7ac-be94f9009b7a","fields":{"slug":"/blog/2005-07-09-the-beloved/","type":"blog","timeToRead":{"words":184,"minutes":1}},"frontmatter":{"title":"喜欢的人","publish_date":"2005-07-09T20:27:39.000+08:00"}}},{"node":{"id":"58acaf51-6424-50dd-9430-cba819634336","fields":{"slug":"/blog/2005-07-07-sunny/","type":"blog","timeToRead":{"words":79,"minutes":0}},"frontmatter":{"title":"七月七日，晴","publish_date":"2005-07-07T12:22:22.000+08:00"}}},{"node":{"id":"37331318-e56b-5824-bf31-5f6b80d049ca","fields":{"slug":"/blog/2005-07-05-birthday/","type":"blog","timeToRead":{"words":176,"minutes":1}},"frontmatter":{"title":"今天我生日……","publish_date":"2005-07-05T18:49:53.000+08:00"}}},{"node":{"id":"d9742ffe-2b55-5930-8c2c-dcd937033905","fields":{"slug":"/blog/2005-07-04-heroes-of-might-and-magic/","type":"blog","timeToRead":{"words":158,"minutes":1}},"frontmatter":{"title":"英雄无敌","publish_date":"2005-07-04T20:01:48.000+08:00"}}}]}},"staticQueryHashes":["2356112386"],"slicesMap":{}}