{"componentChunkName":"component---src-templates-paginated-blog-index-tsx","path":"/blog/page/39/","result":{"pageContext":{"page":39,"total":753,"pages":76,"prev":38,"next":40,"limit":10,"items":[{"node":{"id":"f4490f83-869d-5fdd-9da2-87300a3394ad","fields":{"slug":"/blog/2007-07-09-waiting-for-the-phone/","type":"blog","timeToRead":{"words":140,"minutes":1}},"frontmatter":{"title":"等电话？","publish_date":"2007-07-09T18:16:13.000+08:00"}}},{"node":{"id":"4c14931e-45ed-57ed-a5b4-de6b382c1226","fields":{"slug":"/blog/2007-07-09-counter-strike/","type":"blog","timeToRead":{"words":151,"minutes":1}},"frontmatter":{"title":"CS","publish_date":"2007-07-09T18:11:20.000+08:00"}}},{"node":{"id":"cde2c089-d1e1-58b9-9e33-6d3cb312b121","fields":{"slug":"/blog/2007-07-07-couple-cup/","type":"blog","timeToRead":{"words":383,"minutes":2}},"frontmatter":{"title":"情侣杯","publish_date":"2007-07-07T11:40:35.000+08:00"}}},{"node":{"id":"ea3c9064-f39f-5cd0-8c62-e97d3e246d4d","fields":{"slug":"/blog/2007-07-05-rain-season-no-longer-returns/","type":"blog","timeToRead":{"words":354,"minutes":2}},"frontmatter":{"title":"雨季不再来","publish_date":"2007-07-05T09:28:13.000+08:00"}}},{"node":{"id":"6fa19a15-3b1a-553e-9316-d495cad40471","fields":{"slug":"/blog/2007-07-03-no-returns/","type":"blog","timeToRead":{"words":241,"minutes":2}},"frontmatter":{"title":"回不去","publish_date":"2007-07-03T21:58:13.000+08:00"}}},{"node":{"id":"0609d9cc-68ef-5a43-bb5a-075bcfb06db4","fields":{"slug":"/blog/2007-07-01-listless/","type":"blog","timeToRead":{"words":149,"minutes":1}},"frontmatter":{"title":"无聊","publish_date":"2007-07-01T20:22:28.000+08:00"}}},{"node":{"id":"bba84cd8-e3c9-52cf-aca9-d5f028a60589","fields":{"slug":"/blog/2007-06-28-period/","type":"blog","timeToRead":{"words":344,"minutes":2}},"frontmatter":{"title":"句点","publish_date":"2007-06-28T20:24:27.000+08:00"}}},{"node":{"id":"6c7647b7-b8f4-58f0-b56f-166375e84506","fields":{"slug":"/blog/2007-06-26-choice/","type":"blog","timeToRead":{"words":30,"minutes":0}},"frontmatter":{"title":"艰难抉择","publish_date":"2007-06-26T22:51:14.000+08:00"}}},{"node":{"id":"89bb9379-12e5-5386-b24c-adf179bd9814","fields":{"slug":"/blog/2007-06-24-consultation/","type":"blog","timeToRead":{"words":292,"minutes":2}},"frontmatter":{"title":"咨询会","publish_date":"2007-06-24T21:43:53.000+08:00"}}},{"node":{"id":"a7271d3b-2442-5db2-97f6-09e953847378","fields":{"slug":"/blog/2007-06-23-another-run-of-exam/","type":"blog","timeToRead":{"words":264,"minutes":2}},"frontmatter":{"title":"另一轮高考","publish_date":"2007-06-23T20:19:17.000+08:00"}}}]}},"staticQueryHashes":["2356112386"],"slicesMap":{}}