{"componentChunkName":"component---src-templates-paginated-blog-index-tsx","path":"/blog/page/25/","result":{"pageContext":{"page":25,"total":753,"pages":76,"prev":24,"next":26,"limit":10,"items":[{"node":{"id":"6063a46a-bfc1-5245-84ee-64f65443de0b","fields":{"slug":"/blog/2009-12-27-identity/","type":"blog","timeToRead":{"words":844,"minutes":5}},"frontmatter":{"title":"自我","publish_date":"2009-12-27T02:46:08.000+08:00"}}},{"node":{"id":"518c08f6-9139-5640-97b0-19742954d6d1","fields":{"slug":"/blog/2009-12-27-pressure/","type":"blog","timeToRead":{"words":611,"minutes":4}},"frontmatter":{"title":"鸭梨很大……","publish_date":"2009-12-27T01:54:30.000+08:00"}}},{"node":{"id":"2707957c-028c-565e-9f15-4e93ce7ee2d7","fields":{"slug":"/blog/2009-12-22-arrive-de-l-hiver/","type":"blog","timeToRead":{"words":581,"minutes":4}},"frontmatter":{"title":"L'arrivé de l'hiver","publish_date":"2009-12-22T17:43:14.000+08:00"}}},{"node":{"id":"4d2a10f3-8b37-5d45-8f0b-4d3f154db697","fields":{"slug":"/blog/2009-12-14-tv-series/","type":"blog","timeToRead":{"words":683,"minutes":4}},"frontmatter":{"title":"电视剧","publish_date":"2009-12-14T01:14:08.000+08:00"}}},{"node":{"id":"6a45e5ee-8ad8-5441-abfb-0588e5a34bf3","fields":{"slug":"/blog/2009-12-06-on-the-run/","type":"blog","timeToRead":{"words":583,"minutes":4}},"frontmatter":{"title":"On the run","publish_date":"2009-12-06T21:00:49.000+08:00"}}},{"node":{"id":"c8acc134-9ac0-583f-8d16-0b860ee57ae3","fields":{"slug":"/blog/2009-11-28-kokoro/","type":"blog","timeToRead":{"words":572,"minutes":4}},"frontmatter":{"title":"心","publish_date":"2009-11-28T23:49:39.000+08:00"}}},{"node":{"id":"0ce7e47a-143f-5040-945c-87d38578c976","fields":{"slug":"/blog/2009-11-21-autumn/","type":"blog","timeToRead":{"words":776,"minutes":5}},"frontmatter":{"title":"秋","publish_date":"2009-11-21T03:35:24.000+08:00"}}},{"node":{"id":"04f4fcb7-1918-5916-a223-1d4468ff4a7b","fields":{"slug":"/blog/2009-11-19-something-that-one-one-has-ever-seen/","type":"blog","timeToRead":{"words":108,"minutes":1}},"frontmatter":{"title":"任何人都没有见过的东西","publish_date":"2009-11-19T01:13:23.000+08:00"}}},{"node":{"id":"8c69caf7-e786-5a37-b9b7-54cdef3349cd","fields":{"slug":"/blog/2009-11-08-mirror/","type":"blog","timeToRead":{"words":449,"minutes":3}},"frontmatter":{"title":"对镜","publish_date":"2009-11-08T23:25:05.000+08:00"}}},{"node":{"id":"90ecd9d9-912e-5129-8257-ba7328567a7f","fields":{"slug":"/blog/2009-11-07-decision/","type":"blog","timeToRead":{"words":672,"minutes":4}},"frontmatter":{"title":"选择","publish_date":"2009-11-07T15:56:00.000+08:00"}}}]}},"staticQueryHashes":["2356112386"],"slicesMap":{}}