{"componentChunkName":"component---src-templates-paginated-blog-index-tsx","path":"/blog/page/19/","result":{"pageContext":{"page":19,"total":753,"pages":76,"prev":18,"next":20,"limit":10,"items":[{"node":{"id":"4f2647f2-02b5-5ff4-919e-4c9684ddc765","fields":{"slug":"/blog/2010-09-02-kanishino-review/","type":"blog","timeToRead":{"words":638,"minutes":4}},"frontmatter":{"title":"《遥仰凰华/遥かに仰ぎ、丽しの》评述","publish_date":"2010-09-02T16:16:23.000+08:00"}}},{"node":{"id":"e55088c9-ab42-5f57-b336-d03506ce7151","fields":{"slug":"/blog/2010-09-02-love-me-as-i-am/","type":"blog","timeToRead":{"words":443,"minutes":3}},"frontmatter":{"title":"Love me as I am","publish_date":"2010-09-02T15:55:43.000+08:00"}}},{"node":{"id":"a135941b-53b8-5290-ad8b-cc698e174f01","fields":{"slug":"/blog/2010-09-01-conscience-of-chinese-literary/","type":"blog","timeToRead":{"words":575,"minutes":4}},"frontmatter":{"title":"中国文坛的良心","publish_date":"2010-09-01T01:36:46.000+08:00"}}},{"node":{"id":"0476f64b-8ac6-50f1-9b72-a03b3c719fb8","fields":{"slug":"/blog/2010-08-31-what-level/","type":"blog","timeToRead":{"words":570,"minutes":4}},"frontmatter":{"title":"怎样的水瓶","publish_date":"2010-08-31T00:22:06.000+08:00"}}},{"node":{"id":"04173b0b-5737-5ddd-825a-b73857cda8d6","fields":{"slug":"/blog/2010-08-29-midnight-poems-fall/","type":"blog","timeToRead":{"words":259,"minutes":2}},"frontmatter":{"title":"子夜四时歌·秋歌","publish_date":"2010-08-29T23:52:58.000+08:00"}}},{"node":{"id":"8a6faeef-16cf-595d-a2f9-20fd2a241e31","fields":{"slug":"/blog/2010-08-29-xvid_sequelae/","type":"blog","timeToRead":{"words":241,"minutes":2}},"frontmatter":{"title":"Xvid 后遗症","publish_date":"2010-08-29T14:42:33.000+08:00"}}},{"node":{"id":"0bd9a6bf-08f9-56b7-ab5e-8a876a94de49","fields":{"slug":"/blog/2010-08-27-from-alpha-to-beta/","type":"blog","timeToRead":{"words":282,"minutes":2}},"frontmatter":{"title":"1Alpha→1Beta","publish_date":"2010-08-27T02:43:47.000+08:00"}}},{"node":{"id":"274043d6-bee5-5c46-8eb6-49d90268ea0d","fields":{"slug":"/blog/2010-08-27-xvid-encoder-note/","type":"blog","timeToRead":{"words":478,"minutes":3}},"frontmatter":{"title":"Xvid Encoder 试用小记","publish_date":"2010-08-27T01:23:23.000+08:00"}}},{"node":{"id":"31dbe58e-8094-5d74-9e99-21787008762c","fields":{"slug":"/blog/2010-08-26-vobutils/","type":"blog","timeToRead":{"words":308,"minutes":2}},"frontmatter":{"title":"分割 VOB 文件的小工具：VOBUtils","publish_date":"2010-08-26T20:21:50.000+08:00"}}},{"node":{"id":"9833ec58-8cf6-577a-b112-32b24f4c63ce","fields":{"slug":"/blog/2010-08-26-moyashimon-review/","type":"blog","timeToRead":{"words":215,"minutes":1}},"frontmatter":{"title":"《もやしもん》简评","publish_date":"2010-08-26T13:42:16.000+08:00"}}}]}},"staticQueryHashes":["2356112386"],"slicesMap":{}}