{"componentChunkName":"component---src-templates-paginated-blog-index-tsx","path":"/blog/page/41/","result":{"pageContext":{"page":41,"total":753,"pages":76,"prev":40,"next":42,"limit":10,"items":[{"node":{"id":"230205d4-afde-500a-82b6-8c55beab0df5","fields":{"slug":"/blog/2007-06-02-childrens-day/","type":"blog","timeToRead":{"words":179,"minutes":1}},"frontmatter":{"title":"儿童节","publish_date":"2007-06-02T22:53:22.000+08:00"}}},{"node":{"id":"060d176b-831a-569a-9d41-702babf8dc2d","fields":{"slug":"/blog/2007-05-27-graduation/","type":"blog","timeToRead":{"words":221,"minutes":1}},"frontmatter":{"title":"毕业","publish_date":"2007-05-27T16:48:46.000+08:00"}}},{"node":{"id":"cc5f2084-9daa-5f6a-853b-fa6a9f463ee3","fields":{"slug":"/blog/2007-05-26-self-study/","type":"blog","timeToRead":{"words":70,"minutes":0}},"frontmatter":{"title":"自习","publish_date":"2007-05-26T21:00:33.000+08:00"}}},{"node":{"id":"2c973307-a963-5ab9-87d8-4a37db32cb99","fields":{"slug":"/blog/2007-05-25-confused/","type":"blog","timeToRead":{"words":162,"minutes":1}},"frontmatter":{"title":"迷糊不振","publish_date":"2007-05-25T17:44:57.000+08:00"}}},{"node":{"id":"1c4f13bd-4a5e-5585-9147-064c8d64277f","fields":{"slug":"/blog/2007-05-20-result/","type":"blog","timeToRead":{"words":192,"minutes":1}},"frontmatter":{"title":"丧志？","publish_date":"2007-05-20T16:28:47.000+08:00"}}},{"node":{"id":"37fd22d8-bf76-5997-9826-a7f0d5e8bcf3","fields":{"slug":"/blog/2007-05-20-dark-days/","type":"blog","timeToRead":{"words":284,"minutes":2}},"frontmatter":{"title":"黑暗时代","publish_date":"2007-05-20T16:08:41.000+08:00"}}},{"node":{"id":"29a17d66-cab2-5265-a76e-d4e004cf5739","fields":{"slug":"/blog/2007-05-19-4th-simulation-2/","type":"blog","timeToRead":{"words":195,"minutes":1}},"frontmatter":{"title":"四模手记之二","publish_date":"2007-05-19T18:30:39.000+08:00"}}},{"node":{"id":"eeae8f78-1a87-5a61-b278-9aa3996f503c","fields":{"slug":"/blog/2007-05-17-4th-simulation/","type":"blog","timeToRead":{"words":181,"minutes":1}},"frontmatter":{"title":"四模手记之一","publish_date":"2007-05-17T18:05:05.000+08:00"}}},{"node":{"id":"dfff4386-fc84-5d7e-a426-ae809be6e59c","fields":{"slug":"/blog/2007-05-13-missing-you/","type":"blog","timeToRead":{"words":231,"minutes":1}},"frontmatter":{"title":"《想念你》","publish_date":"2007-05-13T17:26:06.000+08:00"}}},{"node":{"id":"1f197af7-5710-5fbd-8c55-4b5dbf9ab6bd","fields":{"slug":"/blog/2007-05-12-fleeting-time/","type":"blog","timeToRead":{"words":348,"minutes":2}},"frontmatter":{"title":"流年","publish_date":"2007-05-12T20:10:08.000+08:00"}}}]}},"staticQueryHashes":["2356112386"],"slicesMap":{}}