{"componentChunkName":"component---src-templates-paginated-blog-index-tsx","path":"/blog/page/64/","result":{"pageContext":{"page":64,"total":753,"pages":76,"prev":63,"next":65,"limit":10,"items":[{"node":{"id":"031194a7-0097-51bd-b593-54531f4cc404","fields":{"slug":"/blog/2005-11-04-mid-term-tests/","type":"blog","timeToRead":{"words":166,"minutes":1}},"frontmatter":{"title":"段考要来了","publish_date":"2005-11-04T22:56:49.000+08:00"}}},{"node":{"id":"ed876419-ef84-5fa7-a5ac-e956f0f3ba59","fields":{"slug":"/blog/2005-10-21-ironic/","type":"blog","timeToRead":{"words":200,"minutes":1}},"frontmatter":{"title":"有点讽刺","publish_date":"2005-10-21T22:29:57.000+08:00"}}},{"node":{"id":"cff71dfb-f0d3-5a68-a8b2-d0ae2983c2a2","fields":{"slug":"/blog/2005-10-16-change-myself/","type":"blog","timeToRead":{"words":154,"minutes":1}},"frontmatter":{"title":"改变自己","publish_date":"2005-10-16T17:46:51.000+08:00"}}},{"node":{"id":"c7e79e02-b6d9-552e-a551-5e4ba2669e2e","fields":{"slug":"/blog/2005-10-06-no-feeling/","type":"blog","timeToRead":{"words":82,"minutes":1}},"frontmatter":{"title":"没感觉","publish_date":"2005-10-06T19:15:51.000+08:00"}}},{"node":{"id":"be0e642b-196c-510d-8743-9c102505cd5e","fields":{"slug":"/blog/2005-10-05-restart/","type":"blog","timeToRead":{"words":323,"minutes":2}},"frontmatter":{"title":"重新……启程","publish_date":"2005-10-05T21:50:56.000+08:00"}}},{"node":{"id":"9c38a153-e563-5775-be2a-47cf0ca7b650","fields":{"slug":"/blog/2005-10-01-happy-birthday-my-homeland/","type":"blog","timeToRead":{"words":101,"minutes":1}},"frontmatter":{"title":"祖国生日快乐！","publish_date":"2005-10-01T18:21:54.000+08:00"}}},{"node":{"id":"cab53c17-0639-5e95-8625-90532570f4f4","fields":{"slug":"/blog/2005-09-25-find-her-in-the-crowd/","type":"blog","timeToRead":{"words":99,"minutes":1}},"frontmatter":{"title":"众里寻她","publish_date":"2005-09-25T17:31:48.000+08:00"}}},{"node":{"id":"e945fcf0-3360-5452-8c57-4acd8fdced0c","fields":{"slug":"/blog/2005-09-22-where-lights-are-less-bright/","type":"blog","timeToRead":{"words":175,"minutes":1}},"frontmatter":{"title":"灯火阑珊处","publish_date":"2005-09-22T22:36:46.000+08:00"}}},{"node":{"id":"47bc84c2-edca-571b-98a9-e8e36ce40a99","fields":{"slug":"/blog/2005-09-21-gotcha/","type":"blog","timeToRead":{"words":281,"minutes":2}},"frontmatter":{"title":"砸中了……","publish_date":"2005-09-21T21:58:28.000+08:00"}}},{"node":{"id":"5b9c090d-ea08-57eb-a635-fcd7c67bbe74","fields":{"slug":"/blog/2005-09-18-anxiety/","type":"blog","timeToRead":{"words":41,"minutes":0}},"frontmatter":{"title":"郁闷","publish_date":"2005-09-18T17:52:02.000+08:00"}}}]}},"staticQueryHashes":["2356112386"],"slicesMap":{}}