{"componentChunkName":"component---src-templates-paginated-blog-index-tsx","path":"/blog/page/7/","result":{"pageContext":{"page":7,"total":753,"pages":76,"prev":6,"next":8,"limit":10,"items":[{"node":{"id":"15f95911-e74b-52ad-a107-0c2ef8cd81de","fields":{"slug":"/blog/2013-01-01-anime-reviews-2012-fall/","type":"blog","timeToRead":{"words":1498,"minutes":9}},"frontmatter":{"title":"2012 年秋番简评","publish_date":"2013-01-01T01:17:15.000+08:00"}}},{"node":{"id":"97f81223-1856-58be-beb8-cb8deb3db76e","fields":{"slug":"/blog/2012-11-18-anime-reviews-2012-summer/","type":"blog","timeToRead":{"words":1199,"minutes":7}},"frontmatter":{"title":"2012 年夏番简评","publish_date":"2012-11-18T16:00:09.000+08:00"}}},{"node":{"id":"c3110d4f-adb8-5484-9da1-aff3af7c9567","fields":{"slug":"/blog/2012-11-12-20121112/","type":"blog","timeToRead":{"words":366,"minutes":2}},"frontmatter":{"title":"2012 年 11 月 12 日","publish_date":"2012-11-12T02:12:00.000+08:00"}}},{"node":{"id":"67624791-2d37-5fb9-af81-76fe7e81b638","fields":{"slug":"/blog/2012-09-21-left-maoist/","type":"blog","timeToRead":{"words":760,"minutes":5}},"frontmatter":{"title":"毛主席何辜","publish_date":"2012-09-21T20:39:27.000+08:00"}}},{"node":{"id":"b8468bf9-b898-50e8-8294-16b67b82672c","fields":{"slug":"/blog/2012-09-12-20120912/","type":"blog","timeToRead":{"words":658,"minutes":4}},"frontmatter":{"title":"2012 年 09 月 12 日","publish_date":"2012-09-12T23:22:14.000+08:00"}}},{"node":{"id":"22cba574-7b6d-5266-9a93-73db499cb07f","fields":{"slug":"/blog/2012-09-10-solitude/","type":"blog","timeToRead":{"words":690,"minutes":4}},"frontmatter":{"title":"寂寞","publish_date":"2012-09-10T00:38:51.000+08:00"}}},{"node":{"id":"7821654a-befc-5af3-bb50-1e52373ecafc","fields":{"slug":"/blog/2012-09-04-on-future-plan/","type":"blog","timeToRead":{"words":718,"minutes":4}},"frontmatter":{"title":"未来随想之二","publish_date":"2012-09-04T23:12:33.000+08:00"}}},{"node":{"id":"a2fc002c-d40b-524a-a7b8-87fff576fc09","fields":{"slug":"/blog/2012-09-03-anime-reviews-2012-spring/","type":"blog","timeToRead":{"words":2052,"minutes":13}},"frontmatter":{"title":"2012 年春番简评","publish_date":"2012-09-03T23:14:40.000+08:00"}}},{"node":{"id":"c300a331-acb0-5f13-80f9-99eaad49d876","fields":{"slug":"/blog/2012-06-21-20120621/","type":"blog","timeToRead":{"words":1514,"minutes":9}},"frontmatter":{"title":"2012 年 06 月 21 日","publish_date":"2012-06-21T01:46:44.000+08:00"}}},{"node":{"id":"a0a29249-129c-5659-8a1d-40df705bab7d","fields":{"slug":"/blog/2012-05-24-esta-project-retrospective/","type":"blog","timeToRead":{"words":4026,"minutes":25}},"frontmatter":{"title":"ESTA 小组工作小记","publish_date":"2012-05-24T00:05:19.000+08:00"}}}]}},"staticQueryHashes":["2356112386"],"slicesMap":{}}