{"componentChunkName":"component---src-templates-paginated-blog-index-tsx","path":"/blog/page/63/","result":{"pageContext":{"page":63,"total":753,"pages":76,"prev":62,"next":64,"limit":10,"items":[{"node":{"id":"906920d3-ad56-520a-96d0-57ea4bf6da75","fields":{"slug":"/blog/2005-11-26-reinstallation/","type":"blog","timeToRead":{"words":105,"minutes":1}},"frontmatter":{"title":"重装系统……","publish_date":"2005-11-26T23:09:48.000+08:00"}}},{"node":{"id":"be881ab8-197c-53d3-8989-5fe674173a58","fields":{"slug":"/blog/2005-11-25-should-i-resign/","type":"blog","timeToRead":{"words":147,"minutes":1}},"frontmatter":{"title":"是不是应该离开？","publish_date":"2005-11-25T21:39:54.000+08:00"}}},{"node":{"id":"7533e4ed-4426-5aa2-838e-72fa0064944a","fields":{"slug":"/blog/2005-11-19-mouse-broken/","type":"blog","timeToRead":{"words":230,"minutes":1}},"frontmatter":{"title":"鼠标坏了……","publish_date":"2005-11-19T18:26:49.000+08:00"}}},{"node":{"id":"f7d95c44-6350-5b9e-ac11-b54af9ba1c58","fields":{"slug":"/blog/2005-11-18-fight/","type":"blog","timeToRead":{"words":202,"minutes":1}},"frontmatter":{"title":"努力！","publish_date":"2005-11-18T20:43:53.000+08:00"}}},{"node":{"id":"59e83b5b-1864-5704-b99c-cc78b79a47e5","fields":{"slug":"/blog/2005-11-15-cycling/","type":"blog","timeToRead":{"words":148,"minutes":1}},"frontmatter":{"title":"周而复始","publish_date":"2005-11-15T17:59:48.000+08:00"}}},{"node":{"id":"e25acec5-ec0d-569c-aff2-df0b0b1f15fb","fields":{"slug":"/blog/2005-11-13-2-points/","type":"blog","timeToRead":{"words":260,"minutes":2}},"frontmatter":{"title":"2 分之差","publish_date":"2005-11-13T17:34:25.000+08:00"}}},{"node":{"id":"3643f574-ca27-5fae-99d4-3862679df975","fields":{"slug":"/blog/2005-11-12-feelings/","type":"blog","timeToRead":{"words":376,"minutes":2}},"frontmatter":{"title":"感觉……","publish_date":"2005-11-12T12:20:07.000+08:00"}}},{"node":{"id":"22d32257-5db1-50a1-ab72-79a9b91c51f7","fields":{"slug":"/blog/2005-11-11-water-jumping-and-anti-water-jumping/","type":"blog","timeToRead":{"words":113,"minutes":1}},"frontmatter":{"title":"跳水与反跳水","publish_date":"2005-11-11T18:03:02.000+08:00"}}},{"node":{"id":"709abb37-6563-571b-afbb-39d1130b828c","fields":{"slug":"/blog/2005-11-08-soso/","type":"blog","timeToRead":{"words":95,"minutes":1}},"frontmatter":{"title":"还好还好","publish_date":"2005-11-08T18:00:13.000+08:00"}}},{"node":{"id":"bd0a50a3-2d4d-5d71-b8e5-89c402833d15","fields":{"slug":"/blog/2005-11-07-my-chinese/","type":"blog","timeToRead":{"words":158,"minutes":1}},"frontmatter":{"title":"我的语文……","publish_date":"2005-11-07T18:10:45.000+08:00"}}}]}},"staticQueryHashes":["2356112386"],"slicesMap":{}}