{"componentChunkName":"component---src-templates-paginated-blog-index-tsx","path":"/blog/page/71/","result":{"pageContext":{"page":71,"total":753,"pages":76,"prev":70,"next":72,"limit":10,"items":[{"node":{"id":"4f2cc9ec-2f05-588c-9e72-8c05c5192a00","fields":{"slug":"/blog/2005-04-27-rain/","type":"blog","timeToRead":{"words":72,"minutes":0}},"frontmatter":{"title":"下雨了","publish_date":"2005-04-27T18:09:00.000+08:00"}}},{"node":{"id":"b35acff8-48db-5f32-bf76-4535c2d9e3c4","fields":{"slug":"/blog/2005-04-24-sleepless/","type":"blog","timeToRead":{"words":157,"minutes":1}},"frontmatter":{"title":"睡不着","publish_date":"2005-04-24T14:32:00.000+08:00"}}},{"node":{"id":"8e968f5c-28b9-59b8-9fe6-f1ba39b1adc2","fields":{"slug":"/blog/2005-04-23-rest/","type":"blog","timeToRead":{"words":44,"minutes":0}},"frontmatter":{"title":"休养咯","publish_date":"2005-04-23T20:19:00.000+08:00"}}},{"node":{"id":"e0dd94b6-41b5-5585-9342-b55e19d08eac","fields":{"slug":"/blog/2005-04-23-xuwei-every-moment-is-brand-new/","type":"blog","timeToRead":{"words":351,"minutes":2}},"frontmatter":{"title":"许巍-每一刻都是崭新的","publish_date":"2005-04-23T11:58:00.000+08:00"}}},{"node":{"id":"ad086f80-dc37-56e9-905d-8f4f96e27bf7","fields":{"slug":"/blog/2005-04-22-equivalent-exchange/","type":"blog","timeToRead":{"words":76,"minutes":0}},"frontmatter":{"title":"等价交换","publish_date":"2005-04-22T18:35:00.000+08:00"}}},{"node":{"id":"0a6a899d-003a-5605-98ac-02d2e8142518","fields":{"slug":"/blog/2005-04-22-afraid/","type":"blog","timeToRead":{"words":168,"minutes":1}},"frontmatter":{"title":"害怕","publish_date":"2005-04-22T18:29:00.000+08:00"}}},{"node":{"id":"5cd4111e-e992-590e-98c7-06a7ef4b41c3","fields":{"slug":"/blog/2005-04-19-sleepy/","type":"blog","timeToRead":{"words":176,"minutes":1}},"frontmatter":{"title":"困啊","publish_date":"2005-04-19T22:17:00.000+08:00"}}},{"node":{"id":"6b366f62-f5a8-5f0a-88a7-87d92fbf55cc","fields":{"slug":"/blog/2005-04-17-mp3/","type":"blog","timeToRead":{"words":86,"minutes":1}},"frontmatter":{"title":"MP3!","publish_date":"2005-04-17T12:56:00.000+08:00"}}},{"node":{"id":"ef4c0adf-24df-55e0-81e8-9b23577e0af5","fields":{"slug":"/blog/2005-04-13-i-m-feeling-lucky/","type":"blog","timeToRead":{"words":41,"minutes":0}},"frontmatter":{"title":"手气不错！","publish_date":"2005-04-13T17:57:00.000+08:00"}}},{"node":{"id":"40074d18-aac4-5335-a591-81da7dbb0607","fields":{"slug":"/blog/2005-04-13-arrogance/","type":"blog","timeToRead":{"words":77,"minutes":0}},"frontmatter":{"title":"嚣张分子","publish_date":"2005-04-13T17:54:00.000+08:00"}}}]}},"staticQueryHashes":["2356112386"],"slicesMap":{}}