{"componentChunkName":"component---src-templates-paginated-blog-index-tsx","path":"/blog/page/42/","result":{"pageContext":{"page":42,"total":753,"pages":76,"prev":41,"next":43,"limit":10,"items":[{"node":{"id":"8c541f4f-fcff-5368-aec7-38d260b614dd","fields":{"slug":"/blog/2007-05-07-one-month-left/","type":"blog","timeToRead":{"words":300,"minutes":2}},"frontmatter":{"title":"一个月","publish_date":"2007-05-07T17:47:43.000+08:00"}}},{"node":{"id":"ecab4b73-7a08-545a-b519-554afe74c370","fields":{"slug":"/blog/2007-05-01-email/","type":"blog","timeToRead":{"words":185,"minutes":1}},"frontmatter":{"title":"信","publish_date":"2007-05-01T20:51:21.000+08:00"}}},{"node":{"id":"d92c5022-b45b-5ad4-8aab-edacafb90fe1","fields":{"slug":"/blog/2007-04-29-sick/","type":"blog","timeToRead":{"words":306,"minutes":2}},"frontmatter":{"title":"生病","publish_date":"2007-04-29T17:58:01.000+08:00"}}},{"node":{"id":"cdeb5dd3-081e-595e-9c5f-28240d307155","fields":{"slug":"/blog/2007-04-26-3rd-simulation/","type":"blog","timeToRead":{"words":340,"minutes":2}},"frontmatter":{"title":"三模手记 II","publish_date":"2007-04-26T17:56:37.000+08:00"}}},{"node":{"id":"ff5e6648-8be5-52c8-87bb-321be4b697c1","fields":{"slug":"/blog/2007-04-25-3rd-simulation/","type":"blog","timeToRead":{"words":197,"minutes":1}},"frontmatter":{"title":"三模手记 I","publish_date":"2007-04-25T17:40:26.000+08:00"}}},{"node":{"id":"d2977540-ffca-52f6-b10f-805b9a8830d1","fields":{"slug":"/blog/2007-04-22-unceasing-wind/","type":"blog","timeToRead":{"words":380,"minutes":2}},"frontmatter":{"title":"树欲静而风不止","publish_date":"2007-04-22T17:29:23.000+08:00"}}},{"node":{"id":"48c7f088-926e-5680-bbd2-8cd0404eead8","fields":{"slug":"/blog/2007-04-21-marching/","type":"blog","timeToRead":{"words":214,"minutes":1}},"frontmatter":{"title":"慢慢前进","publish_date":"2007-04-21T19:49:33.000+08:00"}}},{"node":{"id":"4c0e67bf-7e00-53cf-ab0f-ef922f906838","fields":{"slug":"/blog/2007-04-15-decadent/","type":"blog","timeToRead":{"words":226,"minutes":1}},"frontmatter":{"title":"颓废","publish_date":"2007-04-15T17:29:52.000+08:00"}}},{"node":{"id":"ce689799-1cac-5fde-a959-8a3a3f01154e","fields":{"slug":"/blog/2007-04-14-deadlines/","type":"blog","timeToRead":{"words":289,"minutes":2}},"frontmatter":{"title":"Deadlines","publish_date":"2007-04-14T19:29:43.000+08:00"}}},{"node":{"id":"aaf542a4-c78a-58a4-896d-7465a743d2d0","fields":{"slug":"/blog/2007-04-08-grandpa-past/","type":"blog","timeToRead":{"words":172,"minutes":1}},"frontmatter":{"title":"外公的过去","publish_date":"2007-04-08T17:25:22.000+08:00"}}}]}},"staticQueryHashes":["2356112386"],"slicesMap":{}}