{"componentChunkName":"component---src-templates-paginated-blog-index-tsx","path":"/blog/page/59/","result":{"pageContext":{"page":59,"total":753,"pages":76,"prev":58,"next":60,"limit":10,"items":[{"node":{"id":"1c31c341-a7a5-5a62-b242-a6e3842d3df9","fields":{"slug":"/blog/2006-03-02-feeling-lost/","type":"blog","timeToRead":{"words":306,"minutes":2}},"frontmatter":{"title":"有些东西正在离我远去","publish_date":"2006-03-02T22:29:43.000+08:00"}}},{"node":{"id":"29c2633a-4bcd-5218-b085-83314899eeb8","fields":{"slug":"/blog/2006-02-26-no-direction/","type":"blog","timeToRead":{"words":251,"minutes":2}},"frontmatter":{"title":"惘然","publish_date":"2006-02-26T12:14:46.000+08:00"}}},{"node":{"id":"14e7ac36-e6ec-5fc1-93a8-25efd37e69fb","fields":{"slug":"/blog/2006-02-25-fool/","type":"blog","timeToRead":{"words":530,"minutes":3}},"frontmatter":{"title":"很傻","publish_date":"2006-02-25T20:36:40.000+08:00"}}},{"node":{"id":"bc5144a3-a3ec-5f29-98a1-9c6a19639a10","fields":{"slug":"/blog/2006-02-24-first-week/","type":"blog","timeToRead":{"words":260,"minutes":2}},"frontmatter":{"title":"第一周","publish_date":"2006-02-24T22:53:34.000+08:00"}}},{"node":{"id":"89a23d9c-a8c5-5b95-9347-49925617f260","fields":{"slug":"/blog/2006-02-18-consecutive/","type":"blog","timeToRead":{"words":443,"minutes":3}},"frontmatter":{"title":"接二连三","publish_date":"2006-02-18T23:08:23.000+08:00"}}},{"node":{"id":"4ecc5829-0b23-549c-a1a5-a73dba07eb28","fields":{"slug":"/blog/2006-02-17-returns/","type":"blog","timeToRead":{"words":202,"minutes":1}},"frontmatter":{"title":"重回","publish_date":"2006-02-17T22:00:46.000+08:00"}}},{"node":{"id":"b8f424df-3f60-54d2-9f27-abfb663e43f8","fields":{"slug":"/blog/2006-02-14-untitled/","type":"blog","timeToRead":{"words":236,"minutes":1}},"frontmatter":{"title":"无题","publish_date":"2006-02-14T22:44:26.000+08:00"}}},{"node":{"id":"b2f08045-7dee-5cdc-a7b0-f3de35217531","fields":{"slug":"/blog/2006-02-13-summary/","type":"blog","timeToRead":{"words":146,"minutes":1}},"frontmatter":{"title":"浑浑噩噩","publish_date":"2006-02-13T10:47:06.000+08:00"}}},{"node":{"id":"eb98c17d-4d47-5b39-ae7b-18faace4137f","fields":{"slug":"/blog/2006-02-11-time-flies/","type":"blog","timeToRead":{"words":81,"minutes":1}},"frontmatter":{"title":"岁月，如梭","publish_date":"2006-02-11T15:38:54.000+08:00"}}},{"node":{"id":"8b850fb5-3e4d-5468-89e4-9c52effa0de0","fields":{"slug":"/blog/2006-02-10-accordion/","type":"blog","timeToRead":{"words":207,"minutes":1}},"frontmatter":{"title":"手风琴和岁月有关","publish_date":"2006-02-10T22:29:17.000+08:00"}}}]}},"staticQueryHashes":["2356112386"],"slicesMap":{}}