{"componentChunkName":"component---src-templates-paginated-blog-index-tsx","path":"/blog/page/62/","result":{"pageContext":{"page":62,"total":753,"pages":76,"prev":61,"next":63,"limit":10,"items":[{"node":{"id":"87d86624-50ef-5af8-b239-2142fb923595","fields":{"slug":"/blog/2005-12-29-long-running/","type":"blog","timeToRead":{"words":182,"minutes":1}},"frontmatter":{"title":"补日志：长跑","publish_date":"2005-12-29T18:18:24.000+08:00"}}},{"node":{"id":"3cc9d891-4143-5fb3-8e53-db1615c351f4","fields":{"slug":"/blog/2005-12-25-christmas/","type":"blog","timeToRead":{"words":142,"minutes":1}},"frontmatter":{"title":"圣诞节……","publish_date":"2005-12-25T16:46:32.000+08:00"}}},{"node":{"id":"4d917665-f1c4-5f9c-8c66-56ce1e2c7f1d","fields":{"slug":"/blog/2005-12-24-all-day-playing/","type":"blog","timeToRead":{"words":184,"minutes":1}},"frontmatter":{"title":"今天玩了一整天","publish_date":"2005-12-24T22:26:30.000+08:00"}}},{"node":{"id":"60fcecce-0635-5868-b7cf-24d6a10c9390","fields":{"slug":"/blog/2005-12-23-tian-zhi-hen/","type":"blog","timeToRead":{"words":192,"minutes":1}},"frontmatter":{"title":"天之痕","publish_date":"2005-12-23T20:21:18.000+08:00"}}},{"node":{"id":"632e33f4-afc5-5884-a185-59c21f3b6c49","fields":{"slug":"/blog/2005-12-21-untitled/","type":"blog","timeToRead":{"words":121,"minutes":1}},"frontmatter":{"title":"呵呵","publish_date":"2005-12-21T23:03:50.000+08:00"}}},{"node":{"id":"dea9f86e-8bea-52bd-b8ca-08787d861d6a","fields":{"slug":"/blog/2005-12-20-fall-down/","type":"blog","timeToRead":{"words":262,"minutes":2}},"frontmatter":{"title":"摔倒","publish_date":"2005-12-20T21:40:11.000+08:00"}}},{"node":{"id":"ccd8c739-5d8b-5df2-8366-9c2059477e61","fields":{"slug":"/blog/2005-12-18-caught-cold/","type":"blog","timeToRead":{"words":244,"minutes":2}},"frontmatter":{"title":"感冒了……好难受","publish_date":"2005-12-18T17:46:15.000+08:00"}}},{"node":{"id":"eebf4618-bd82-5846-86ce-840af1a34d22","fields":{"slug":"/blog/2005-12-16-tired/","type":"blog","timeToRead":{"words":199,"minutes":1}},"frontmatter":{"title":"好累啊","publish_date":"2005-12-16T18:15:25.000+08:00"}}},{"node":{"id":"8b013da7-e8f9-5c03-8711-7016ef95c894","fields":{"slug":"/blog/2005-12-09-purity/","type":"blog","timeToRead":{"words":283,"minutes":2}},"frontmatter":{"title":"纯洁？","publish_date":"2005-12-09T20:04:28.000+08:00"}}},{"node":{"id":"de22ed75-cfd3-5f6b-99dc-372122b65edf","fields":{"slug":"/blog/2005-12-03-computer-down/","type":"blog","timeToRead":{"words":187,"minutes":1}},"frontmatter":{"title":"电脑坏了","publish_date":"2005-12-03T22:49:34.000+08:00"}}}]}},"staticQueryHashes":["2356112386"],"slicesMap":{}}