{"componentChunkName":"component---src-templates-paginated-blog-index-tsx","path":"/blog/page/38/","result":{"pageContext":{"page":38,"total":753,"pages":76,"prev":37,"next":39,"limit":10,"items":[{"node":{"id":"f47d2824-def8-5202-bfad-59b02cac63f9","fields":{"slug":"/blog/2007-08-08-hesitation/","type":"blog","timeToRead":{"words":212,"minutes":1}},"frontmatter":{"title":"犹豫","publish_date":"2007-08-08T16:58:24.000+08:00"}}},{"node":{"id":"af3905d4-0bdc-5345-9e28-79e22cdd2e33","fields":{"slug":"/blog/2007-08-01-thought-on-myself/","type":"blog","timeToRead":{"words":251,"minutes":2}},"frontmatter":{"title":"新想法","publish_date":"2007-08-01T11:56:45.000+08:00"}}},{"node":{"id":"071aee84-b398-5924-ba1d-bc2d7b560f09","fields":{"slug":"/blog/2007-07-31-amusement-park/","type":"blog","timeToRead":{"words":129,"minutes":1}},"frontmatter":{"title":"傍晚，游乐园","publish_date":"2007-07-31T22:27:49.000+08:00"}}},{"node":{"id":"242462e0-90b0-54c7-a6b2-e01abf2e1ac4","fields":{"slug":"/blog/2007-07-29-new-ui/","type":"blog","timeToRead":{"words":133,"minutes":1}},"frontmatter":{"title":"新界面","publish_date":"2007-07-29T12:54:44.000+08:00"}}},{"node":{"id":"73a169b5-93f4-5b8f-8727-d642d0a12d2f","fields":{"slug":"/blog/2007-07-27-listless/","type":"blog","timeToRead":{"words":194,"minutes":1}},"frontmatter":{"title":"无聊","publish_date":"2007-07-27T20:05:26.000+08:00"}}},{"node":{"id":"de6e61b6-67c1-5a74-a05c-a1980bf141ab","fields":{"slug":"/blog/2007-07-24-keep-calm/","type":"blog","timeToRead":{"words":173,"minutes":1}},"frontmatter":{"title":"静下心","publish_date":"2007-07-24T17:35:31.000+08:00"}}},{"node":{"id":"2a5e7457-dcb6-5d88-81ea-e85603268931","fields":{"slug":"/blog/2007-07-22-new-cellphone/","type":"blog","timeToRead":{"words":206,"minutes":1}},"frontmatter":{"title":"新手机","publish_date":"2007-07-22T22:26:39.000+08:00"}}},{"node":{"id":"e5418515-af56-5f46-a31f-61d7c781037e","fields":{"slug":"/blog/2007-07-18-offer-letter/","type":"blog","timeToRead":{"words":191,"minutes":1}},"frontmatter":{"title":"通知书","publish_date":"2007-07-18T22:16:59.000+08:00"}}},{"node":{"id":"827bdea4-e3e0-5575-925b-60602e4966cf","fields":{"slug":"/blog/2007-07-13-feelings-on-french/","type":"blog","timeToRead":{"words":406,"minutes":3}},"frontmatter":{"title":"我对法语的感觉","publish_date":"2007-07-13T19:32:22.000+08:00"}}},{"node":{"id":"a9b64c51-d4cf-5c65-a71d-76c21be973c6","fields":{"slug":"/blog/2007-07-11-accepted/","type":"blog","timeToRead":{"words":192,"minutes":1}},"frontmatter":{"title":"录取了","publish_date":"2007-07-11T21:42:49.000+08:00"}}}]}},"staticQueryHashes":["2356112386"],"slicesMap":{}}