{"componentChunkName":"component---src-templates-paginated-blog-index-tsx","path":"/blog/page/15/","result":{"pageContext":{"page":15,"total":753,"pages":76,"prev":14,"next":16,"limit":10,"items":[{"node":{"id":"ddef0a30-e2df-5f84-83a4-4c9e3c561fca","fields":{"slug":"/blog/2011-02-07-trip-to-fangchenggang/","type":"blog","timeToRead":{"words":1198,"minutes":7}},"frontmatter":{"title":"防城港记行","publish_date":"2011-02-07T21:00:53.000+08:00"}}},{"node":{"id":"ae686545-0827-57b9-bf99-55bfea4ff9a4","fields":{"slug":"/blog/2011-02-03-science-fiction-and-communism-p2/","type":"blog","timeToRead":{"words":639,"minutes":4}},"frontmatter":{"title":"科学幻想小说与共产主义 其之二","publish_date":"2011-02-03T01:37:33.000+08:00"}}},{"node":{"id":"8d7b1034-62d8-51e2-a363-f036ac787ae4","fields":{"slug":"/blog/2011-02-03-science-fiction-and-communism-p1/","type":"blog","timeToRead":{"words":959,"minutes":6}},"frontmatter":{"title":"科学幻想小说与共产主义·其之一","publish_date":"2011-02-03T00:50:46.000+08:00"}}},{"node":{"id":"717dadaf-9e85-5e2a-9daa-ff2301f4742a","fields":{"slug":"/blog/2011-01-29-the-little-school/","type":"blog","timeToRead":{"words":672,"minutes":4}},"frontmatter":{"title":"小学校","publish_date":"2011-01-29T00:53:27.000+08:00"}}},{"node":{"id":"34157f9e-064c-5cf5-b576-986b613a0f60","fields":{"slug":"/blog/2011-01-29-trying-realplayer-14/","type":"blog","timeToRead":{"words":639,"minutes":4}},"frontmatter":{"title":"Realplayer 14 简单试用","publish_date":"2011-01-29T00:24:25.000+08:00"}}},{"node":{"id":"0d78f0ed-ad89-59c1-b113-e7d366fff2d3","fields":{"slug":"/blog/2011-01-27-20110127/","type":"blog","timeToRead":{"words":816,"minutes":5}},"frontmatter":{"title":"2011 年 01 月 27 日","publish_date":"2011-01-27T01:53:58.000+08:00"}}},{"node":{"id":"969f38e4-53b9-5a2a-adb7-386ac00f2ee0","fields":{"slug":"/blog/2011-01-22-anime-first-impression-2011-winter/","type":"blog","timeToRead":{"words":1814,"minutes":11}},"frontmatter":{"title":"2011 年冬季新番初评","publish_date":"2011-01-22T17:02:34.000+08:00"}}},{"node":{"id":"968cf4c7-63c3-5086-b1e1-7e123eb3b5b4","fields":{"slug":"/blog/2011-01-09-review-sennen-jouyuu/","type":"blog","timeToRead":{"words":759,"minutes":5}},"frontmatter":{"title":"《千年女优》简评","publish_date":"2011-01-09T03:17:15.000+08:00"}}},{"node":{"id":"1df83433-5c6f-5da9-bd13-8490e4ab47f4","fields":{"slug":"/blog/2011-01-08-to-the-year-2011/","type":"blog","timeToRead":{"words":877,"minutes":5}},"frontmatter":{"title":"写给 2011 年","publish_date":"2011-01-08T00:39:58.000+08:00"}}},{"node":{"id":"64da231c-d01e-582c-8980-b02d14edcfac","fields":{"slug":"/blog/2011-01-07-review-shiki/","type":"blog","timeToRead":{"words":595,"minutes":4}},"frontmatter":{"title":"《尸鬼》简评","publish_date":"2011-01-07T19:55:25.000+08:00"}}}]}},"staticQueryHashes":["2356112386"],"slicesMap":{}}