{"componentChunkName":"component---src-templates-paginated-blog-index-tsx","path":"/blog/page/76/","result":{"pageContext":{"page":76,"total":753,"pages":76,"prev":75,"next":0,"limit":10,"items":[{"node":{"id":"e930f393-a6d9-5b30-b59f-2941184072ae","fields":{"slug":"/blog/2004-10-23-strange/","type":"blog","timeToRead":{"words":40,"minutes":0}},"frontmatter":{"title":"还是怪","publish_date":"2004-10-23T17:31:00.000+08:00"}}},{"node":{"id":"f2cb21f4-3643-5655-9785-7c8f9aeff914","fields":{"slug":"/blog/2004-10-22-really-strange/","type":"blog","timeToRead":{"words":125,"minutes":1}},"frontmatter":{"title":"真是怪事","publish_date":"2004-10-22T22:05:00.000+08:00"}}}]}},"staticQueryHashes":["2356112386"],"slicesMap":{}}