{"componentChunkName":"component---src-templates-paginated-blog-index-tsx","path":"/blog/page/3/","result":{"pageContext":{"page":3,"total":753,"pages":76,"prev":2,"next":4,"limit":10,"items":[{"node":{"id":"3a00e1ea-145d-571c-ab7a-c8245c0263b7","fields":{"slug":"/blog/2015-03-22-ssl-cert-change/","type":"blog","timeToRead":{"words":271,"minutes":2}},"frontmatter":{"title":"更换 SSL 证书","publish_date":"2015-03-22T17:17:53.000+08:00"}}},{"node":{"id":"fb51e28e-1a74-53c0-aa52-44b378ca5604","fields":{"slug":"/blog/2015-03-04-being-single-as-getting-cancer/","type":"blog","timeToRead":{"words":933,"minutes":6}},"frontmatter":{"title":"单身成癌","publish_date":"2015-03-04T01:23:20.000+08:00"}}},{"node":{"id":"97716cf7-339b-5184-89eb-bc49b0bb2b61","fields":{"slug":"/blog/2015-02-23-20150203/","type":"blog","timeToRead":{"words":525,"minutes":3}},"frontmatter":{"title":"2015 年 2 月 23 日","publish_date":"2015-02-23T02:17:04.000+08:00"}}},{"node":{"id":"1a8d93f2-1e5d-5d1d-a866-7734badcce2d","fields":{"slug":"/blog/2015-02-01-music-is-not-so-magical/","type":"blog","timeToRead":{"words":516,"minutes":3}},"frontmatter":{"title":"音楽は魔法ではない、でも、音楽は…","publish_date":"2015-02-01T02:41:27.000+08:00"}}},{"node":{"id":"535aedd5-97ee-56cf-babd-06962f13b86b","fields":{"slug":"/blog/2015-01-28-saekano/","type":"blog","timeToRead":{"words":504,"minutes":3}},"frontmatter":{"title":"不起眼女主的狂热","publish_date":"2015-01-28T22:52:11.000+08:00"}}},{"node":{"id":"6e8b2213-5027-5490-b02f-22458b7e6a86","fields":{"slug":"/blog/2015-01-17-juzhen-fangsong/","type":"blog","timeToRead":{"words":258,"minutes":2}},"frontmatter":{"title":"聚珍仿宋","publish_date":"2015-01-17T03:05:17.000+08:00"}}},{"node":{"id":"146d9e06-401a-5fe4-bc2a-220242b1e1c2","fields":{"slug":"/blog/2015-01-14-20150104/","type":"blog","timeToRead":{"words":969,"minutes":6}},"frontmatter":{"title":"2015 年 1 月 14 日","publish_date":"2015-01-14T01:18:51.000+08:00"}}},{"node":{"id":"801c9dd2-e053-55f6-b25e-dcbaf4ba9e18","fields":{"slug":"/blog/2014-12-03-renaissance/","type":"blog","timeToRead":{"words":582,"minutes":4}},"frontmatter":{"title":"Renaissance","publish_date":"2014-12-03T23:22:38.000+08:00"}}},{"node":{"id":"789727a0-c5fe-5609-911f-37dc73665a6a","fields":{"slug":"/blog/2014-09-22-20140922/","type":"blog","timeToRead":{"words":363,"minutes":2}},"frontmatter":{"title":"2014 年 9 月 22 日","publish_date":"2014-09-22T23:55:00.000+08:00"}}},{"node":{"id":"308eaf90-a0f8-5c15-aa65-2e6c7b9bdbd1","fields":{"slug":"/blog/2014-09-17-september/","type":"blog","timeToRead":{"words":531,"minutes":3}},"frontmatter":{"title":"九月","publish_date":"2014-09-17T21:05:00.000+08:00"}}}]}},"staticQueryHashes":["2356112386"],"slicesMap":{}}